<?xml version="1.0" encoding="UTF-8"?>
<gpx xmlns:xsi="http://www.w3.org/2001/XMLSchema-instance" xmlns="http://www.topografix.com/GPX/1/1"
     xsi:schemaLocation="http://www.topografix.com/GPX/1/1 http://www.topografix.com/GPX/1/1/gpx.xsd http://www.garmin.com/xmlschemas/GpxExtensions/v3 http://www.garmin.com/xmlschemas/GpxExtensionsv3.xsd http://www.garmin.com/xmlschemas/TrackPointExtension/v1 http://www.garmin.com/xmlschemas/TrackPointExtensionv1.xsd"
     xmlns:gpxtpx="http://www.garmin.com/xmlschemas/TrackPointExtension/v1"
     xmlns:gpxx="http://www.garmin.com/xmlschemas/GpxExtensions/v3" version="1.1" creator="https://gpxstudio.github.io">
  <metadata>
    <name>new</name>
    <author>gpx.studio</author>
    <type>Running</type>
    <link>https://gpxstudio.github.io</link>
  </metadata>
  <trk>
    <trkseg>
      <trkpt lat="55.753425" lon="48.741397">
        <ele>189.1</ele>
        <extensions>
          <gpxtpx:TrackPointExtension>
          </gpxtpx:TrackPointExtension>
        </extensions>
      </trkpt>
      <trkpt lat="55.753184" lon="48.741279">
        <ele>189.1</ele>
        <extensions>
          <gpxtpx:TrackPointExtension>
          </gpxtpx:TrackPointExtension>
        </extensions>
      </trkpt>
      <trkpt lat="55.753078" lon="48.741252">
        <ele>189.1</ele>
        <extensions>
          <gpxtpx:TrackPointExtension>
          </gpxtpx:TrackPointExtension>
        </extensions>
      </trkpt>
      <trkpt lat="55.753033" lon="48.741354">
        <ele>189.5</ele>
        <extensions>
          <gpxtpx:TrackPointExtension>
          </gpxtpx:TrackPointExtension>
        </extensions>
      </trkpt>
      <trkpt lat="55.752997" lon="48.741644">
        <ele>190.3</ele>
        <extensions>
          <gpxtpx:TrackPointExtension>
          </gpxtpx:TrackPointExtension>
        </extensions>
      </trkpt>
      <trkpt lat="55.752933" lon="48.741998">
        <ele>191.2</ele>
        <extensions>
          <gpxtpx:TrackPointExtension>
          </gpxtpx:TrackPointExtension>
        </extensions>
      </trkpt>
      <trkpt lat="55.752834" lon="48.742417">
        <ele>192.4</ele>
        <extensions>
          <gpxtpx:TrackPointExtension>
          </gpxtpx:TrackPointExtension>
        </extensions>
      </trkpt>
      <trkpt lat="55.752752" lon="48.743044">
        <ele>194.0</ele>
        <extensions>
          <gpxtpx:TrackPointExtension>
          </gpxtpx:TrackPointExtension>
        </extensions>
      </trkpt>
      <trkpt lat="55.752671" lon="48.743366">
        <ele>194.9</ele>
        <extensions>
          <gpxtpx:TrackPointExtension>
          </gpxtpx:TrackPointExtension>
        </extensions>
      </trkpt>
      <trkpt lat="55.752568" lon="48.743672">
        <ele>195.8</ele>
        <extensions>
          <gpxtpx:TrackPointExtension>
          </gpxtpx:TrackPointExtension>
        </extensions>
      </trkpt>
      <trkpt lat="55.752538" lon="48.743897">
        <ele>196.6</ele>
        <extensions>
          <gpxtpx:TrackPointExtension>
          </gpxtpx:TrackPointExtension>
        </extensions>
      </trkpt>
      <trkpt lat="55.752474" lon="48.743945">
        <ele>196.8</ele>
        <extensions>
          <gpxtpx:TrackPointExtension>
          </gpxtpx:TrackPointExtension>
        </extensions>
      </trkpt>
      <trkpt lat="55.752529" lon="48.744171">
        <ele>197.6</ele>
        <extensions>
          <gpxtpx:TrackPointExtension>
          </gpxtpx:TrackPointExtension>
        </extensions>
      </trkpt>
      <trkpt lat="55.752097" lon="48.744541">
        <ele>199.3</ele>
        <extensions>
          <gpxtpx:TrackPointExtension>
          </gpxtpx:TrackPointExtension>
        </extensions>
      </trkpt>
      <trkpt lat="55.751919" lon="48.743709">
        <ele>196.2</ele>
        <extensions>
          <gpxtpx:TrackPointExtension>
          </gpxtpx:TrackPointExtension>
        </extensions>
      </trkpt>
      <trkpt lat="55.751738" lon="48.743801">
        <ele>196.8</ele>
        <extensions>
          <gpxtpx:TrackPointExtension>
          </gpxtpx:TrackPointExtension>
        </extensions>
      </trkpt>
      <trkpt lat="55.751680" lon="48.743650">
        <ele>196.4</ele>
        <extensions>
          <gpxtpx:TrackPointExtension>
          </gpxtpx:TrackPointExtension>
        </extensions>
      </trkpt>
      <trkpt lat="55.751505" lon="48.743613">
        <ele>196.5</ele>
        <extensions>
          <gpxtpx:TrackPointExtension>
          </gpxtpx:TrackPointExtension>
        </extensions>
      </trkpt>
      <trkpt lat="55.751215" lon="48.743307">
        <ele>196.4</ele>
        <extensions>
          <gpxtpx:TrackPointExtension>
          </gpxtpx:TrackPointExtension>
        </extensions>
      </trkpt>
      <trkpt lat="55.750868" lon="48.743012">
        <ele>196.3</ele>
        <extensions>
          <gpxtpx:TrackPointExtension>
          </gpxtpx:TrackPointExtension>
        </extensions>
      </trkpt>
      <trkpt lat="55.750331" lon="48.742476">
        <ele>196.0</ele>
        <extensions>
          <gpxtpx:TrackPointExtension>
          </gpxtpx:TrackPointExtension>
        </extensions>
      </trkpt>
      <trkpt lat="55.749993" lon="48.742143">
        <ele>195.8</ele>
        <extensions>
          <gpxtpx:TrackPointExtension>
          </gpxtpx:TrackPointExtension>
        </extensions>
      </trkpt>
    </trkseg>
  </trk>
</gpx>