<?xml version="1.0" encoding="UTF-8"?>
<gpx xmlns:xsi="http://www.w3.org/2001/XMLSchema-instance" xmlns="http://www.topografix.com/GPX/1/1" xsi:schemaLocation="http://www.topografix.com/GPX/1/1 http://www.topografix.com/GPX/1/1/gpx.xsd http://www.garmin.com/xmlschemas/GpxExtensions/v3 http://www.garmin.com/xmlschemas/GpxExtensionsv3.xsd http://www.garmin.com/xmlschemas/TrackPointExtension/v1 http://www.garmin.com/xmlschemas/TrackPointExtensionv1.xsd" xmlns:gpxtpx="http://www.garmin.com/xmlschemas/TrackPointExtension/v1" xmlns:gpxx="http://www.garmin.com/xmlschemas/GpxExtensions/v3" version="1.1" creator="https://gpxstudio.github.io">
<metadata>
    <name>new</name>
    <author>gpx.studio</author>
    <type>Running</type>
    <link>https://gpxstudio.github.io</link>
</metadata>
<trk>
    <trkseg>
    <trkpt lat="55.753461" lon="48.741408">
        <ele>189.2</ele>
        <extensions>
        <gpxtpx:TrackPointExtension>
        </gpxtpx:TrackPointExtension>
        </extensions>
    </trkpt>
    <trkpt lat="55.753087" lon="48.741226">
        <ele>189.1</ele>
        <extensions>
        <gpxtpx:TrackPointExtension>
        </gpxtpx:TrackPointExtension>
        </extensions>
    </trkpt>
    <trkpt lat="55.752988" lon="48.741783">
        <ele>190.6</ele>
        <extensions>
        <gpxtpx:TrackPointExtension>
        </gpxtpx:TrackPointExtension>
        </extensions>
    </trkpt>
    <trkpt lat="55.752933" lon="48.742175">
        <ele>191.7</ele>
        <extensions>
        <gpxtpx:TrackPointExtension>
        </gpxtpx:TrackPointExtension>
        </extensions>
    </trkpt>
    <trkpt lat="55.752831" lon="48.742760">
        <ele>193.3</ele>
        <extensions>
        <gpxtpx:TrackPointExtension>
        </gpxtpx:TrackPointExtension>
        </extensions>
    </trkpt>
    <trkpt lat="55.752713" lon="48.743098">
        <ele>194.2</ele>
        <extensions>
        <gpxtpx:TrackPointExtension>
        </gpxtpx:TrackPointExtension>
        </extensions>
    </trkpt>
    <trkpt lat="55.752595" lon="48.743854">
        <ele>196.4</ele>
        <extensions>
        <gpxtpx:TrackPointExtension>
        </gpxtpx:TrackPointExtension>
        </extensions>
    </trkpt>
    <trkpt lat="55.752716" lon="48.744332">
        <ele>198.1</ele>
        <extensions>
        <gpxtpx:TrackPointExtension>
        </gpxtpx:TrackPointExtension>
        </extensions>
    </trkpt>
    <trkpt lat="55.753099" lon="48.744664">
        <ele>198.9</ele>
        <extensions>
        <gpxtpx:TrackPointExtension>
        </gpxtpx:TrackPointExtension>
        </extensions>
    </trkpt>
    <trkpt lat="55.753468" lon="48.744938">
        <ele>199.7</ele>
        <extensions>
        <gpxtpx:TrackPointExtension>
        </gpxtpx:TrackPointExtension>
        </extensions>
    </trkpt>
    <trkpt lat="55.753935" lon="48.745217">
        <ele>201.1</ele>
        <extensions>
        <gpxtpx:TrackPointExtension>
        </gpxtpx:TrackPointExtension>
        </extensions>
    </trkpt>
    <trkpt lat="55.754295" lon="48.745458">
        <ele>202.4</ele>
        <extensions>
        <gpxtpx:TrackPointExtension>
        </gpxtpx:TrackPointExtension>
        </extensions>
    </trkpt>
    <trkpt lat="55.754584" lon="48.745641">
        <ele>203.5</ele>
        <extensions>
        <gpxtpx:TrackPointExtension>
        </gpxtpx:TrackPointExtension>
        </extensions>
    </trkpt>
    <trkpt lat="55.754923" lon="48.745780">
        <ele>204.5</ele>
        <extensions>
        <gpxtpx:TrackPointExtension>
        </gpxtpx:TrackPointExtension>
        </extensions>
    </trkpt>
    <trkpt lat="55.755246" lon="48.745914">
        <ele>205.0</ele>
        <extensions>
        <gpxtpx:TrackPointExtension>
        </gpxtpx:TrackPointExtension>
        </extensions>
    </trkpt>
    <trkpt lat="55.755623" lon="48.745946">
        <ele>205.0</ele>
        <extensions>
        <gpxtpx:TrackPointExtension>
        </gpxtpx:TrackPointExtension>
        </extensions>
    </trkpt>
    <trkpt lat="55.755955" lon="48.746064">
        <ele>205.3</ele>
        <extensions>
        <gpxtpx:TrackPointExtension>
        </gpxtpx:TrackPointExtension>
        </extensions>
    </trkpt>
    <trkpt lat="55.756320" lon="48.746091">
        <ele>205.3</ele>
        <extensions>
        <gpxtpx:TrackPointExtension>
        </gpxtpx:TrackPointExtension>
        </extensions>
    </trkpt>
    <trkpt lat="55.756607" lon="48.746091">
        <ele>204.8</ele>
        <extensions>
        <gpxtpx:TrackPointExtension>
        </gpxtpx:TrackPointExtension>
        </extensions>
    </trkpt>
    <trkpt lat="55.756933" lon="48.746011">
        <ele>203.2</ele>
        <extensions>
        <gpxtpx:TrackPointExtension>
        </gpxtpx:TrackPointExtension>
        </extensions>
    </trkpt>
    <trkpt lat="55.757024" lon="48.745973">
        <ele>202.7</ele>
        <extensions>
        <gpxtpx:TrackPointExtension>
        </gpxtpx:TrackPointExtension>
        </extensions>
    </trkpt>
    <trkpt lat="55.757036" lon="48.746027">
        <ele>202.9</ele>
        <extensions>
        <gpxtpx:TrackPointExtension>
        </gpxtpx:TrackPointExtension>
        </extensions>
    </trkpt>
    <trkpt lat="55.756604" lon="48.746064">
        <ele>204.7</ele>
        <extensions>
        <gpxtpx:TrackPointExtension>
        </gpxtpx:TrackPointExtension>
        </extensions>
    </trkpt>
    <trkpt lat="55.755898" lon="48.746000">
        <ele>205.1</ele>
        <extensions>
        <gpxtpx:TrackPointExtension>
        </gpxtpx:TrackPointExtension>
        </extensions>
    </trkpt>
    <trkpt lat="55.755578" lon="48.745984">
        <ele>205.1</ele>
        <extensions>
        <gpxtpx:TrackPointExtension>
        </gpxtpx:TrackPointExtension>
        </extensions>
    </trkpt>
    <trkpt lat="55.754917" lon="48.745818">
        <ele>204.7</ele>
        <extensions>
        <gpxtpx:TrackPointExtension>
        </gpxtpx:TrackPointExtension>
        </extensions>
    </trkpt>
    <trkpt lat="55.754289" lon="48.745415">
        <ele>202.3</ele>
        <extensions>
        <gpxtpx:TrackPointExtension>
        </gpxtpx:TrackPointExtension>
        </extensions>
    </trkpt>
    <trkpt lat="55.753772" lon="48.745158">
        <ele>200.7</ele>
        <extensions>
        <gpxtpx:TrackPointExtension>
        </gpxtpx:TrackPointExtension>
        </extensions>
    </trkpt>
    <trkpt lat="55.753232" lon="48.744820">
        <ele>199.4</ele>
        <extensions>
        <gpxtpx:TrackPointExtension>
        </gpxtpx:TrackPointExtension>
        </extensions>
    </trkpt>
    <trkpt lat="55.752797" lon="48.744552">
        <ele>198.8</ele>
        <extensions>
        <gpxtpx:TrackPointExtension>
        </gpxtpx:TrackPointExtension>
        </extensions>
    </trkpt>
    <trkpt lat="55.752634" lon="48.744203">
        <ele>197.7</ele>
        <extensions>
        <gpxtpx:TrackPointExtension>
        </gpxtpx:TrackPointExtension>
        </extensions>
    </trkpt>
    <trkpt lat="55.752574" lon="48.743956">
        <ele>196.8</ele>
        <extensions>
        <gpxtpx:TrackPointExtension>
        </gpxtpx:TrackPointExtension>
        </extensions>
    </trkpt>
    <trkpt lat="55.752495" lon="48.743886">
        <ele>196.6</ele>
        <extensions>
        <gpxtpx:TrackPointExtension>
        </gpxtpx:TrackPointExtension>
        </extensions>
    </trkpt>
    <trkpt lat="55.752477" lon="48.744165">
        <ele>197.6</ele>
        <extensions>
        <gpxtpx:TrackPointExtension>
        </gpxtpx:TrackPointExtension>
        </extensions>
    </trkpt>
    <trkpt lat="55.752106" lon="48.744487">
        <ele>199.1</ele>
        <extensions>
        <gpxtpx:TrackPointExtension>
        </gpxtpx:TrackPointExtension>
        </extensions>
    </trkpt>
    <trkpt lat="55.751916" lon="48.743752">
        <ele>196.4</ele>
        <extensions>
        <gpxtpx:TrackPointExtension>
        </gpxtpx:TrackPointExtension>
        </extensions>
    </trkpt>
    <trkpt lat="55.751800" lon="48.743827">
        <ele>196.8</ele>
        <extensions>
        <gpxtpx:TrackPointExtension>
        </gpxtpx:TrackPointExtension>
        </extensions>
    </trkpt>
    <trkpt lat="55.751733" lon="48.743857">
        <ele>197.1</ele>
        <extensions>
        <gpxtpx:TrackPointExtension>
        </gpxtpx:TrackPointExtension>
        </extensions>
    </trkpt>
    <trkpt lat="55.751683" lon="48.743731">
        <ele>196.7</ele>
        <extensions>
        <gpxtpx:TrackPointExtension>
        </gpxtpx:TrackPointExtension>
        </extensions>
    </trkpt>
    <trkpt lat="55.751626" lon="48.743693">
        <ele>196.6</ele>
        <extensions>
        <gpxtpx:TrackPointExtension>
        </gpxtpx:TrackPointExtension>
        </extensions>
    </trkpt>
    <trkpt lat="55.751461" lon="48.743511">
        <ele>196.4</ele>
        <extensions>
        <gpxtpx:TrackPointExtension>
        </gpxtpx:TrackPointExtension>
        </extensions>
    </trkpt>
    <trkpt lat="55.751120" lon="48.743243">
        <ele>196.4</ele>
        <extensions>
        <gpxtpx:TrackPointExtension>
        </gpxtpx:TrackPointExtension>
        </extensions>
    </trkpt>
    <trkpt lat="55.750901" lon="48.743009">
        <ele>196.3</ele>
        <extensions>
        <gpxtpx:TrackPointExtension>
        </gpxtpx:TrackPointExtension>
        </extensions>
    </trkpt>
    <trkpt lat="55.750557" lon="48.742736">
        <ele>196.2</ele>
        <extensions>
        <gpxtpx:TrackPointExtension>
        </gpxtpx:TrackPointExtension>
        </extensions>
    </trkpt>
    <trkpt lat="55.750203" lon="48.742374">
        <ele>195.9</ele>
        <extensions>
        <gpxtpx:TrackPointExtension>
        </gpxtpx:TrackPointExtension>
        </extensions>
    </trkpt>
    <trkpt lat="55.749976" lon="48.742103">
        <ele>195.7</ele>
        <extensions>
        <gpxtpx:TrackPointExtension>
        </gpxtpx:TrackPointExtension>
        </extensions>
    </trkpt>
    </trkseg>
    </trk>
</gpx>