<?xml version="1.0" encoding="UTF-8"?>
<gpx xmlns:xsi="http://www.w3.org/2001/XMLSchema-instance" xmlns="http://www.topografix.com/GPX/1/1" xsi:schemaLocation="http://www.topografix.com/GPX/1/1 http://www.topografix.com/GPX/1/1/gpx.xsd http://www.garmin.com/xmlschemas/GpxExtensions/v3 http://www.garmin.com/xmlschemas/GpxExtensionsv3.xsd http://www.garmin.com/xmlschemas/TrackPointExtension/v1 http://www.garmin.com/xmlschemas/TrackPointExtensionv1.xsd" xmlns:gpxtpx="http://www.garmin.com/xmlschemas/TrackPointExtension/v1" xmlns:gpxx="http://www.garmin.com/xmlschemas/GpxExtensions/v3" version="1.1" creator="https://gpxstudio.github.io">
<metadata>
    <name>new</name>
    <author>gpx.studio</author>
    <type>Running</type>
    <link>https://gpxstudio.github.io</link>
</metadata>
<trk>
    <trkseg>
    <trkpt lat="55.753546" lon="48.741472">
        <ele>189.4</ele>
        <extensions>
        <gpxtpx:TrackPointExtension>
        </gpxtpx:TrackPointExtension>
        </extensions>
    </trkpt>
    <trkpt lat="55.753846" lon="48.741593">
        <ele>190.0</ele>
        <extensions>
        <gpxtpx:TrackPointExtension>
        </gpxtpx:TrackPointExtension>
        </extensions>
    </trkpt>
    <trkpt lat="55.754073" lon="48.741674">
        <ele>190.4</ele>
        <extensions>
        <gpxtpx:TrackPointExtension>
        </gpxtpx:TrackPointExtension>
        </extensions>
    </trkpt>
    <trkpt lat="55.754249" lon="48.741821">
        <ele>190.9</ele>
        <extensions>
        <gpxtpx:TrackPointExtension>
        </gpxtpx:TrackPointExtension>
        </extensions>
    </trkpt>
    <trkpt lat="55.754200" lon="48.742097">
        <ele>191.5</ele>
        <extensions>
        <gpxtpx:TrackPointExtension>
        </gpxtpx:TrackPointExtension>
        </extensions>
    </trkpt>
    <trkpt lat="55.754216" lon="48.742398">
        <ele>192.3</ele>
        <extensions>
        <gpxtpx:TrackPointExtension>
        </gpxtpx:TrackPointExtension>
        </extensions>
    </trkpt>
    <trkpt lat="55.754228" lon="48.742626">
        <ele>192.9</ele>
        <extensions>
        <gpxtpx:TrackPointExtension>
        </gpxtpx:TrackPointExtension>
        </extensions>
    </trkpt>
    <trkpt lat="55.754201" lon="48.742875">
        <ele>193.5</ele>
        <extensions>
        <gpxtpx:TrackPointExtension>
        </gpxtpx:TrackPointExtension>
        </extensions>
    </trkpt>
    <trkpt lat="55.754237" lon="48.742988">
        <ele>193.8</ele>
        <extensions>
        <gpxtpx:TrackPointExtension>
        </gpxtpx:TrackPointExtension>
        </extensions>
    </trkpt>
    <trkpt lat="55.754393" lon="48.743079">
        <ele>194.1</ele>
        <extensions>
        <gpxtpx:TrackPointExtension>
        </gpxtpx:TrackPointExtension>
        </extensions>
    </trkpt>
    <trkpt lat="55.754577" lon="48.743189">
        <ele>194.4</ele>
        <extensions>
        <gpxtpx:TrackPointExtension>
        </gpxtpx:TrackPointExtension>
        </extensions>
    </trkpt>
    <trkpt lat="55.754553" lon="48.743548">
        <ele>195.2</ele>
        <extensions>
        <gpxtpx:TrackPointExtension>
        </gpxtpx:TrackPointExtension>
        </extensions>
    </trkpt>
    <trkpt lat="55.754459" lon="48.744184">
        <ele>197.6</ele>
        <extensions>
        <gpxtpx:TrackPointExtension>
        </gpxtpx:TrackPointExtension>
        </extensions>
    </trkpt>
    <trkpt lat="55.754366" lon="48.744849">
        <ele>200.2</ele>
        <extensions>
        <gpxtpx:TrackPointExtension>
        </gpxtpx:TrackPointExtension>
        </extensions>
    </trkpt>
    <trkpt lat="55.754287" lon="48.745359">
        <ele>202.0</ele>
        <extensions>
        <gpxtpx:TrackPointExtension>
        </gpxtpx:TrackPointExtension>
        </extensions>
    </trkpt>
    <trkpt lat="55.754311" lon="48.745480">
        <ele>202.5</ele>
        <extensions>
        <gpxtpx:TrackPointExtension>
        </gpxtpx:TrackPointExtension>
        </extensions>
    </trkpt>
    <trkpt lat="55.754642" lon="48.745616">
        <ele>203.5</ele>
        <extensions>
        <gpxtpx:TrackPointExtension>
        </gpxtpx:TrackPointExtension>
        </extensions>
    </trkpt>
    <trkpt lat="55.754987" lon="48.745820">
        <ele>204.7</ele>
        <extensions>
        <gpxtpx:TrackPointExtension>
        </gpxtpx:TrackPointExtension>
        </extensions>
    </trkpt>
    <trkpt lat="55.755365" lon="48.745887">
        <ele>204.8</ele>
        <extensions>
        <gpxtpx:TrackPointExtension>
        </gpxtpx:TrackPointExtension>
        </extensions>
    </trkpt>
    <trkpt lat="55.755676" lon="48.745997">
        <ele>205.2</ele>
        <extensions>
        <gpxtpx:TrackPointExtension>
        </gpxtpx:TrackPointExtension>
        </extensions>
    </trkpt>
    <trkpt lat="55.756110" lon="48.746048">
        <ele>205.2</ele>
        <extensions>
        <gpxtpx:TrackPointExtension>
        </gpxtpx:TrackPointExtension>
        </extensions>
    </trkpt>
    <trkpt lat="55.756446" lon="48.746129">
        <ele>205.4</ele>
        <extensions>
        <gpxtpx:TrackPointExtension>
        </gpxtpx:TrackPointExtension>
        </extensions>
    </trkpt>
    <trkpt lat="55.756737" lon="48.746032">
        <ele>204.1</ele>
        <extensions>
        <gpxtpx:TrackPointExtension>
        </gpxtpx:TrackPointExtension>
        </extensions>
    </trkpt>
    <trkpt lat="55.756957" lon="48.746035">
        <ele>203.2</ele>
        <extensions>
        <gpxtpx:TrackPointExtension>
        </gpxtpx:TrackPointExtension>
        </extensions>
    </trkpt>
    <trkpt lat="55.756960" lon="48.745997">
        <ele>203.1</ele>
        <extensions>
        <gpxtpx:TrackPointExtension>
        </gpxtpx:TrackPointExtension>
        </extensions>
    </trkpt>
    <trkpt lat="55.756767" lon="48.746075">
        <ele>204.1</ele>
        <extensions>
        <gpxtpx:TrackPointExtension>
        </gpxtpx:TrackPointExtension>
        </extensions>
    </trkpt>
    <trkpt lat="55.756479" lon="48.746067">
        <ele>205.2</ele>
        <extensions>
        <gpxtpx:TrackPointExtension>
        </gpxtpx:TrackPointExtension>
        </extensions>
    </trkpt>
    <trkpt lat="55.756189" lon="48.746105">
        <ele>205.4</ele>
        <extensions>
        <gpxtpx:TrackPointExtension>
        </gpxtpx:TrackPointExtension>
        </extensions>
    </trkpt>
    <trkpt lat="55.755898" lon="48.746056">
        <ele>205.3</ele>
        <extensions>
        <gpxtpx:TrackPointExtension>
        </gpxtpx:TrackPointExtension>
        </extensions>
    </trkpt>
    <trkpt lat="55.755458" lon="48.745957">
        <ele>205.1</ele>
        <extensions>
        <gpxtpx:TrackPointExtension>
        </gpxtpx:TrackPointExtension>
        </extensions>
    </trkpt>
    <trkpt lat="55.755102" lon="48.745895">
        <ele>205.0</ele>
        <extensions>
        <gpxtpx:TrackPointExtension>
        </gpxtpx:TrackPointExtension>
        </extensions>
    </trkpt>
    <trkpt lat="55.754716" lon="48.745716">
        <ele>204.0</ele>
        <extensions>
        <gpxtpx:TrackPointExtension>
        </gpxtpx:TrackPointExtension>
        </extensions>
    </trkpt>
    <trkpt lat="55.754361" lon="48.745477">
        <ele>202.6</ele>
        <extensions>
        <gpxtpx:TrackPointExtension>
        </gpxtpx:TrackPointExtension>
        </extensions>
    </trkpt>
    <trkpt lat="55.754025" lon="48.745308">
        <ele>201.6</ele>
        <extensions>
        <gpxtpx:TrackPointExtension>
        </gpxtpx:TrackPointExtension>
        </extensions>
    </trkpt>
    <trkpt lat="55.753686" lon="48.745075">
        <ele>200.4</ele>
        <extensions>
        <gpxtpx:TrackPointExtension>
        </gpxtpx:TrackPointExtension>
        </extensions>
    </trkpt>
    <trkpt lat="55.753327" lon="48.744881">
        <ele>199.5</ele>
        <extensions>
        <gpxtpx:TrackPointExtension>
        </gpxtpx:TrackPointExtension>
        </extensions>
    </trkpt>
    <trkpt lat="55.753001" lon="48.744648">
        <ele>199.0</ele>
        <extensions>
        <gpxtpx:TrackPointExtension>
        </gpxtpx:TrackPointExtension>
        </extensions>
    </trkpt>
    <trkpt lat="55.752754" lon="48.744498">
        <ele>198.6</ele>
        <extensions>
        <gpxtpx:TrackPointExtension>
        </gpxtpx:TrackPointExtension>
        </extensions>
    </trkpt>
    <trkpt lat="55.752624" lon="48.744147">
        <ele>197.5</ele>
        <extensions>
        <gpxtpx:TrackPointExtension>
        </gpxtpx:TrackPointExtension>
        </extensions>
    </trkpt>
    <trkpt lat="55.752568" lon="48.743886">
        <ele>196.5</ele>
        <extensions>
        <gpxtpx:TrackPointExtension>
        </gpxtpx:TrackPointExtension>
        </extensions>
    </trkpt>
    <trkpt lat="55.752464" lon="48.743940">
        <ele>196.8</ele>
        <extensions>
        <gpxtpx:TrackPointExtension>
        </gpxtpx:TrackPointExtension>
        </extensions>
    </trkpt>
    <trkpt lat="55.752515" lon="48.744122">
        <ele>197.4</ele>
        <extensions>
        <gpxtpx:TrackPointExtension>
        </gpxtpx:TrackPointExtension>
        </extensions>
    </trkpt>
    <trkpt lat="55.752094" lon="48.744533">
        <ele>199.3</ele>
        <extensions>
        <gpxtpx:TrackPointExtension>
        </gpxtpx:TrackPointExtension>
        </extensions>
    </trkpt>
    <trkpt lat="55.752289" lon="48.745354">
        <ele>202.2</ele>
        <extensions>
        <gpxtpx:TrackPointExtension>
        </gpxtpx:TrackPointExtension>
        </extensions>
    </trkpt>
    <trkpt lat="55.752154" lon="48.745494">
        <ele>202.9</ele>
        <extensions>
        <gpxtpx:TrackPointExtension>
        </gpxtpx:TrackPointExtension>
        </extensions>
    </trkpt>
    <trkpt lat="55.752159" lon="48.745681">
        <ele>203.6</ele>
        <extensions>
        <gpxtpx:TrackPointExtension>
        </gpxtpx:TrackPointExtension>
        </extensions>
    </trkpt>
    <trkpt lat="55.752090" lon="48.745791">
        <ele>204.1</ele>
        <extensions>
        <gpxtpx:TrackPointExtension>
        </gpxtpx:TrackPointExtension>
        </extensions>
    </trkpt>
    <trkpt lat="55.752007" lon="48.746134">
        <ele>205.5</ele>
        <extensions>
        <gpxtpx:TrackPointExtension>
        </gpxtpx:TrackPointExtension>
        </extensions>
    </trkpt>
    <trkpt lat="55.751880" lon="48.746657">
        <ele>207.2</ele>
        <extensions>
        <gpxtpx:TrackPointExtension>
        </gpxtpx:TrackPointExtension>
        </extensions>
    </trkpt>
    <trkpt lat="55.751772" lon="48.747140">
        <ele>208.5</ele>
        <extensions>
        <gpxtpx:TrackPointExtension>
        </gpxtpx:TrackPointExtension>
        </extensions>
    </trkpt>
    <trkpt lat="55.751657" lon="48.747655">
        <ele>209.7</ele>
        <extensions>
        <gpxtpx:TrackPointExtension>
        </gpxtpx:TrackPointExtension>
        </extensions>
    </trkpt>
    <trkpt lat="55.751580" lon="48.748016">
        <ele>210.5</ele>
        <extensions>
        <gpxtpx:TrackPointExtension>
        </gpxtpx:TrackPointExtension>
        </extensions>
    </trkpt>
    <trkpt lat="55.751506" lon="48.748346">
        <ele>211.2</ele>
        <extensions>
        <gpxtpx:TrackPointExtension>
        </gpxtpx:TrackPointExtension>
        </extensions>
    </trkpt>
    <trkpt lat="55.751442" lon="48.748646">
        <ele>211.8</ele>
        <extensions>
        <gpxtpx:TrackPointExtension>
        </gpxtpx:TrackPointExtension>
        </extensions>
    </trkpt>
    <trkpt lat="55.751360" lon="48.749032">
        <ele>212.6</ele>
        <extensions>
        <gpxtpx:TrackPointExtension>
        </gpxtpx:TrackPointExtension>
        </extensions>
    </trkpt>
    <trkpt lat="55.751239" lon="48.749648">
        <ele>211.0</ele>
        <extensions>
        <gpxtpx:TrackPointExtension>
        </gpxtpx:TrackPointExtension>
        </extensions>
    </trkpt>
    <trkpt lat="55.751220" lon="48.749748">
        <ele>210.7</ele>
        <extensions>
        <gpxtpx:TrackPointExtension>
        </gpxtpx:TrackPointExtension>
        </extensions>
    </trkpt>
    </trkseg>
    </trk>
</gpx>