<?xml version="1.0" encoding="UTF-8"?>
<gpx xmlns:xsi="http://www.w3.org/2001/XMLSchema-instance" xmlns="http://www.topografix.com/GPX/1/1" xsi:schemaLocation="http://www.topografix.com/GPX/1/1 http://www.topografix.com/GPX/1/1/gpx.xsd http://www.garmin.com/xmlschemas/GpxExtensions/v3 http://www.garmin.com/xmlschemas/GpxExtensionsv3.xsd http://www.garmin.com/xmlschemas/TrackPointExtension/v1 http://www.garmin.com/xmlschemas/TrackPointExtensionv1.xsd" xmlns:gpxtpx="http://www.garmin.com/xmlschemas/TrackPointExtension/v1" xmlns:gpxx="http://www.garmin.com/xmlschemas/GpxExtensions/v3" version="1.1" creator="https://gpxstudio.github.io">
<metadata>
    <name>new</name>
    <author>gpx.studio</author>
    <type>Running</type>
    <link>https://gpxstudio.github.io</link>
</metadata>
<trk>
    <trkseg>
    <trkpt lat="55.749990" lon="48.742143">
        <ele>195.8</ele>
        <extensions>
        <gpxtpx:TrackPointExtension>
        </gpxtpx:TrackPointExtension>
        </extensions>
    </trkpt>
    <trkpt lat="55.749377" lon="48.741489">
        <ele>195.8</ele>
        <extensions>
        <gpxtpx:TrackPointExtension>
        </gpxtpx:TrackPointExtension>
        </extensions>
    </trkpt>
    <trkpt lat="55.749265" lon="48.741370">
        <ele>195.9</ele>
        <extensions>
        <gpxtpx:TrackPointExtension>
        </gpxtpx:TrackPointExtension>
        </extensions>
    </trkpt>
    <trkpt lat="55.748839" lon="48.740834">
        <ele>196.3</ele>
        <extensions>
        <gpxtpx:TrackPointExtension>
        </gpxtpx:TrackPointExtension>
        </extensions>
    </trkpt>
    <trkpt lat="55.748471" lon="48.740437">
        <ele>196.2</ele>
        <extensions>
        <gpxtpx:TrackPointExtension>
        </gpxtpx:TrackPointExtension>
        </extensions>
    </trkpt>
    <trkpt lat="55.748190" lon="48.740062">
        <ele>195.9</ele>
        <extensions>
        <gpxtpx:TrackPointExtension>
        </gpxtpx:TrackPointExtension>
        </extensions>
    </trkpt>
    <trkpt lat="55.747831" lon="48.739632">
        <ele>195.9</ele>
        <extensions>
        <gpxtpx:TrackPointExtension>
        </gpxtpx:TrackPointExtension>
        </extensions>
    </trkpt>
    <trkpt lat="55.747290" lon="48.738892">
        <ele>196.0</ele>
        <extensions>
        <gpxtpx:TrackPointExtension>
        </gpxtpx:TrackPointExtension>
        </extensions>
    </trkpt>
    <trkpt lat="55.746745" lon="48.738071">
        <ele>196.4</ele>
        <extensions>
        <gpxtpx:TrackPointExtension>
        </gpxtpx:TrackPointExtension>
        </extensions>
    </trkpt>
    <trkpt lat="55.746659" lon="48.737943">
        <ele>196.5</ele>
        <extensions>
        <gpxtpx:TrackPointExtension>
        </gpxtpx:TrackPointExtension>
        </extensions>
    </trkpt>
    <trkpt lat="55.746127" lon="48.737095">
        <ele>197.2</ele>
        <extensions>
        <gpxtpx:TrackPointExtension>
        </gpxtpx:TrackPointExtension>
        </extensions>
    </trkpt>
    <trkpt lat="55.746046" lon="48.736966">
        <ele>197.4</ele>
        <extensions>
        <gpxtpx:TrackPointExtension>
        </gpxtpx:TrackPointExtension>
        </extensions>
    </trkpt>
    </trkseg>
    </trk>
</gpx>