<?xml version="1.0" encoding="UTF-8"?>
		<gpx xmlns:xsi="http://www.w3.org/2001/XMLSchema-instance" xmlns="http://www.topografix.com/GPX/1/1" xsi:schemaLocation="http://www.topografix.com/GPX/1/1 http://www.topografix.com/GPX/1/1/gpx.xsd http://www.garmin.com/xmlschemas/GpxExtensions/v3 http://www.garmin.com/xmlschemas/GpxExtensionsv3.xsd http://www.garmin.com/xmlschemas/TrackPointExtension/v1 http://www.garmin.com/xmlschemas/TrackPointExtensionv1.xsd" xmlns:gpxtpx="http://www.garmin.com/xmlschemas/TrackPointExtension/v1" xmlns:gpxx="http://www.garmin.com/xmlschemas/GpxExtensions/v3" version="1.1">

	<metadata>
    <name>0A-1B.3_1B-2B.3_2B-2A.1_2A-3A.3_3A-4A.2_4A-FA.4</name>
    <author>Strava Mobile</author>
    <type>Running</type>
	</metadata>
	
<trk><trkseg>

      <trkpt lat="55.75355" lon="48.741476">
        <ele>189.4</ele>
        <extensions>
          <gpxtpx:TrackPointExtension>
          </gpxtpx:TrackPointExtension>
        </extensions>
      </trkpt>
			

      <trkpt lat="55.753858" lon="48.741597">
        <ele>190.0</ele>
        <extensions>
          <gpxtpx:TrackPointExtension>
          </gpxtpx:TrackPointExtension>
        </extensions>
      </trkpt>
			

      <trkpt lat="55.754085" lon="48.741671">
        <ele>190.4</ele>
        <extensions>
          <gpxtpx:TrackPointExtension>
          </gpxtpx:TrackPointExtension>
        </extensions>
      </trkpt>
			

      <trkpt lat="55.754246" lon="48.741825">
        <ele>190.9</ele>
        <extensions>
          <gpxtpx:TrackPointExtension>
          </gpxtpx:TrackPointExtension>
        </extensions>
      </trkpt>
			

      <trkpt lat="55.754204" lon="48.742101">
        <ele>191.5</ele>
        <extensions>
          <gpxtpx:TrackPointExtension>
          </gpxtpx:TrackPointExtension>
        </extensions>
      </trkpt>
			

      <trkpt lat="55.75422" lon="48.742402">
        <ele>192.3</ele>
        <extensions>
          <gpxtpx:TrackPointExtension>
          </gpxtpx:TrackPointExtension>
        </extensions>
      </trkpt>
			

      <trkpt lat="55.754232" lon="48.74263">
        <ele>192.9</ele>
        <extensions>
          <gpxtpx:TrackPointExtension>
          </gpxtpx:TrackPointExtension>
        </extensions>
      </trkpt>
			

      <trkpt lat="55.754213" lon="48.742872">
        <ele>193.5</ele>
        <extensions>
          <gpxtpx:TrackPointExtension>
          </gpxtpx:TrackPointExtension>
        </extensions>
      </trkpt>
			

      <trkpt lat="55.754249" lon="48.742985">
        <ele>193.8</ele>
        <extensions>
          <gpxtpx:TrackPointExtension>
          </gpxtpx:TrackPointExtension>
        </extensions>
      </trkpt>
			

      <trkpt lat="55.754405" lon="48.743091">
        <ele>194.1</ele>
        <extensions>
          <gpxtpx:TrackPointExtension>
          </gpxtpx:TrackPointExtension>
        </extensions>
      </trkpt>
			

      <trkpt lat="55.754581" lon="48.743193">
        <ele>194.4</ele>
        <extensions>
          <gpxtpx:TrackPointExtension>
          </gpxtpx:TrackPointExtension>
        </extensions>
      </trkpt>
			

      <trkpt lat="55.754565" lon="48.743545">
        <ele>195.2</ele>
        <extensions>
          <gpxtpx:TrackPointExtension>
          </gpxtpx:TrackPointExtension>
        </extensions>
      </trkpt>
			

      <trkpt lat="55.754456" lon="48.744196">
        <ele>197.6</ele>
        <extensions>
          <gpxtpx:TrackPointExtension>
          </gpxtpx:TrackPointExtension>
        </extensions>
      </trkpt>
			

      <trkpt lat="55.75437" lon="48.744853">
        <ele>200.2</ele>
        <extensions>
          <gpxtpx:TrackPointExtension>
          </gpxtpx:TrackPointExtension>
        </extensions>
      </trkpt>
			

      <trkpt lat="55.754284" lon="48.745356">
        <ele>202.0</ele>
        <extensions>
          <gpxtpx:TrackPointExtension>
          </gpxtpx:TrackPointExtension>
        </extensions>
      </trkpt>
			

      <trkpt lat="55.754323" lon="48.745484">
        <ele>202.5</ele>
        <extensions>
          <gpxtpx:TrackPointExtension>
          </gpxtpx:TrackPointExtension>
        </extensions>
      </trkpt>
			

      <trkpt lat="55.754654" lon="48.745613">
        <ele>203.5</ele>
        <extensions>
          <gpxtpx:TrackPointExtension>
          </gpxtpx:TrackPointExtension>
        </extensions>
      </trkpt>
			

      <trkpt lat="55.754991" lon="48.745824">
        <ele>204.7</ele>
        <extensions>
          <gpxtpx:TrackPointExtension>
          </gpxtpx:TrackPointExtension>
        </extensions>
      </trkpt>
			

      <trkpt lat="55.755362" lon="48.745899">
        <ele>204.8</ele>
        <extensions>
          <gpxtpx:TrackPointExtension>
          </gpxtpx:TrackPointExtension>
        </extensions>
      </trkpt>
			

      <trkpt lat="55.755688" lon="48.746001">
        <ele>205.2</ele>
        <extensions>
          <gpxtpx:TrackPointExtension>
          </gpxtpx:TrackPointExtension>
        </extensions>
      </trkpt>
			

      <trkpt lat="55.756122" lon="48.74606">
        <ele>205.2</ele>
        <extensions>
          <gpxtpx:TrackPointExtension>
          </gpxtpx:TrackPointExtension>
        </extensions>
      </trkpt>
			

      <trkpt lat="55.75645" lon="48.746133">
        <ele>205.4</ele>
        <extensions>
          <gpxtpx:TrackPointExtension>
          </gpxtpx:TrackPointExtension>
        </extensions>
      </trkpt>
			

      <trkpt lat="55.756734" lon="48.746029">
        <ele>204.1</ele>
        <extensions>
          <gpxtpx:TrackPointExtension>
          </gpxtpx:TrackPointExtension>
        </extensions>
      </trkpt>
			

      <trkpt lat="55.756961" lon="48.746039">
        <ele>203.2</ele>
        <extensions>
          <gpxtpx:TrackPointExtension>
          </gpxtpx:TrackPointExtension>
        </extensions>
      </trkpt>
			

      <trkpt lat="55.756957" lon="48.746009">
        <ele>203.1</ele>
        <extensions>
          <gpxtpx:TrackPointExtension>
          </gpxtpx:TrackPointExtension>
        </extensions>
      </trkpt>
			

      <trkpt lat="55.756779" lon="48.746087">
        <ele>204.1</ele>
        <extensions>
          <gpxtpx:TrackPointExtension>
          </gpxtpx:TrackPointExtension>
        </extensions>
      </trkpt>
			

      <trkpt lat="55.756491" lon="48.746064">
        <ele>205.2</ele>
        <extensions>
          <gpxtpx:TrackPointExtension>
          </gpxtpx:TrackPointExtension>
        </extensions>
      </trkpt>
			

      <trkpt lat="55.756201" lon="48.746109">
        <ele>205.4</ele>
        <extensions>
          <gpxtpx:TrackPointExtension>
          </gpxtpx:TrackPointExtension>
        </extensions>
      </trkpt>
			

      <trkpt lat="55.755902" lon="48.746053">
        <ele>205.3</ele>
        <extensions>
          <gpxtpx:TrackPointExtension>
          </gpxtpx:TrackPointExtension>
        </extensions>
      </trkpt>
			

      <trkpt lat="55.755455" lon="48.745961">
        <ele>205.1</ele>
        <extensions>
          <gpxtpx:TrackPointExtension>
          </gpxtpx:TrackPointExtension>
        </extensions>
      </trkpt>
			

      <trkpt lat="55.755114" lon="48.745899">
        <ele>205.0</ele>
        <extensions>
          <gpxtpx:TrackPointExtension>
          </gpxtpx:TrackPointExtension>
        </extensions>
      </trkpt>
			

      <trkpt lat="55.75472" lon="48.74572">
        <ele>204.0</ele>
        <extensions>
          <gpxtpx:TrackPointExtension>
          </gpxtpx:TrackPointExtension>
        </extensions>
      </trkpt>
			

      <trkpt lat="55.754373" lon="48.745481">
        <ele>202.6</ele>
        <extensions>
          <gpxtpx:TrackPointExtension>
          </gpxtpx:TrackPointExtension>
        </extensions>
      </trkpt>
			

      <trkpt lat="55.754022" lon="48.745312">
        <ele>201.6</ele>
        <extensions>
          <gpxtpx:TrackPointExtension>
          </gpxtpx:TrackPointExtension>
        </extensions>
      </trkpt>
			

      <trkpt lat="55.753698" lon="48.745087">
        <ele>200.4</ele>
        <extensions>
          <gpxtpx:TrackPointExtension>
          </gpxtpx:TrackPointExtension>
        </extensions>
      </trkpt>
			

      <trkpt lat="55.753331" lon="48.744878">
        <ele>199.5</ele>
        <extensions>
          <gpxtpx:TrackPointExtension>
          </gpxtpx:TrackPointExtension>
        </extensions>
      </trkpt>
			

      <trkpt lat="55.753005" lon="48.744645">
        <ele>199.0</ele>
        <extensions>
          <gpxtpx:TrackPointExtension>
          </gpxtpx:TrackPointExtension>
        </extensions>
      </trkpt>
			

      <trkpt lat="55.752751" lon="48.74451">
        <ele>198.6</ele>
        <extensions>
          <gpxtpx:TrackPointExtension>
          </gpxtpx:TrackPointExtension>
        </extensions>
      </trkpt>
			

      <trkpt lat="55.752636" lon="48.744159">
        <ele>197.5</ele>
        <extensions>
          <gpxtpx:TrackPointExtension>
          </gpxtpx:TrackPointExtension>
        </extensions>
      </trkpt>
			

      <trkpt lat="55.752572" lon="48.743898">
        <ele>196.5</ele>
        <extensions>
          <gpxtpx:TrackPointExtension>
          </gpxtpx:TrackPointExtension>
        </extensions>
      </trkpt>
			

      <trkpt lat="55.752468" lon="48.743937">
        <ele>196.8</ele>
        <extensions>
          <gpxtpx:TrackPointExtension>
          </gpxtpx:TrackPointExtension>
        </extensions>
      </trkpt>
			

      <trkpt lat="55.752527" lon="48.744119">
        <ele>197.4</ele>
        <extensions>
          <gpxtpx:TrackPointExtension>
          </gpxtpx:TrackPointExtension>
        </extensions>
      </trkpt>
			

      <trkpt lat="55.752098" lon="48.74453">
        <ele>199.3</ele>
        <extensions>
          <gpxtpx:TrackPointExtension>
          </gpxtpx:TrackPointExtension>
        </extensions>
      </trkpt>
			

      <trkpt lat="55.752293" lon="48.745358">
        <ele>202.2</ele>
        <extensions>
          <gpxtpx:TrackPointExtension>
          </gpxtpx:TrackPointExtension>
        </extensions>
      </trkpt>
			

      <trkpt lat="55.752158" lon="48.745506">
        <ele>202.9</ele>
        <extensions>
          <gpxtpx:TrackPointExtension>
          </gpxtpx:TrackPointExtension>
        </extensions>
      </trkpt>
			

      <trkpt lat="55.752156" lon="48.745678">
        <ele>203.6</ele>
        <extensions>
          <gpxtpx:TrackPointExtension>
          </gpxtpx:TrackPointExtension>
        </extensions>
      </trkpt>
			

      <trkpt lat="55.752094" lon="48.745788">
        <ele>204.1</ele>
        <extensions>
          <gpxtpx:TrackPointExtension>
          </gpxtpx:TrackPointExtension>
        </extensions>
      </trkpt>
			

      <trkpt lat="55.752011" lon="48.746138">
        <ele>205.5</ele>
        <extensions>
          <gpxtpx:TrackPointExtension>
          </gpxtpx:TrackPointExtension>
        </extensions>
      </trkpt>
			

      <trkpt lat="55.751884" lon="48.746669">
        <ele>207.2</ele>
        <extensions>
          <gpxtpx:TrackPointExtension>
          </gpxtpx:TrackPointExtension>
        </extensions>
      </trkpt>
			

      <trkpt lat="55.751784" lon="48.747152">
        <ele>208.5</ele>
        <extensions>
          <gpxtpx:TrackPointExtension>
          </gpxtpx:TrackPointExtension>
        </extensions>
      </trkpt>
			

      <trkpt lat="55.751654" lon="48.747652">
        <ele>209.7</ele>
        <extensions>
          <gpxtpx:TrackPointExtension>
          </gpxtpx:TrackPointExtension>
        </extensions>
      </trkpt>
			

      <trkpt lat="55.751577" lon="48.748028">
        <ele>210.5</ele>
        <extensions>
          <gpxtpx:TrackPointExtension>
          </gpxtpx:TrackPointExtension>
        </extensions>
      </trkpt>
			

      <trkpt lat="55.751518" lon="48.74835">
        <ele>211.2</ele>
        <extensions>
          <gpxtpx:TrackPointExtension>
          </gpxtpx:TrackPointExtension>
        </extensions>
      </trkpt>
			

      <trkpt lat="55.751446" lon="48.74865">
        <ele>211.8</ele>
        <extensions>
          <gpxtpx:TrackPointExtension>
          </gpxtpx:TrackPointExtension>
        </extensions>
      </trkpt>
			

      <trkpt lat="55.751372" lon="48.749036">
        <ele>212.6</ele>
        <extensions>
          <gpxtpx:TrackPointExtension>
          </gpxtpx:TrackPointExtension>
        </extensions>
      </trkpt>
			

      <trkpt lat="55.751251" lon="48.74966">
        <ele>211.0</ele>
        <extensions>
          <gpxtpx:TrackPointExtension>
          </gpxtpx:TrackPointExtension>
        </extensions>
      </trkpt>
			

      <trkpt lat="55.751232" lon="48.74976">
        <ele>210.7</ele>
        <extensions>
          <gpxtpx:TrackPointExtension>
          </gpxtpx:TrackPointExtension>
        </extensions>
      </trkpt>
			

      <trkpt lat="55.751223" lon="48.749775">
        <ele>210.7</ele>
        <extensions>
          <gpxtpx:TrackPointExtension>
          </gpxtpx:TrackPointExtension>
        </extensions>
      </trkpt>
			

      <trkpt lat="55.751513" lon="48.74996">
        <ele>210.6</ele>
        <extensions>
          <gpxtpx:TrackPointExtension>
          </gpxtpx:TrackPointExtension>
        </extensions>
      </trkpt>
			

      <trkpt lat="55.75184" lon="48.750136">
        <ele>210.9</ele>
        <extensions>
          <gpxtpx:TrackPointExtension>
          </gpxtpx:TrackPointExtension>
        </extensions>
      </trkpt>
			

      <trkpt lat="55.75218" lon="48.750388">
        <ele>209.7</ele>
        <extensions>
          <gpxtpx:TrackPointExtension>
          </gpxtpx:TrackPointExtension>
        </extensions>
      </trkpt>
			

      <trkpt lat="55.752535" lon="48.750585">
        <ele>208.6</ele>
        <extensions>
          <gpxtpx:TrackPointExtension>
          </gpxtpx:TrackPointExtension>
        </extensions>
      </trkpt>
			

      <trkpt lat="55.752891" lon="48.751039">
        <ele>207.3</ele>
        <extensions>
          <gpxtpx:TrackPointExtension>
          </gpxtpx:TrackPointExtension>
        </extensions>
      </trkpt>
			

      <trkpt lat="55.753001" lon="48.751576">
        <ele>206.5</ele>
        <extensions>
          <gpxtpx:TrackPointExtension>
          </gpxtpx:TrackPointExtension>
        </extensions>
      </trkpt>
			

      <trkpt lat="55.752977" lon="48.751635">
        <ele>206.4</ele>
        <extensions>
          <gpxtpx:TrackPointExtension>
          </gpxtpx:TrackPointExtension>
        </extensions>
      </trkpt>
			

      <trkpt lat="55.752749" lon="48.751761">
        <ele>206.6</ele>
        <extensions>
          <gpxtpx:TrackPointExtension>
          </gpxtpx:TrackPointExtension>
        </extensions>
      </trkpt>
			

      <trkpt lat="55.752555" lon="48.751882">
        <ele>206.5</ele>
        <extensions>
          <gpxtpx:TrackPointExtension>
          </gpxtpx:TrackPointExtension>
        </extensions>
      </trkpt>
			

      <trkpt lat="55.752512" lon="48.751918">
        <ele>206.4</ele>
        <extensions>
          <gpxtpx:TrackPointExtension>
          </gpxtpx:TrackPointExtension>
        </extensions>
      </trkpt>
			

      <trkpt lat="55.75247" lon="48.752004">
        <ele>206.1</ele>
        <extensions>
          <gpxtpx:TrackPointExtension>
          </gpxtpx:TrackPointExtension>
        </extensions>
      </trkpt>
			

      <trkpt lat="55.752446" lon="48.752766">
        <ele>203.1</ele>
        <extensions>
          <gpxtpx:TrackPointExtension>
          </gpxtpx:TrackPointExtension>
        </extensions>
      </trkpt>
			

      <trkpt lat="55.75206" lon="48.753204">
        <ele>201.8</ele>
        <extensions>
          <gpxtpx:TrackPointExtension>
          </gpxtpx:TrackPointExtension>
        </extensions>
      </trkpt>
			

      <trkpt lat="55.751759" lon="48.753259">
        <ele>201.6</ele>
        <extensions>
          <gpxtpx:TrackPointExtension>
          </gpxtpx:TrackPointExtension>
        </extensions>
      </trkpt>
			

      <trkpt lat="55.751534" lon="48.753117">
        <ele>201.5</ele>
        <extensions>
          <gpxtpx:TrackPointExtension>
          </gpxtpx:TrackPointExtension>
        </extensions>
      </trkpt>
			

      <trkpt lat="55.751427" lon="48.753045">
        <ele>201.4</ele>
        <extensions>
          <gpxtpx:TrackPointExtension>
          </gpxtpx:TrackPointExtension>
        </extensions>
      </trkpt>
			

      <trkpt lat="55.751336" lon="48.753093">
        <ele>201.0</ele>
        <extensions>
          <gpxtpx:TrackPointExtension>
          </gpxtpx:TrackPointExtension>
        </extensions>
      </trkpt>
			

      <trkpt lat="55.75125" lon="48.753191">
        <ele>200.4</ele>
        <extensions>
          <gpxtpx:TrackPointExtension>
          </gpxtpx:TrackPointExtension>
        </extensions>
      </trkpt>
			

      <trkpt lat="55.751191" lon="48.75323">
        <ele>200.1</ele>
        <extensions>
          <gpxtpx:TrackPointExtension>
          </gpxtpx:TrackPointExtension>
        </extensions>
      </trkpt>
			

      <trkpt lat="55.751117" lon="48.753136">
        <ele>200.2</ele>
        <extensions>
          <gpxtpx:TrackPointExtension>
          </gpxtpx:TrackPointExtension>
        </extensions>
      </trkpt>
			

      <trkpt lat="55.751057" lon="48.753038">
        <ele>200.3</ele>
        <extensions>
          <gpxtpx:TrackPointExtension>
          </gpxtpx:TrackPointExtension>
        </extensions>
      </trkpt>
			

      <trkpt lat="55.751028" lon="48.753054">
        <ele>200.1</ele>
        <extensions>
          <gpxtpx:TrackPointExtension>
          </gpxtpx:TrackPointExtension>
        </extensions>
      </trkpt>
			

      <trkpt lat="55.750954" lon="48.752986">
        <ele>200.2</ele>
        <extensions>
          <gpxtpx:TrackPointExtension>
          </gpxtpx:TrackPointExtension>
        </extensions>
      </trkpt>
			

      <trkpt lat="55.750877" lon="48.752642">
        <ele>201.0</ele>
        <extensions>
          <gpxtpx:TrackPointExtension>
          </gpxtpx:TrackPointExtension>
        </extensions>
      </trkpt>
			

      <trkpt lat="55.750818" lon="48.752331">
        <ele>201.7</ele>
        <extensions>
          <gpxtpx:TrackPointExtension>
          </gpxtpx:TrackPointExtension>
        </extensions>
      </trkpt>
			

      <trkpt lat="55.750939" lon="48.751615">
        <ele>204.3</ele>
        <extensions>
          <gpxtpx:TrackPointExtension>
          </gpxtpx:TrackPointExtension>
        </extensions>
      </trkpt>
			

      <trkpt lat="55.751018" lon="48.751025">
        <ele>206.4</ele>
        <extensions>
          <gpxtpx:TrackPointExtension>
          </gpxtpx:TrackPointExtension>
        </extensions>
      </trkpt>
			

      <trkpt lat="55.751108" lon="48.750395">
        <ele>208.6</ele>
        <extensions>
          <gpxtpx:TrackPointExtension>
          </gpxtpx:TrackPointExtension>
        </extensions>
      </trkpt>
			

      <trkpt lat="55.751193" lon="48.749917">
        <ele>210.2</ele>
        <extensions>
          <gpxtpx:TrackPointExtension>
          </gpxtpx:TrackPointExtension>
        </extensions>
      </trkpt>
			

      <trkpt lat="55.751271" lon="48.749359">
        <ele>211.9</ele>
        <extensions>
          <gpxtpx:TrackPointExtension>
          </gpxtpx:TrackPointExtension>
        </extensions>
      </trkpt>
			

      <trkpt lat="55.751393" lon="48.748883">
        <ele>212.3</ele>
        <extensions>
          <gpxtpx:TrackPointExtension>
          </gpxtpx:TrackPointExtension>
        </extensions>
      </trkpt>
			

      <trkpt lat="55.751528" lon="48.748253">
        <ele>211.0</ele>
        <extensions>
          <gpxtpx:TrackPointExtension>
          </gpxtpx:TrackPointExtension>
        </extensions>
      </trkpt>
			

      <trkpt lat="55.7516" lon="48.748026">
        <ele>210.5</ele>
        <extensions>
          <gpxtpx:TrackPointExtension>
          </gpxtpx:TrackPointExtension>
        </extensions>
      </trkpt>
			

      <trkpt lat="55.751587" lon="48.74808">
        <ele>210.7</ele>
        <extensions>
          <gpxtpx:TrackPointExtension>
          </gpxtpx:TrackPointExtension>
        </extensions>
      </trkpt>
			

      <trkpt lat="55.751732" lon="48.747409">
        <ele>209.1</ele>
        <extensions>
          <gpxtpx:TrackPointExtension>
          </gpxtpx:TrackPointExtension>
        </extensions>
      </trkpt>
			

      <trkpt lat="55.751874" lon="48.746619">
        <ele>207.1</ele>
        <extensions>
          <gpxtpx:TrackPointExtension>
          </gpxtpx:TrackPointExtension>
        </extensions>
      </trkpt>
			

      <trkpt lat="55.752043" lon="48.745966">
        <ele>204.8</ele>
        <extensions>
          <gpxtpx:TrackPointExtension>
          </gpxtpx:TrackPointExtension>
        </extensions>
      </trkpt>
			

      <trkpt lat="55.752176" lon="48.745685">
        <ele>203.5</ele>
        <extensions>
          <gpxtpx:TrackPointExtension>
          </gpxtpx:TrackPointExtension>
        </extensions>
      </trkpt>
			

      <trkpt lat="55.752166" lon="48.745455">
        <ele>202.7</ele>
        <extensions>
          <gpxtpx:TrackPointExtension>
          </gpxtpx:TrackPointExtension>
        </extensions>
      </trkpt>
			

      <trkpt lat="55.752273" lon="48.745333">
        <ele>202.1</ele>
        <extensions>
          <gpxtpx:TrackPointExtension>
          </gpxtpx:TrackPointExtension>
        </extensions>
      </trkpt>
			

      <trkpt lat="55.752091" lon="48.744516">
        <ele>199.2</ele>
        <extensions>
          <gpxtpx:TrackPointExtension>
          </gpxtpx:TrackPointExtension>
        </extensions>
      </trkpt>
			

      <trkpt lat="55.75195" lon="48.743798">
        <ele>196.6</ele>
        <extensions>
          <gpxtpx:TrackPointExtension>
          </gpxtpx:TrackPointExtension>
        </extensions>
      </trkpt>
			

      <trkpt lat="55.751745" lon="48.743888">
        <ele>197.1</ele>
        <extensions>
          <gpxtpx:TrackPointExtension>
          </gpxtpx:TrackPointExtension>
        </extensions>
      </trkpt>
			

      <trkpt lat="55.751566" lon="48.743635">
        <ele>196.5</ele>
        <extensions>
          <gpxtpx:TrackPointExtension>
          </gpxtpx:TrackPointExtension>
        </extensions>
      </trkpt>
			

      <trkpt lat="55.751207" lon="48.743332">
        <ele>196.5</ele>
        <extensions>
          <gpxtpx:TrackPointExtension>
          </gpxtpx:TrackPointExtension>
        </extensions>
      </trkpt>
			

      <trkpt lat="55.7508" lon="48.742961">
        <ele>196.4</ele>
        <extensions>
          <gpxtpx:TrackPointExtension>
          </gpxtpx:TrackPointExtension>
        </extensions>
      </trkpt>
			

      <trkpt lat="55.750512" lon="48.742686">
        <ele>196.2</ele>
        <extensions>
          <gpxtpx:TrackPointExtension>
          </gpxtpx:TrackPointExtension>
        </extensions>
      </trkpt>
			

      <trkpt lat="55.750234" lon="48.742388">
        <ele>195.9</ele>
        <extensions>
          <gpxtpx:TrackPointExtension>
          </gpxtpx:TrackPointExtension>
        </extensions>
      </trkpt>
			

      <trkpt lat="55.74993" lon="48.742065">
        <ele>195.7</ele>
        <extensions>
          <gpxtpx:TrackPointExtension>
          </gpxtpx:TrackPointExtension>
        </extensions>
      </trkpt>
			

      <trkpt lat="55.749643" lon="48.741759">
        <ele>195.7</ele>
        <extensions>
          <gpxtpx:TrackPointExtension>
          </gpxtpx:TrackPointExtension>
        </extensions>
      </trkpt>
			

      <trkpt lat="55.749507" lon="48.741602">
        <ele>195.7</ele>
        <extensions>
          <gpxtpx:TrackPointExtension>
          </gpxtpx:TrackPointExtension>
        </extensions>
      </trkpt>
			

      <trkpt lat="55.745899" lon="48.736741">
        <ele>197.6</ele>
        <extensions>
          <gpxtpx:TrackPointExtension>
          </gpxtpx:TrackPointExtension>
        </extensions>
      </trkpt>
			

      <trkpt lat="55.745422" lon="48.735869">
        <ele>198.3</ele>
        <extensions>
          <gpxtpx:TrackPointExtension>
          </gpxtpx:TrackPointExtension>
        </extensions>
      </trkpt>
			

      <trkpt lat="55.745053" lon="48.735216">
        <ele>198.7</ele>
        <extensions>
          <gpxtpx:TrackPointExtension>
          </gpxtpx:TrackPointExtension>
        </extensions>
      </trkpt>
			

      <trkpt lat="55.7447" lon="48.734567">
        <ele>198.8</ele>
        <extensions>
          <gpxtpx:TrackPointExtension>
          </gpxtpx:TrackPointExtension>
        </extensions>
      </trkpt>
			

      <trkpt lat="55.744377" lon="48.733921">
        <ele>198.8</ele>
        <extensions>
          <gpxtpx:TrackPointExtension>
          </gpxtpx:TrackPointExtension>
        </extensions>
      </trkpt>
			

      <trkpt lat="55.74396" lon="48.73307">
        <ele>198.9</ele>
        <extensions>
          <gpxtpx:TrackPointExtension>
          </gpxtpx:TrackPointExtension>
        </extensions>
      </trkpt>
			

      <trkpt lat="55.743513" lon="48.732082">
        <ele>198.8</ele>
        <extensions>
          <gpxtpx:TrackPointExtension>
          </gpxtpx:TrackPointExtension>
        </extensions>
      </trkpt>
			

      <trkpt lat="55.743283" lon="48.731521">
        <ele>198.4</ele>
        <extensions>
          <gpxtpx:TrackPointExtension>
          </gpxtpx:TrackPointExtension>
        </extensions>
      </trkpt>
			

      <trkpt lat="55.743114" lon="48.73111">
        <ele>198.0</ele>
        <extensions>
          <gpxtpx:TrackPointExtension>
          </gpxtpx:TrackPointExtension>
        </extensions>
      </trkpt>
			

      <trkpt lat="55.74301" lon="48.730842">
        <ele>197.7</ele>
        <extensions>
          <gpxtpx:TrackPointExtension>
          </gpxtpx:TrackPointExtension>
        </extensions>
      </trkpt>
			

      <trkpt lat="55.742979" lon="48.730753">
        <ele>197.6</ele>
        <extensions>
          <gpxtpx:TrackPointExtension>
          </gpxtpx:TrackPointExtension>
        </extensions>
      </trkpt>
			

      <trkpt lat="55.743" lon="48.730806">
        <ele>197.6</ele>
        <extensions>
          <gpxtpx:TrackPointExtension>
          </gpxtpx:TrackPointExtension>
        </extensions>
      </trkpt>
			

      <trkpt lat="55.743199" lon="48.731306">
        <ele>198.2</ele>
        <extensions>
          <gpxtpx:TrackPointExtension>
          </gpxtpx:TrackPointExtension>
        </extensions>
      </trkpt>
			

      <trkpt lat="55.743644" lon="48.732325">
        <ele>198.8</ele>
        <extensions>
          <gpxtpx:TrackPointExtension>
          </gpxtpx:TrackPointExtension>
        </extensions>
      </trkpt>
			

      <trkpt lat="55.743732" lon="48.732542">
        <ele>198.9</ele>
        <extensions>
          <gpxtpx:TrackPointExtension>
          </gpxtpx:TrackPointExtension>
        </extensions>
      </trkpt>
			

      <trkpt lat="55.744178" lon="48.733537">
        <ele>198.8</ele>
        <extensions>
          <gpxtpx:TrackPointExtension>
          </gpxtpx:TrackPointExtension>
        </extensions>
      </trkpt>
			

      <trkpt lat="55.744245" lon="48.733699">
        <ele>198.8</ele>
        <extensions>
          <gpxtpx:TrackPointExtension>
          </gpxtpx:TrackPointExtension>
        </extensions>
      </trkpt>
			

      <trkpt lat="55.744765" lon="48.734607">
        <ele>198.8</ele>
        <extensions>
          <gpxtpx:TrackPointExtension>
          </gpxtpx:TrackPointExtension>
        </extensions>
      </trkpt>
			

      <trkpt lat="55.744828" lon="48.734726">
        <ele>198.7</ele>
        <extensions>
          <gpxtpx:TrackPointExtension>
          </gpxtpx:TrackPointExtension>
        </extensions>
      </trkpt>
			

      <trkpt lat="55.745094" lon="48.735262">
        <ele>198.6</ele>
        <extensions>
          <gpxtpx:TrackPointExtension>
          </gpxtpx:TrackPointExtension>
        </extensions>
      </trkpt>
			

      <trkpt lat="55.745605" lon="48.736158">
        <ele>198.1</ele>
        <extensions>
          <gpxtpx:TrackPointExtension>
          </gpxtpx:TrackPointExtension>
        </extensions>
      </trkpt>
			

      <trkpt lat="55.745677" lon="48.736242">
        <ele>198.1</ele>
        <extensions>
          <gpxtpx:TrackPointExtension>
          </gpxtpx:TrackPointExtension>
        </extensions>
      </trkpt>
			

      <trkpt lat="55.746164" lon="48.737179">
        <ele>197.2</ele>
        <extensions>
          <gpxtpx:TrackPointExtension>
          </gpxtpx:TrackPointExtension>
        </extensions>
      </trkpt>
			

      <trkpt lat="55.746158" lon="48.73719">
        <ele>197.2</ele>
        <extensions>
          <gpxtpx:TrackPointExtension>
          </gpxtpx:TrackPointExtension>
        </extensions>
      </trkpt>
			

      <trkpt lat="55.746543" lon="48.737796">
        <ele>196.6</ele>
        <extensions>
          <gpxtpx:TrackPointExtension>
          </gpxtpx:TrackPointExtension>
        </extensions>
      </trkpt>
			

      <trkpt lat="55.747048" lon="48.738436">
        <ele>196.0</ele>
        <extensions>
          <gpxtpx:TrackPointExtension>
          </gpxtpx:TrackPointExtension>
        </extensions>
      </trkpt>
			

      <trkpt lat="55.747589" lon="48.739268">
        <ele>195.8</ele>
        <extensions>
          <gpxtpx:TrackPointExtension>
          </gpxtpx:TrackPointExtension>
        </extensions>
      </trkpt>
			

      <trkpt lat="55.747657" lon="48.739356">
        <ele>195.8</ele>
        <extensions>
          <gpxtpx:TrackPointExtension>
          </gpxtpx:TrackPointExtension>
        </extensions>
      </trkpt>
			

      <trkpt lat="55.747935" lon="48.739693">
        <ele>195.8</ele>
        <extensions>
          <gpxtpx:TrackPointExtension>
          </gpxtpx:TrackPointExtension>
        </extensions>
      </trkpt>
			

      <trkpt lat="55.74779" lon="48.740098">
        <ele>196.6</ele>
        <extensions>
          <gpxtpx:TrackPointExtension>
          </gpxtpx:TrackPointExtension>
        </extensions>
      </trkpt>
			

      <trkpt lat="55.747654" lon="48.740538">
        <ele>197.4</ele>
        <extensions>
          <gpxtpx:TrackPointExtension>
          </gpxtpx:TrackPointExtension>
        </extensions>
      </trkpt>
			

      <trkpt lat="55.747463" lon="48.741056">
        <ele>198.2</ele>
        <extensions>
          <gpxtpx:TrackPointExtension>
          </gpxtpx:TrackPointExtension>
        </extensions>
      </trkpt>
			

      <trkpt lat="55.747325" lon="48.741498">
        <ele>198.5</ele>
        <extensions>
          <gpxtpx:TrackPointExtension>
          </gpxtpx:TrackPointExtension>
        </extensions>
      </trkpt>
			

      <trkpt lat="55.747209" lon="48.741796">
        <ele>198.7</ele>
        <extensions>
          <gpxtpx:TrackPointExtension>
          </gpxtpx:TrackPointExtension>
        </extensions>
      </trkpt>
			

      <trkpt lat="55.747103" lon="48.742117">
        <ele>199.0</ele>
        <extensions>
          <gpxtpx:TrackPointExtension>
          </gpxtpx:TrackPointExtension>
        </extensions>
      </trkpt>
			

      <trkpt lat="55.74709" lon="48.742242">
        <ele>199.0</ele>
        <extensions>
          <gpxtpx:TrackPointExtension>
          </gpxtpx:TrackPointExtension>
        </extensions>
      </trkpt>
			

      <trkpt lat="55.747402" lon="48.742549">
        <ele>198.9</ele>
        <extensions>
          <gpxtpx:TrackPointExtension>
          </gpxtpx:TrackPointExtension>
        </extensions>
      </trkpt>
			

      <trkpt lat="55.747717" lon="48.742829">
        <ele>199.0</ele>
        <extensions>
          <gpxtpx:TrackPointExtension>
          </gpxtpx:TrackPointExtension>
        </extensions>
      </trkpt>
			

      <trkpt lat="55.747881" lon="48.74299">
        <ele>199.0</ele>
        <extensions>
          <gpxtpx:TrackPointExtension>
          </gpxtpx:TrackPointExtension>
        </extensions>
      </trkpt>
			

      <trkpt lat="55.748113" lon="48.743226">
        <ele>199.2</ele>
        <extensions>
          <gpxtpx:TrackPointExtension>
          </gpxtpx:TrackPointExtension>
        </extensions>
      </trkpt>
			

      <trkpt lat="55.748286" lon="48.743332">
        <ele>199.2</ele>
        <extensions>
          <gpxtpx:TrackPointExtension>
          </gpxtpx:TrackPointExtension>
        </extensions>
      </trkpt>
			

      <trkpt lat="55.748402" lon="48.742938">
        <ele>198.9</ele>
        <extensions>
          <gpxtpx:TrackPointExtension>
          </gpxtpx:TrackPointExtension>
        </extensions>
      </trkpt>
			

      <trkpt lat="55.748466" lon="48.742773">
        <ele>198.7</ele>
        <extensions>
          <gpxtpx:TrackPointExtension>
          </gpxtpx:TrackPointExtension>
        </extensions>
      </trkpt>
			

      <trkpt lat="55.748507" lon="48.742656">
        <ele>198.6</ele>
        <extensions>
          <gpxtpx:TrackPointExtension>
          </gpxtpx:TrackPointExtension>
        </extensions>
      </trkpt>
			

      <trkpt lat="55.748643" lon="48.742761">
        <ele>198.6</ele>
        <extensions>
          <gpxtpx:TrackPointExtension>
          </gpxtpx:TrackPointExtension>
        </extensions>
      </trkpt>
			

      <trkpt lat="55.748742" lon="48.742827">
        <ele>198.7</ele>
        <extensions>
          <gpxtpx:TrackPointExtension>
          </gpxtpx:TrackPointExtension>
        </extensions>
      </trkpt>
			

      <trkpt lat="55.748818" lon="48.742706">
        <ele>198.5</ele>
        <extensions>
          <gpxtpx:TrackPointExtension>
          </gpxtpx:TrackPointExtension>
        </extensions>
      </trkpt>
			

      <trkpt lat="55.749101" lon="48.74297">
        <ele>198.5</ele>
        <extensions>
          <gpxtpx:TrackPointExtension>
          </gpxtpx:TrackPointExtension>
        </extensions>
      </trkpt>
			

      <trkpt lat="55.749231" lon="48.743102">
        <ele>198.5</ele>
        <extensions>
          <gpxtpx:TrackPointExtension>
          </gpxtpx:TrackPointExtension>
        </extensions>
      </trkpt>
			

      <trkpt lat="55.749368" lon="48.743089">
        <ele>198.4</ele>
        <extensions>
          <gpxtpx:TrackPointExtension>
          </gpxtpx:TrackPointExtension>
        </extensions>
      </trkpt>
			

      <trkpt lat="55.749428" lon="48.74282">
        <ele>197.9</ele>
        <extensions>
          <gpxtpx:TrackPointExtension>
          </gpxtpx:TrackPointExtension>
        </extensions>
      </trkpt>
			

      <trkpt lat="55.749515" lon="48.742638">
        <ele>197.5</ele>
        <extensions>
          <gpxtpx:TrackPointExtension>
          </gpxtpx:TrackPointExtension>
        </extensions>
      </trkpt>
			

      <trkpt lat="55.749352" lon="48.742479">
        <ele>197.4</ele>
        <extensions>
          <gpxtpx:TrackPointExtension>
          </gpxtpx:TrackPointExtension>
        </extensions>
      </trkpt>
			

      <trkpt lat="55.749251" lon="48.742341">
        <ele>197.4</ele>
        <extensions>
          <gpxtpx:TrackPointExtension>
          </gpxtpx:TrackPointExtension>
        </extensions>
      </trkpt>
			

      <trkpt lat="55.749245" lon="48.742257">
        <ele>197.3</ele>
        <extensions>
          <gpxtpx:TrackPointExtension>
          </gpxtpx:TrackPointExtension>
        </extensions>
      </trkpt>
			

      <trkpt lat="55.749277" lon="48.742137">
        <ele>197.1</ele>
        <extensions>
          <gpxtpx:TrackPointExtension>
          </gpxtpx:TrackPointExtension>
        </extensions>
      </trkpt>
			

      <trkpt lat="55.749223" lon="48.742074">
        <ele>197.0</ele>
        <extensions>
          <gpxtpx:TrackPointExtension>
          </gpxtpx:TrackPointExtension>
        </extensions>
      </trkpt>
			

      <trkpt lat="55.749152" lon="48.742015">
        <ele>197.1</ele>
        <extensions>
          <gpxtpx:TrackPointExtension>
          </gpxtpx:TrackPointExtension>
        </extensions>
      </trkpt>
			

      <trkpt lat="55.749187" lon="48.741885">
        <ele>196.8</ele>
        <extensions>
          <gpxtpx:TrackPointExtension>
          </gpxtpx:TrackPointExtension>
        </extensions>
      </trkpt>
			

      <trkpt lat="55.749241" lon="48.741786">
        <ele>196.6</ele>
        <extensions>
          <gpxtpx:TrackPointExtension>
          </gpxtpx:TrackPointExtension>
        </extensions>
      </trkpt>
			

      <trkpt lat="55.749283" lon="48.741694">
        <ele>196.4</ele>
        <extensions>
          <gpxtpx:TrackPointExtension>
          </gpxtpx:TrackPointExtension>
        </extensions>
      </trkpt>
			

      <trkpt lat="55.749357" lon="48.741711">
        <ele>196.2</ele>
        <extensions>
          <gpxtpx:TrackPointExtension>
          </gpxtpx:TrackPointExtension>
        </extensions>
      </trkpt>
			

      <trkpt lat="55.749422" lon="48.741659">
        <ele>196.0</ele>
        <extensions>
          <gpxtpx:TrackPointExtension>
          </gpxtpx:TrackPointExtension>
        </extensions>
      </trkpt>
			

      <trkpt lat="55.749469" lon="48.741612">
        <ele>195.8</ele>
        <extensions>
          <gpxtpx:TrackPointExtension>
          </gpxtpx:TrackPointExtension>
        </extensions>
      </trkpt>
			

      <trkpt lat="55.749455" lon="48.741598">
        <ele>195.8</ele>
        <extensions>
          <gpxtpx:TrackPointExtension>
          </gpxtpx:TrackPointExtension>
        </extensions>
      </trkpt>
			

      <trkpt lat="55.749694" lon="48.741856">
        <ele>195.8</ele>
        <extensions>
          <gpxtpx:TrackPointExtension>
          </gpxtpx:TrackPointExtension>
        </extensions>
      </trkpt>
			

      <trkpt lat="55.749962" lon="48.742131">
        <ele>195.8</ele>
        <extensions>
          <gpxtpx:TrackPointExtension>
          </gpxtpx:TrackPointExtension>
        </extensions>
      </trkpt>
			

      <trkpt lat="55.750201" lon="48.742391">
        <ele>196.0</ele>
        <extensions>
          <gpxtpx:TrackPointExtension>
          </gpxtpx:TrackPointExtension>
        </extensions>
      </trkpt>
			

      <trkpt lat="55.750566" lon="48.742775">
        <ele>196.3</ele>
        <extensions>
          <gpxtpx:TrackPointExtension>
          </gpxtpx:TrackPointExtension>
        </extensions>
      </trkpt>
			

      <trkpt lat="55.750646" lon="48.742725">
        <ele>196.1</ele>
        <extensions>
          <gpxtpx:TrackPointExtension>
          </gpxtpx:TrackPointExtension>
        </extensions>
      </trkpt>
			

      <trkpt lat="55.750747" lon="48.742333">
        <ele>194.9</ele>
        <extensions>
          <gpxtpx:TrackPointExtension>
          </gpxtpx:TrackPointExtension>
        </extensions>
      </trkpt>
			

      <trkpt lat="55.750877" lon="48.742276">
        <ele>194.6</ele>
        <extensions>
          <gpxtpx:TrackPointExtension>
          </gpxtpx:TrackPointExtension>
        </extensions>
      </trkpt>
			

      <trkpt lat="55.750947" lon="48.74192">
        <ele>193.6</ele>
        <extensions>
          <gpxtpx:TrackPointExtension>
          </gpxtpx:TrackPointExtension>
        </extensions>
      </trkpt>
			

      <trkpt lat="55.751162" lon="48.741807">
        <ele>193.1</ele>
        <extensions>
          <gpxtpx:TrackPointExtension>
          </gpxtpx:TrackPointExtension>
        </extensions>
      </trkpt>
			

      <trkpt lat="55.751584" lon="48.742024">
        <ele>192.9</ele>
        <extensions>
          <gpxtpx:TrackPointExtension>
          </gpxtpx:TrackPointExtension>
        </extensions>
      </trkpt>
			

      <trkpt lat="55.751952" lon="48.742201">
        <ele>192.7</ele>
        <extensions>
          <gpxtpx:TrackPointExtension>
          </gpxtpx:TrackPointExtension>
        </extensions>
      </trkpt>
			

      <trkpt lat="55.752318" lon="48.74236">
        <ele>192.7</ele>
        <extensions>
          <gpxtpx:TrackPointExtension>
          </gpxtpx:TrackPointExtension>
        </extensions>
      </trkpt>
			

      <trkpt lat="55.752544" lon="48.741502">
        <ele>190.5</ele>
        <extensions>
          <gpxtpx:TrackPointExtension>
          </gpxtpx:TrackPointExtension>
        </extensions>
      </trkpt>
			

      <trkpt lat="55.752523" lon="48.741389">
        <ele>190.2</ele>
        <extensions>
          <gpxtpx:TrackPointExtension>
          </gpxtpx:TrackPointExtension>
        </extensions>
      </trkpt>
			

      <trkpt lat="55.752723" lon="48.740162">
        <ele>187.5</ele>
        <extensions>
          <gpxtpx:TrackPointExtension>
          </gpxtpx:TrackPointExtension>
        </extensions>
      </trkpt>
			

      <trkpt lat="55.752793" lon="48.739704">
        <ele>186.8</ele>
        <extensions>
          <gpxtpx:TrackPointExtension>
          </gpxtpx:TrackPointExtension>
        </extensions>
      </trkpt>
			

      <trkpt lat="55.752917" lon="48.738858">
        <ele>185.5</ele>
        <extensions>
          <gpxtpx:TrackPointExtension>
          </gpxtpx:TrackPointExtension>
        </extensions>
      </trkpt>
			

      <trkpt lat="55.753155" lon="48.738976">
        <ele>185.6</ele>
        <extensions>
          <gpxtpx:TrackPointExtension>
          </gpxtpx:TrackPointExtension>
        </extensions>
      </trkpt>
			

      <trkpt lat="55.75336" lon="48.739104">
        <ele>185.7</ele>
        <extensions>
          <gpxtpx:TrackPointExtension>
          </gpxtpx:TrackPointExtension>
        </extensions>
      </trkpt>
			

      <trkpt lat="55.753358" lon="48.739395">
        <ele>186.0</ele>
        <extensions>
          <gpxtpx:TrackPointExtension>
          </gpxtpx:TrackPointExtension>
        </extensions>
      </trkpt>
			

      <trkpt lat="55.753618" lon="48.739572">
        <ele>186.4</ele>
        <extensions>
          <gpxtpx:TrackPointExtension>
          </gpxtpx:TrackPointExtension>
        </extensions>
      </trkpt>
			

      <trkpt lat="55.754124" lon="48.739787">
        <ele>187.1</ele>
        <extensions>
          <gpxtpx:TrackPointExtension>
          </gpxtpx:TrackPointExtension>
        </extensions>
      </trkpt>
			

      <trkpt lat="55.754387" lon="48.739902">
        <ele>187.5</ele>
        <extensions>
          <gpxtpx:TrackPointExtension>
          </gpxtpx:TrackPointExtension>
        </extensions>
      </trkpt>
			

      <trkpt lat="55.75456" lon="48.740023">
        <ele>187.9</ele>
        <extensions>
          <gpxtpx:TrackPointExtension>
          </gpxtpx:TrackPointExtension>
        </extensions>
      </trkpt>
			

      <trkpt lat="55.754708" lon="48.740079">
        <ele>188.1</ele>
        <extensions>
          <gpxtpx:TrackPointExtension>
          </gpxtpx:TrackPointExtension>
        </extensions>
      </trkpt>
			

      <trkpt lat="55.75479" lon="48.740072">
        <ele>188.2</ele>
        <extensions>
          <gpxtpx:TrackPointExtension>
          </gpxtpx:TrackPointExtension>
        </extensions>
      </trkpt>
			

      <trkpt lat="55.754898" lon="48.739913">
        <ele>188.0</ele>
        <extensions>
          <gpxtpx:TrackPointExtension>
          </gpxtpx:TrackPointExtension>
        </extensions>
      </trkpt>
			

      <trkpt lat="55.755019" lon="48.739972">
        <ele>188.1</ele>
        <extensions>
          <gpxtpx:TrackPointExtension>
          </gpxtpx:TrackPointExtension>
        </extensions>
      </trkpt>
			

      <trkpt lat="55.755173" lon="48.740135">
        <ele>188.2</ele>
        <extensions>
          <gpxtpx:TrackPointExtension>
          </gpxtpx:TrackPointExtension>
        </extensions>
      </trkpt>
			

      <trkpt lat="55.755107" lon="48.740662">
        <ele>188.8</ele>
        <extensions>
          <gpxtpx:TrackPointExtension>
          </gpxtpx:TrackPointExtension>
        </extensions>
      </trkpt>
			

      <trkpt lat="55.754968" lon="48.741372">
        <ele>190.3</ele>
        <extensions>
          <gpxtpx:TrackPointExtension>
          </gpxtpx:TrackPointExtension>
        </extensions>
      </trkpt>
			

      <trkpt lat="55.754915" lon="48.741844">
        <ele>191.4</ele>
        <extensions>
          <gpxtpx:TrackPointExtension>
          </gpxtpx:TrackPointExtension>
        </extensions>
      </trkpt>
			

      <trkpt lat="55.754832" lon="48.741806">
        <ele>191.3</ele>
        <extensions>
          <gpxtpx:TrackPointExtension>
          </gpxtpx:TrackPointExtension>
        </extensions>
      </trkpt>
			

      <trkpt lat="55.75474" lon="48.741798">
        <ele>191.2</ele>
        <extensions>
          <gpxtpx:TrackPointExtension>
          </gpxtpx:TrackPointExtension>
        </extensions>
      </trkpt>
			

      <trkpt lat="55.75465" lon="48.741794">
        <ele>191.1</ele>
        <extensions>
          <gpxtpx:TrackPointExtension>
          </gpxtpx:TrackPointExtension>
        </extensions>
      </trkpt>
			

      <trkpt lat="55.7546" lon="48.741812">
        <ele>191.1</ele>
        <extensions>
          <gpxtpx:TrackPointExtension>
          </gpxtpx:TrackPointExtension>
        </extensions>
      </trkpt>
			

      <trkpt lat="55.75453" lon="48.741864">
        <ele>191.2</ele>
        <extensions>
          <gpxtpx:TrackPointExtension>
          </gpxtpx:TrackPointExtension>
        </extensions>
      </trkpt>
			

      <trkpt lat="55.754441" lon="48.741853">
        <ele>191.1</ele>
        <extensions>
          <gpxtpx:TrackPointExtension>
          </gpxtpx:TrackPointExtension>
        </extensions>
      </trkpt>
			

      <trkpt lat="55.75426" lon="48.741755">
        <ele>190.7</ele>
        <extensions>
          <gpxtpx:TrackPointExtension>
          </gpxtpx:TrackPointExtension>
        </extensions>
      </trkpt>
			

      <trkpt lat="55.753834" lon="48.741577">
        <ele>190.0</ele>
        <extensions>
          <gpxtpx:TrackPointExtension>
          </gpxtpx:TrackPointExtension>
        </extensions>
      </trkpt>
			

      <trkpt lat="55.753624" lon="48.741511">
        <ele>189.6</ele>
        <extensions>
          <gpxtpx:TrackPointExtension>
          </gpxtpx:TrackPointExtension>
        </extensions>
      </trkpt>
			

      <trkpt lat="55.753545" lon="48.741469">
        <ele>189.4</ele>
        <extensions>
          <gpxtpx:TrackPointExtension>
          </gpxtpx:TrackPointExtension>
        </extensions>
      </trkpt>
			
</trkseg></trk>
</gpx>