<?xml version="1.0" encoding="UTF-8"?>
		<gpx xmlns:xsi="http://www.w3.org/2001/XMLSchema-instance" xmlns="http://www.topografix.com/GPX/1/1" xsi:schemaLocation="http://www.topografix.com/GPX/1/1 http://www.topografix.com/GPX/1/1/gpx.xsd http://www.garmin.com/xmlschemas/GpxExtensions/v3 http://www.garmin.com/xmlschemas/GpxExtensionsv3.xsd http://www.garmin.com/xmlschemas/TrackPointExtension/v1 http://www.garmin.com/xmlschemas/TrackPointExtensionv1.xsd" xmlns:gpxtpx="http://www.garmin.com/xmlschemas/TrackPointExtension/v1" xmlns:gpxx="http://www.garmin.com/xmlschemas/GpxExtensions/v3" version="1.1">

	<metadata>
    <name>0A-1B.2_1B-2B.3_2B-2A.1_2A-3A.2_3A-4A.2_4A-FA.2</name>
    <author>Strava Mobile</author>
    <type>Running</type>
	</metadata>
	
<trk><trkseg>

      <trkpt lat="55.753577" lon="48.741474">
        <ele>189.4</ele>
        <extensions>
          <gpxtpx:TrackPointExtension>
          </gpxtpx:TrackPointExtension>
        </extensions>
      </trkpt>
			

      <trkpt lat="55.753084" lon="48.741184">
        <ele>188.9</ele>
        <extensions>
          <gpxtpx:TrackPointExtension>
          </gpxtpx:TrackPointExtension>
        </extensions>
      </trkpt>
			

      <trkpt lat="55.753018" lon="48.741173">
        <ele>189.0</ele>
        <extensions>
          <gpxtpx:TrackPointExtension>
          </gpxtpx:TrackPointExtension>
        </extensions>
      </trkpt>
			

      <trkpt lat="55.752782" lon="48.741067">
        <ele>189.1</ele>
        <extensions>
          <gpxtpx:TrackPointExtension>
          </gpxtpx:TrackPointExtension>
        </extensions>
      </trkpt>
			

      <trkpt lat="55.752643" lon="48.741012">
        <ele>189.1</ele>
        <extensions>
          <gpxtpx:TrackPointExtension>
          </gpxtpx:TrackPointExtension>
        </extensions>
      </trkpt>
			

      <trkpt lat="55.752607" lon="48.74109">
        <ele>189.4</ele>
        <extensions>
          <gpxtpx:TrackPointExtension>
          </gpxtpx:TrackPointExtension>
        </extensions>
      </trkpt>
			

      <trkpt lat="55.752496" lon="48.741659">
        <ele>190.9</ele>
        <extensions>
          <gpxtpx:TrackPointExtension>
          </gpxtpx:TrackPointExtension>
        </extensions>
      </trkpt>
			

      <trkpt lat="55.752341" lon="48.742381">
        <ele>192.8</ele>
        <extensions>
          <gpxtpx:TrackPointExtension>
          </gpxtpx:TrackPointExtension>
        </extensions>
      </trkpt>
			

      <trkpt lat="55.752282" lon="48.74267">
        <ele>193.4</ele>
        <extensions>
          <gpxtpx:TrackPointExtension>
          </gpxtpx:TrackPointExtension>
        </extensions>
      </trkpt>
			

      <trkpt lat="55.752106" lon="48.742713">
        <ele>193.7</ele>
        <extensions>
          <gpxtpx:TrackPointExtension>
          </gpxtpx:TrackPointExtension>
        </extensions>
      </trkpt>
			

      <trkpt lat="55.752052" lon="48.742927">
        <ele>194.2</ele>
        <extensions>
          <gpxtpx:TrackPointExtension>
          </gpxtpx:TrackPointExtension>
        </extensions>
      </trkpt>
			

      <trkpt lat="55.752006" lon="48.743154">
        <ele>194.8</ele>
        <extensions>
          <gpxtpx:TrackPointExtension>
          </gpxtpx:TrackPointExtension>
        </extensions>
      </trkpt>
			

      <trkpt lat="55.751889" lon="48.743279">
        <ele>195.1</ele>
        <extensions>
          <gpxtpx:TrackPointExtension>
          </gpxtpx:TrackPointExtension>
        </extensions>
      </trkpt>
			

      <trkpt lat="55.751711" lon="48.743381">
        <ele>195.6</ele>
        <extensions>
          <gpxtpx:TrackPointExtension>
          </gpxtpx:TrackPointExtension>
        </extensions>
      </trkpt>
			

      <trkpt lat="55.751698" lon="48.743593">
        <ele>196.1</ele>
        <extensions>
          <gpxtpx:TrackPointExtension>
          </gpxtpx:TrackPointExtension>
        </extensions>
      </trkpt>
			

      <trkpt lat="55.75172" lon="48.743839">
        <ele>197.0</ele>
        <extensions>
          <gpxtpx:TrackPointExtension>
          </gpxtpx:TrackPointExtension>
        </extensions>
      </trkpt>
			

      <trkpt lat="55.751928" lon="48.743717">
        <ele>196.3</ele>
        <extensions>
          <gpxtpx:TrackPointExtension>
          </gpxtpx:TrackPointExtension>
        </extensions>
      </trkpt>
			

      <trkpt lat="55.752192" lon="48.744904">
        <ele>200.6</ele>
        <extensions>
          <gpxtpx:TrackPointExtension>
          </gpxtpx:TrackPointExtension>
        </extensions>
      </trkpt>
			

      <trkpt lat="55.752299" lon="48.745382">
        <ele>202.3</ele>
        <extensions>
          <gpxtpx:TrackPointExtension>
          </gpxtpx:TrackPointExtension>
        </extensions>
      </trkpt>
			

      <trkpt lat="55.752184" lon="48.745476">
        <ele>202.8</ele>
        <extensions>
          <gpxtpx:TrackPointExtension>
          </gpxtpx:TrackPointExtension>
        </extensions>
      </trkpt>
			

      <trkpt lat="55.752107" lon="48.745781">
        <ele>204.0</ele>
        <extensions>
          <gpxtpx:TrackPointExtension>
          </gpxtpx:TrackPointExtension>
        </extensions>
      </trkpt>
			

      <trkpt lat="55.751905" lon="48.746717">
        <ele>207.3</ele>
        <extensions>
          <gpxtpx:TrackPointExtension>
          </gpxtpx:TrackPointExtension>
        </extensions>
      </trkpt>
			

      <trkpt lat="55.751676" lon="48.747608">
        <ele>209.6</ele>
        <extensions>
          <gpxtpx:TrackPointExtension>
          </gpxtpx:TrackPointExtension>
        </extensions>
      </trkpt>
			

      <trkpt lat="55.751511" lon="48.748293">
        <ele>211.1</ele>
        <extensions>
          <gpxtpx:TrackPointExtension>
          </gpxtpx:TrackPointExtension>
        </extensions>
      </trkpt>
			

      <trkpt lat="55.751391" lon="48.748818">
        <ele>212.2</ele>
        <extensions>
          <gpxtpx:TrackPointExtension>
          </gpxtpx:TrackPointExtension>
        </extensions>
      </trkpt>
			

      <trkpt lat="55.751286" lon="48.749374">
        <ele>211.8</ele>
        <extensions>
          <gpxtpx:TrackPointExtension>
          </gpxtpx:TrackPointExtension>
        </extensions>
      </trkpt>
			

      <trkpt lat="55.751239" lon="48.749748">
        <ele>210.7</ele>
        <extensions>
          <gpxtpx:TrackPointExtension>
          </gpxtpx:TrackPointExtension>
        </extensions>
      </trkpt>
			

      <trkpt lat="55.751238" lon="48.749775">
        <ele>210.7</ele>
        <extensions>
          <gpxtpx:TrackPointExtension>
          </gpxtpx:TrackPointExtension>
        </extensions>
      </trkpt>
			

      <trkpt lat="55.751513" lon="48.749953">
        <ele>210.6</ele>
        <extensions>
          <gpxtpx:TrackPointExtension>
          </gpxtpx:TrackPointExtension>
        </extensions>
      </trkpt>
			

      <trkpt lat="55.751825" lon="48.750143">
        <ele>210.9</ele>
        <extensions>
          <gpxtpx:TrackPointExtension>
          </gpxtpx:TrackPointExtension>
        </extensions>
      </trkpt>
			

      <trkpt lat="55.75218" lon="48.750388">
        <ele>209.7</ele>
        <extensions>
          <gpxtpx:TrackPointExtension>
          </gpxtpx:TrackPointExtension>
        </extensions>
      </trkpt>
			

      <trkpt lat="55.752542" lon="48.75057">
        <ele>208.6</ele>
        <extensions>
          <gpxtpx:TrackPointExtension>
          </gpxtpx:TrackPointExtension>
        </extensions>
      </trkpt>
			

      <trkpt lat="55.752891" lon="48.751046">
        <ele>207.3</ele>
        <extensions>
          <gpxtpx:TrackPointExtension>
          </gpxtpx:TrackPointExtension>
        </extensions>
      </trkpt>
			

      <trkpt lat="55.753001" lon="48.751583">
        <ele>206.5</ele>
        <extensions>
          <gpxtpx:TrackPointExtension>
          </gpxtpx:TrackPointExtension>
        </extensions>
      </trkpt>
			

      <trkpt lat="55.752992" lon="48.751642">
        <ele>206.4</ele>
        <extensions>
          <gpxtpx:TrackPointExtension>
          </gpxtpx:TrackPointExtension>
        </extensions>
      </trkpt>
			

      <trkpt lat="55.752757" lon="48.751768">
        <ele>206.6</ele>
        <extensions>
          <gpxtpx:TrackPointExtension>
          </gpxtpx:TrackPointExtension>
        </extensions>
      </trkpt>
			

      <trkpt lat="55.752555" lon="48.751897">
        <ele>206.5</ele>
        <extensions>
          <gpxtpx:TrackPointExtension>
          </gpxtpx:TrackPointExtension>
        </extensions>
      </trkpt>
			

      <trkpt lat="55.752527" lon="48.75191">
        <ele>206.4</ele>
        <extensions>
          <gpxtpx:TrackPointExtension>
          </gpxtpx:TrackPointExtension>
        </extensions>
      </trkpt>
			

      <trkpt lat="55.752462" lon="48.752004">
        <ele>206.1</ele>
        <extensions>
          <gpxtpx:TrackPointExtension>
          </gpxtpx:TrackPointExtension>
        </extensions>
      </trkpt>
			

      <trkpt lat="55.752446" lon="48.752759">
        <ele>203.1</ele>
        <extensions>
          <gpxtpx:TrackPointExtension>
          </gpxtpx:TrackPointExtension>
        </extensions>
      </trkpt>
			

      <trkpt lat="55.752068" lon="48.753211">
        <ele>201.8</ele>
        <extensions>
          <gpxtpx:TrackPointExtension>
          </gpxtpx:TrackPointExtension>
        </extensions>
      </trkpt>
			

      <trkpt lat="55.751744" lon="48.753244">
        <ele>201.6</ele>
        <extensions>
          <gpxtpx:TrackPointExtension>
          </gpxtpx:TrackPointExtension>
        </extensions>
      </trkpt>
			

      <trkpt lat="55.751549" lon="48.753117">
        <ele>201.5</ele>
        <extensions>
          <gpxtpx:TrackPointExtension>
          </gpxtpx:TrackPointExtension>
        </extensions>
      </trkpt>
			

      <trkpt lat="55.751419" lon="48.753053">
        <ele>201.4</ele>
        <extensions>
          <gpxtpx:TrackPointExtension>
          </gpxtpx:TrackPointExtension>
        </extensions>
      </trkpt>
			

      <trkpt lat="55.751351" lon="48.753078">
        <ele>201.0</ele>
        <extensions>
          <gpxtpx:TrackPointExtension>
          </gpxtpx:TrackPointExtension>
        </extensions>
      </trkpt>
			

      <trkpt lat="55.751265" lon="48.753191">
        <ele>200.4</ele>
        <extensions>
          <gpxtpx:TrackPointExtension>
          </gpxtpx:TrackPointExtension>
        </extensions>
      </trkpt>
			

      <trkpt lat="55.751191" lon="48.75323">
        <ele>200.1</ele>
        <extensions>
          <gpxtpx:TrackPointExtension>
          </gpxtpx:TrackPointExtension>
        </extensions>
      </trkpt>
			

      <trkpt lat="55.751125" lon="48.753128">
        <ele>200.2</ele>
        <extensions>
          <gpxtpx:TrackPointExtension>
          </gpxtpx:TrackPointExtension>
        </extensions>
      </trkpt>
			

      <trkpt lat="55.751064" lon="48.753045">
        <ele>200.3</ele>
        <extensions>
          <gpxtpx:TrackPointExtension>
          </gpxtpx:TrackPointExtension>
        </extensions>
      </trkpt>
			

      <trkpt lat="55.751013" lon="48.753061">
        <ele>200.1</ele>
        <extensions>
          <gpxtpx:TrackPointExtension>
          </gpxtpx:TrackPointExtension>
        </extensions>
      </trkpt>
			

      <trkpt lat="55.750947" lon="48.752978">
        <ele>200.2</ele>
        <extensions>
          <gpxtpx:TrackPointExtension>
          </gpxtpx:TrackPointExtension>
        </extensions>
      </trkpt>
			

      <trkpt lat="55.750884" lon="48.752642">
        <ele>201.0</ele>
        <extensions>
          <gpxtpx:TrackPointExtension>
          </gpxtpx:TrackPointExtension>
        </extensions>
      </trkpt>
			

      <trkpt lat="55.750818" lon="48.752331">
        <ele>201.7</ele>
        <extensions>
          <gpxtpx:TrackPointExtension>
          </gpxtpx:TrackPointExtension>
        </extensions>
      </trkpt>
			

      <trkpt lat="55.750932" lon="48.751623">
        <ele>204.3</ele>
        <extensions>
          <gpxtpx:TrackPointExtension>
          </gpxtpx:TrackPointExtension>
        </extensions>
      </trkpt>
			

      <trkpt lat="55.751018" lon="48.751025">
        <ele>206.4</ele>
        <extensions>
          <gpxtpx:TrackPointExtension>
          </gpxtpx:TrackPointExtension>
        </extensions>
      </trkpt>
			

      <trkpt lat="55.751123" lon="48.75038">
        <ele>208.6</ele>
        <extensions>
          <gpxtpx:TrackPointExtension>
          </gpxtpx:TrackPointExtension>
        </extensions>
      </trkpt>
			

      <trkpt lat="55.751208" lon="48.749902">
        <ele>210.2</ele>
        <extensions>
          <gpxtpx:TrackPointExtension>
          </gpxtpx:TrackPointExtension>
        </extensions>
      </trkpt>
			

      <trkpt lat="55.751278" lon="48.749359">
        <ele>211.9</ele>
        <extensions>
          <gpxtpx:TrackPointExtension>
          </gpxtpx:TrackPointExtension>
        </extensions>
      </trkpt>
			

      <trkpt lat="55.751385" lon="48.748898">
        <ele>212.3</ele>
        <extensions>
          <gpxtpx:TrackPointExtension>
          </gpxtpx:TrackPointExtension>
        </extensions>
      </trkpt>
			

      <trkpt lat="55.751513" lon="48.748268">
        <ele>211.0</ele>
        <extensions>
          <gpxtpx:TrackPointExtension>
          </gpxtpx:TrackPointExtension>
        </extensions>
      </trkpt>
			

      <trkpt lat="55.751593" lon="48.748018">
        <ele>210.5</ele>
        <extensions>
          <gpxtpx:TrackPointExtension>
          </gpxtpx:TrackPointExtension>
        </extensions>
      </trkpt>
			

      <trkpt lat="55.751587" lon="48.748073">
        <ele>210.7</ele>
        <extensions>
          <gpxtpx:TrackPointExtension>
          </gpxtpx:TrackPointExtension>
        </extensions>
      </trkpt>
			

      <trkpt lat="55.751732" lon="48.747402">
        <ele>209.1</ele>
        <extensions>
          <gpxtpx:TrackPointExtension>
          </gpxtpx:TrackPointExtension>
        </extensions>
      </trkpt>
			

      <trkpt lat="55.751874" lon="48.746626">
        <ele>207.1</ele>
        <extensions>
          <gpxtpx:TrackPointExtension>
          </gpxtpx:TrackPointExtension>
        </extensions>
      </trkpt>
			

      <trkpt lat="55.752035" lon="48.745959">
        <ele>204.8</ele>
        <extensions>
          <gpxtpx:TrackPointExtension>
          </gpxtpx:TrackPointExtension>
        </extensions>
      </trkpt>
			

      <trkpt lat="55.752176" lon="48.745677">
        <ele>203.5</ele>
        <extensions>
          <gpxtpx:TrackPointExtension>
          </gpxtpx:TrackPointExtension>
        </extensions>
      </trkpt>
			

      <trkpt lat="55.752151" lon="48.745462">
        <ele>202.7</ele>
        <extensions>
          <gpxtpx:TrackPointExtension>
          </gpxtpx:TrackPointExtension>
        </extensions>
      </trkpt>
			

      <trkpt lat="55.752281" lon="48.745333">
        <ele>202.1</ele>
        <extensions>
          <gpxtpx:TrackPointExtension>
          </gpxtpx:TrackPointExtension>
        </extensions>
      </trkpt>
			

      <trkpt lat="55.752091" lon="48.744523">
        <ele>199.2</ele>
        <extensions>
          <gpxtpx:TrackPointExtension>
          </gpxtpx:TrackPointExtension>
        </extensions>
      </trkpt>
			

      <trkpt lat="55.751958" lon="48.743798">
        <ele>196.6</ele>
        <extensions>
          <gpxtpx:TrackPointExtension>
          </gpxtpx:TrackPointExtension>
        </extensions>
      </trkpt>
			

      <trkpt lat="55.751753" lon="48.743873">
        <ele>197.1</ele>
        <extensions>
          <gpxtpx:TrackPointExtension>
          </gpxtpx:TrackPointExtension>
        </extensions>
      </trkpt>
			

      <trkpt lat="55.751573" lon="48.743627">
        <ele>196.5</ele>
        <extensions>
          <gpxtpx:TrackPointExtension>
          </gpxtpx:TrackPointExtension>
        </extensions>
      </trkpt>
			

      <trkpt lat="55.751215" lon="48.743332">
        <ele>196.5</ele>
        <extensions>
          <gpxtpx:TrackPointExtension>
          </gpxtpx:TrackPointExtension>
        </extensions>
      </trkpt>
			

      <trkpt lat="55.750808" lon="48.742961">
        <ele>196.4</ele>
        <extensions>
          <gpxtpx:TrackPointExtension>
          </gpxtpx:TrackPointExtension>
        </extensions>
      </trkpt>
			

      <trkpt lat="55.750512" lon="48.742686">
        <ele>196.2</ele>
        <extensions>
          <gpxtpx:TrackPointExtension>
          </gpxtpx:TrackPointExtension>
        </extensions>
      </trkpt>
			

      <trkpt lat="55.750234" lon="48.742388">
        <ele>195.9</ele>
        <extensions>
          <gpxtpx:TrackPointExtension>
          </gpxtpx:TrackPointExtension>
        </extensions>
      </trkpt>
			

      <trkpt lat="55.74993" lon="48.742065">
        <ele>195.7</ele>
        <extensions>
          <gpxtpx:TrackPointExtension>
          </gpxtpx:TrackPointExtension>
        </extensions>
      </trkpt>
			

      <trkpt lat="55.749643" lon="48.741766">
        <ele>195.7</ele>
        <extensions>
          <gpxtpx:TrackPointExtension>
          </gpxtpx:TrackPointExtension>
        </extensions>
      </trkpt>
			

      <trkpt lat="55.749492" lon="48.741594">
        <ele>195.7</ele>
        <extensions>
          <gpxtpx:TrackPointExtension>
          </gpxtpx:TrackPointExtension>
        </extensions>
      </trkpt>
			

      <trkpt lat="55.745924" lon="48.73677">
        <ele>197.6</ele>
        <extensions>
          <gpxtpx:TrackPointExtension>
          </gpxtpx:TrackPointExtension>
        </extensions>
      </trkpt>
			

      <trkpt lat="55.745414" lon="48.735895">
        <ele>198.4</ele>
        <extensions>
          <gpxtpx:TrackPointExtension>
          </gpxtpx:TrackPointExtension>
        </extensions>
      </trkpt>
			

      <trkpt lat="55.745317" lon="48.735737">
        <ele>198.5</ele>
        <extensions>
          <gpxtpx:TrackPointExtension>
          </gpxtpx:TrackPointExtension>
        </extensions>
      </trkpt>
			

      <trkpt lat="55.744965" lon="48.735083">
        <ele>198.7</ele>
        <extensions>
          <gpxtpx:TrackPointExtension>
          </gpxtpx:TrackPointExtension>
        </extensions>
      </trkpt>
			

      <trkpt lat="55.744665" lon="48.734537">
        <ele>198.9</ele>
        <extensions>
          <gpxtpx:TrackPointExtension>
          </gpxtpx:TrackPointExtension>
        </extensions>
      </trkpt>
			

      <trkpt lat="55.744239" lon="48.733714">
        <ele>198.9</ele>
        <extensions>
          <gpxtpx:TrackPointExtension>
          </gpxtpx:TrackPointExtension>
        </extensions>
      </trkpt>
			

      <trkpt lat="55.743895" lon="48.732972">
        <ele>198.9</ele>
        <extensions>
          <gpxtpx:TrackPointExtension>
          </gpxtpx:TrackPointExtension>
        </extensions>
      </trkpt>
			

      <trkpt lat="55.743541" lon="48.732196">
        <ele>198.9</ele>
        <extensions>
          <gpxtpx:TrackPointExtension>
          </gpxtpx:TrackPointExtension>
        </extensions>
      </trkpt>
			

      <trkpt lat="55.74322" lon="48.731426">
        <ele>198.3</ele>
        <extensions>
          <gpxtpx:TrackPointExtension>
          </gpxtpx:TrackPointExtension>
        </extensions>
      </trkpt>
			

      <trkpt lat="55.743018" lon="48.730906">
        <ele>197.8</ele>
        <extensions>
          <gpxtpx:TrackPointExtension>
          </gpxtpx:TrackPointExtension>
        </extensions>
      </trkpt>
			

      <trkpt lat="55.742916" lon="48.730672">
        <ele>197.5</ele>
        <extensions>
          <gpxtpx:TrackPointExtension>
          </gpxtpx:TrackPointExtension>
        </extensions>
      </trkpt>
			

      <trkpt lat="55.743012" lon="48.730729">
        <ele>197.5</ele>
        <extensions>
          <gpxtpx:TrackPointExtension>
          </gpxtpx:TrackPointExtension>
        </extensions>
      </trkpt>
			

      <trkpt lat="55.743273" lon="48.731453">
        <ele>198.3</ele>
        <extensions>
          <gpxtpx:TrackPointExtension>
          </gpxtpx:TrackPointExtension>
        </extensions>
      </trkpt>
			

      <trkpt lat="55.743685" lon="48.732424">
        <ele>198.9</ele>
        <extensions>
          <gpxtpx:TrackPointExtension>
          </gpxtpx:TrackPointExtension>
        </extensions>
      </trkpt>
			

      <trkpt lat="55.743902" lon="48.732916">
        <ele>198.9</ele>
        <extensions>
          <gpxtpx:TrackPointExtension>
          </gpxtpx:TrackPointExtension>
        </extensions>
      </trkpt>
			

      <trkpt lat="55.744109" lon="48.733416">
        <ele>198.8</ele>
        <extensions>
          <gpxtpx:TrackPointExtension>
          </gpxtpx:TrackPointExtension>
        </extensions>
      </trkpt>
			

      <trkpt lat="55.744599" lon="48.734347">
        <ele>198.8</ele>
        <extensions>
          <gpxtpx:TrackPointExtension>
          </gpxtpx:TrackPointExtension>
        </extensions>
      </trkpt>
			

      <trkpt lat="55.744659" lon="48.734454">
        <ele>198.8</ele>
        <extensions>
          <gpxtpx:TrackPointExtension>
          </gpxtpx:TrackPointExtension>
        </extensions>
      </trkpt>
			

      <trkpt lat="55.744874" lon="48.734886">
        <ele>198.7</ele>
        <extensions>
          <gpxtpx:TrackPointExtension>
          </gpxtpx:TrackPointExtension>
        </extensions>
      </trkpt>
			

      <trkpt lat="55.745354" lon="48.735755">
        <ele>198.4</ele>
        <extensions>
          <gpxtpx:TrackPointExtension>
          </gpxtpx:TrackPointExtension>
        </extensions>
      </trkpt>
			

      <trkpt lat="55.745773" lon="48.73645">
        <ele>197.9</ele>
        <extensions>
          <gpxtpx:TrackPointExtension>
          </gpxtpx:TrackPointExtension>
        </extensions>
      </trkpt>
			

      <trkpt lat="55.746063" lon="48.736989">
        <ele>197.4</ele>
        <extensions>
          <gpxtpx:TrackPointExtension>
          </gpxtpx:TrackPointExtension>
        </extensions>
      </trkpt>
			

      <trkpt lat="55.746383" lon="48.737505">
        <ele>196.9</ele>
        <extensions>
          <gpxtpx:TrackPointExtension>
          </gpxtpx:TrackPointExtension>
        </extensions>
      </trkpt>
			

      <trkpt lat="55.746706" lon="48.737993">
        <ele>196.4</ele>
        <extensions>
          <gpxtpx:TrackPointExtension>
          </gpxtpx:TrackPointExtension>
        </extensions>
      </trkpt>
			

      <trkpt lat="55.747011" lon="48.738459">
        <ele>196.1</ele>
        <extensions>
          <gpxtpx:TrackPointExtension>
          </gpxtpx:TrackPointExtension>
        </extensions>
      </trkpt>
			

      <trkpt lat="55.74737" lon="48.738983">
        <ele>196.0</ele>
        <extensions>
          <gpxtpx:TrackPointExtension>
          </gpxtpx:TrackPointExtension>
        </extensions>
      </trkpt>
			

      <trkpt lat="55.747642" lon="48.739371">
        <ele>195.8</ele>
        <extensions>
          <gpxtpx:TrackPointExtension>
          </gpxtpx:TrackPointExtension>
        </extensions>
      </trkpt>
			

      <trkpt lat="55.747846" lon="48.739644">
        <ele>195.8</ele>
        <extensions>
          <gpxtpx:TrackPointExtension>
          </gpxtpx:TrackPointExtension>
        </extensions>
      </trkpt>
			

      <trkpt lat="55.748108" lon="48.740004">
        <ele>195.9</ele>
        <extensions>
          <gpxtpx:TrackPointExtension>
          </gpxtpx:TrackPointExtension>
        </extensions>
      </trkpt>
			

      <trkpt lat="55.748377" lon="48.740337">
        <ele>196.1</ele>
        <extensions>
          <gpxtpx:TrackPointExtension>
          </gpxtpx:TrackPointExtension>
        </extensions>
      </trkpt>
			

      <trkpt lat="55.748742" lon="48.740782">
        <ele>196.5</ele>
        <extensions>
          <gpxtpx:TrackPointExtension>
          </gpxtpx:TrackPointExtension>
        </extensions>
      </trkpt>
			

      <trkpt lat="55.748986" lon="48.741018">
        <ele>196.2</ele>
        <extensions>
          <gpxtpx:TrackPointExtension>
          </gpxtpx:TrackPointExtension>
        </extensions>
      </trkpt>
			

      <trkpt lat="55.749261" lon="48.74139">
        <ele>195.9</ele>
        <extensions>
          <gpxtpx:TrackPointExtension>
          </gpxtpx:TrackPointExtension>
        </extensions>
      </trkpt>
			

      <trkpt lat="55.749469" lon="48.74162">
        <ele>195.8</ele>
        <extensions>
          <gpxtpx:TrackPointExtension>
          </gpxtpx:TrackPointExtension>
        </extensions>
      </trkpt>
			

      <trkpt lat="55.74944" lon="48.741613">
        <ele>195.8</ele>
        <extensions>
          <gpxtpx:TrackPointExtension>
          </gpxtpx:TrackPointExtension>
        </extensions>
      </trkpt>
			

      <trkpt lat="55.749694" lon="48.741871">
        <ele>195.8</ele>
        <extensions>
          <gpxtpx:TrackPointExtension>
          </gpxtpx:TrackPointExtension>
        </extensions>
      </trkpt>
			

      <trkpt lat="55.749954" lon="48.742139">
        <ele>195.8</ele>
        <extensions>
          <gpxtpx:TrackPointExtension>
          </gpxtpx:TrackPointExtension>
        </extensions>
      </trkpt>
			

      <trkpt lat="55.750186" lon="48.742376">
        <ele>196.0</ele>
        <extensions>
          <gpxtpx:TrackPointExtension>
          </gpxtpx:TrackPointExtension>
        </extensions>
      </trkpt>
			

      <trkpt lat="55.750566" lon="48.742768">
        <ele>196.3</ele>
        <extensions>
          <gpxtpx:TrackPointExtension>
          </gpxtpx:TrackPointExtension>
        </extensions>
      </trkpt>
			

      <trkpt lat="55.750639" lon="48.74274">
        <ele>196.1</ele>
        <extensions>
          <gpxtpx:TrackPointExtension>
          </gpxtpx:TrackPointExtension>
        </extensions>
      </trkpt>
			

      <trkpt lat="55.750747" lon="48.74234">
        <ele>194.9</ele>
        <extensions>
          <gpxtpx:TrackPointExtension>
          </gpxtpx:TrackPointExtension>
        </extensions>
      </trkpt>
			

      <trkpt lat="55.750862" lon="48.742276">
        <ele>194.6</ele>
        <extensions>
          <gpxtpx:TrackPointExtension>
          </gpxtpx:TrackPointExtension>
        </extensions>
      </trkpt>
			

      <trkpt lat="55.750954" lon="48.74192">
        <ele>193.6</ele>
        <extensions>
          <gpxtpx:TrackPointExtension>
          </gpxtpx:TrackPointExtension>
        </extensions>
      </trkpt>
			

      <trkpt lat="55.75117" lon="48.741814">
        <ele>193.1</ele>
        <extensions>
          <gpxtpx:TrackPointExtension>
          </gpxtpx:TrackPointExtension>
        </extensions>
      </trkpt>
			

      <trkpt lat="55.751569" lon="48.742024">
        <ele>192.9</ele>
        <extensions>
          <gpxtpx:TrackPointExtension>
          </gpxtpx:TrackPointExtension>
        </extensions>
      </trkpt>
			

      <trkpt lat="55.751944" lon="48.742209">
        <ele>192.7</ele>
        <extensions>
          <gpxtpx:TrackPointExtension>
          </gpxtpx:TrackPointExtension>
        </extensions>
      </trkpt>
			

      <trkpt lat="55.752311" lon="48.742367">
        <ele>192.7</ele>
        <extensions>
          <gpxtpx:TrackPointExtension>
          </gpxtpx:TrackPointExtension>
        </extensions>
      </trkpt>
			

      <trkpt lat="55.752529" lon="48.741509">
        <ele>190.5</ele>
        <extensions>
          <gpxtpx:TrackPointExtension>
          </gpxtpx:TrackPointExtension>
        </extensions>
      </trkpt>
			

      <trkpt lat="55.75254" lon="48.741426">
        <ele>190.3</ele>
        <extensions>
          <gpxtpx:TrackPointExtension>
          </gpxtpx:TrackPointExtension>
        </extensions>
      </trkpt>
			

      <trkpt lat="55.752654" lon="48.740643">
        <ele>188.4</ele>
        <extensions>
          <gpxtpx:TrackPointExtension>
          </gpxtpx:TrackPointExtension>
        </extensions>
      </trkpt>
			

      <trkpt lat="55.75283" lon="48.740771">
        <ele>188.3</ele>
        <extensions>
          <gpxtpx:TrackPointExtension>
          </gpxtpx:TrackPointExtension>
        </extensions>
      </trkpt>
			

      <trkpt lat="55.753028" lon="48.740862">
        <ele>188.2</ele>
        <extensions>
          <gpxtpx:TrackPointExtension>
          </gpxtpx:TrackPointExtension>
        </extensions>
      </trkpt>
			

      <trkpt lat="55.753127" lon="48.7409">
        <ele>188.1</ele>
        <extensions>
          <gpxtpx:TrackPointExtension>
          </gpxtpx:TrackPointExtension>
        </extensions>
      </trkpt>
			

      <trkpt lat="55.753189" lon="48.741043">
        <ele>188.4</ele>
        <extensions>
          <gpxtpx:TrackPointExtension>
          </gpxtpx:TrackPointExtension>
        </extensions>
      </trkpt>
			

      <trkpt lat="55.753173" lon="48.741276">
        <ele>189.1</ele>
        <extensions>
          <gpxtpx:TrackPointExtension>
          </gpxtpx:TrackPointExtension>
        </extensions>
      </trkpt>
			

      <trkpt lat="55.753369" lon="48.741399">
        <ele>189.1</ele>
        <extensions>
          <gpxtpx:TrackPointExtension>
          </gpxtpx:TrackPointExtension>
        </extensions>
      </trkpt>
			

      <trkpt lat="55.753543" lon="48.741458">
        <ele>189.4</ele>
        <extensions>
          <gpxtpx:TrackPointExtension>
          </gpxtpx:TrackPointExtension>
        </extensions>
      </trkpt>
			
</trkseg></trk>
</gpx>