<?xml version="1.0" encoding="UTF-8"?>
		<gpx xmlns:xsi="http://www.w3.org/2001/XMLSchema-instance" xmlns="http://www.topografix.com/GPX/1/1" xsi:schemaLocation="http://www.topografix.com/GPX/1/1 http://www.topografix.com/GPX/1/1/gpx.xsd http://www.garmin.com/xmlschemas/GpxExtensions/v3 http://www.garmin.com/xmlschemas/GpxExtensionsv3.xsd http://www.garmin.com/xmlschemas/TrackPointExtension/v1 http://www.garmin.com/xmlschemas/TrackPointExtensionv1.xsd" xmlns:gpxtpx="http://www.garmin.com/xmlschemas/TrackPointExtension/v1" xmlns:gpxx="http://www.garmin.com/xmlschemas/GpxExtensions/v3" version="1.1">

	<metadata>
    <name>0A-1A.3_1A-2A.2_2A-3A.2_3A-4A.1_4A-FA.1</name>
    <author>Strava Mobile</author>
    <type>Running</type>
	</metadata>
	
<trk><trkseg>

      <trkpt lat="55.753465" lon="48.74142">
        <ele>189.2</ele>
        <extensions>
          <gpxtpx:TrackPointExtension>
          </gpxtpx:TrackPointExtension>
        </extensions>
      </trkpt>
			

      <trkpt lat="55.753084" lon="48.741238">
        <ele>189.1</ele>
        <extensions>
          <gpxtpx:TrackPointExtension>
          </gpxtpx:TrackPointExtension>
        </extensions>
      </trkpt>
			

      <trkpt lat="55.753" lon="48.741787">
        <ele>190.6</ele>
        <extensions>
          <gpxtpx:TrackPointExtension>
          </gpxtpx:TrackPointExtension>
        </extensions>
      </trkpt>
			

      <trkpt lat="55.75293" lon="48.742172">
        <ele>191.7</ele>
        <extensions>
          <gpxtpx:TrackPointExtension>
          </gpxtpx:TrackPointExtension>
        </extensions>
      </trkpt>
			

      <trkpt lat="55.752828" lon="48.742764">
        <ele>193.3</ele>
        <extensions>
          <gpxtpx:TrackPointExtension>
          </gpxtpx:TrackPointExtension>
        </extensions>
      </trkpt>
			

      <trkpt lat="55.752725" lon="48.743102">
        <ele>194.2</ele>
        <extensions>
          <gpxtpx:TrackPointExtension>
          </gpxtpx:TrackPointExtension>
        </extensions>
      </trkpt>
			

      <trkpt lat="55.752592" lon="48.743851">
        <ele>196.4</ele>
        <extensions>
          <gpxtpx:TrackPointExtension>
          </gpxtpx:TrackPointExtension>
        </extensions>
      </trkpt>
			

      <trkpt lat="55.752713" lon="48.744329">
        <ele>198.1</ele>
        <extensions>
          <gpxtpx:TrackPointExtension>
          </gpxtpx:TrackPointExtension>
        </extensions>
      </trkpt>
			

      <trkpt lat="55.753103" lon="48.744661">
        <ele>198.9</ele>
        <extensions>
          <gpxtpx:TrackPointExtension>
          </gpxtpx:TrackPointExtension>
        </extensions>
      </trkpt>
			

      <trkpt lat="55.753472" lon="48.74495">
        <ele>199.7</ele>
        <extensions>
          <gpxtpx:TrackPointExtension>
          </gpxtpx:TrackPointExtension>
        </extensions>
      </trkpt>
			

      <trkpt lat="55.753932" lon="48.745214">
        <ele>201.1</ele>
        <extensions>
          <gpxtpx:TrackPointExtension>
          </gpxtpx:TrackPointExtension>
        </extensions>
      </trkpt>
			

      <trkpt lat="55.754292" lon="48.74547">
        <ele>202.4</ele>
        <extensions>
          <gpxtpx:TrackPointExtension>
          </gpxtpx:TrackPointExtension>
        </extensions>
      </trkpt>
			

      <trkpt lat="55.754596" lon="48.745638">
        <ele>203.5</ele>
        <extensions>
          <gpxtpx:TrackPointExtension>
          </gpxtpx:TrackPointExtension>
        </extensions>
      </trkpt>
			

      <trkpt lat="55.754927" lon="48.745784">
        <ele>204.5</ele>
        <extensions>
          <gpxtpx:TrackPointExtension>
          </gpxtpx:TrackPointExtension>
        </extensions>
      </trkpt>
			

      <trkpt lat="55.755258" lon="48.745911">
        <ele>205.0</ele>
        <extensions>
          <gpxtpx:TrackPointExtension>
          </gpxtpx:TrackPointExtension>
        </extensions>
      </trkpt>
			

      <trkpt lat="55.755627" lon="48.74595">
        <ele>205.0</ele>
        <extensions>
          <gpxtpx:TrackPointExtension>
          </gpxtpx:TrackPointExtension>
        </extensions>
      </trkpt>
			

      <trkpt lat="55.755967" lon="48.746076">
        <ele>205.3</ele>
        <extensions>
          <gpxtpx:TrackPointExtension>
          </gpxtpx:TrackPointExtension>
        </extensions>
      </trkpt>
			

      <trkpt lat="55.756317" lon="48.746095">
        <ele>205.3</ele>
        <extensions>
          <gpxtpx:TrackPointExtension>
          </gpxtpx:TrackPointExtension>
        </extensions>
      </trkpt>
			

      <trkpt lat="55.756611" lon="48.746095">
        <ele>204.8</ele>
        <extensions>
          <gpxtpx:TrackPointExtension>
          </gpxtpx:TrackPointExtension>
        </extensions>
      </trkpt>
			

      <trkpt lat="55.756945" lon="48.746015">
        <ele>203.2</ele>
        <extensions>
          <gpxtpx:TrackPointExtension>
          </gpxtpx:TrackPointExtension>
        </extensions>
      </trkpt>
			

      <trkpt lat="55.757036" lon="48.74597">
        <ele>202.7</ele>
        <extensions>
          <gpxtpx:TrackPointExtension>
          </gpxtpx:TrackPointExtension>
        </extensions>
      </trkpt>
			

      <trkpt lat="55.757048" lon="48.746024">
        <ele>202.9</ele>
        <extensions>
          <gpxtpx:TrackPointExtension>
          </gpxtpx:TrackPointExtension>
        </extensions>
      </trkpt>
			

      <trkpt lat="55.756608" lon="48.746076">
        <ele>204.7</ele>
        <extensions>
          <gpxtpx:TrackPointExtension>
          </gpxtpx:TrackPointExtension>
        </extensions>
      </trkpt>
			

      <trkpt lat="55.755902" lon="48.746012">
        <ele>205.1</ele>
        <extensions>
          <gpxtpx:TrackPointExtension>
          </gpxtpx:TrackPointExtension>
        </extensions>
      </trkpt>
			

      <trkpt lat="55.75559" lon="48.745981">
        <ele>205.1</ele>
        <extensions>
          <gpxtpx:TrackPointExtension>
          </gpxtpx:TrackPointExtension>
        </extensions>
      </trkpt>
			

      <trkpt lat="55.754921" lon="48.74583">
        <ele>204.7</ele>
        <extensions>
          <gpxtpx:TrackPointExtension>
          </gpxtpx:TrackPointExtension>
        </extensions>
      </trkpt>
			

      <trkpt lat="55.754293" lon="48.745419">
        <ele>202.3</ele>
        <extensions>
          <gpxtpx:TrackPointExtension>
          </gpxtpx:TrackPointExtension>
        </extensions>
      </trkpt>
			

      <trkpt lat="55.753784" lon="48.74517">
        <ele>200.7</ele>
        <extensions>
          <gpxtpx:TrackPointExtension>
          </gpxtpx:TrackPointExtension>
        </extensions>
      </trkpt>
			

      <trkpt lat="55.753244" lon="48.744817">
        <ele>199.4</ele>
        <extensions>
          <gpxtpx:TrackPointExtension>
          </gpxtpx:TrackPointExtension>
        </extensions>
      </trkpt>
			

      <trkpt lat="55.752809" lon="48.744549">
        <ele>198.8</ele>
        <extensions>
          <gpxtpx:TrackPointExtension>
          </gpxtpx:TrackPointExtension>
        </extensions>
      </trkpt>
			

      <trkpt lat="55.752631" lon="48.744215">
        <ele>197.7</ele>
        <extensions>
          <gpxtpx:TrackPointExtension>
          </gpxtpx:TrackPointExtension>
        </extensions>
      </trkpt>
			

      <trkpt lat="55.752571" lon="48.743968">
        <ele>196.8</ele>
        <extensions>
          <gpxtpx:TrackPointExtension>
          </gpxtpx:TrackPointExtension>
        </extensions>
      </trkpt>
			

      <trkpt lat="55.752492" lon="48.743883">
        <ele>196.6</ele>
        <extensions>
          <gpxtpx:TrackPointExtension>
          </gpxtpx:TrackPointExtension>
        </extensions>
      </trkpt>
			

      <trkpt lat="55.752489" lon="48.744162">
        <ele>197.6</ele>
        <extensions>
          <gpxtpx:TrackPointExtension>
          </gpxtpx:TrackPointExtension>
        </extensions>
      </trkpt>
			

      <trkpt lat="55.75211" lon="48.744499">
        <ele>199.1</ele>
        <extensions>
          <gpxtpx:TrackPointExtension>
          </gpxtpx:TrackPointExtension>
        </extensions>
      </trkpt>
			

      <trkpt lat="55.75192" lon="48.743749">
        <ele>196.4</ele>
        <extensions>
          <gpxtpx:TrackPointExtension>
          </gpxtpx:TrackPointExtension>
        </extensions>
      </trkpt>
			

      <trkpt lat="55.751804" lon="48.743824">
        <ele>196.8</ele>
        <extensions>
          <gpxtpx:TrackPointExtension>
          </gpxtpx:TrackPointExtension>
        </extensions>
      </trkpt>
			

      <trkpt lat="55.751745" lon="48.743854">
        <ele>197.1</ele>
        <extensions>
          <gpxtpx:TrackPointExtension>
          </gpxtpx:TrackPointExtension>
        </extensions>
      </trkpt>
			

      <trkpt lat="55.75168" lon="48.743735">
        <ele>196.7</ele>
        <extensions>
          <gpxtpx:TrackPointExtension>
          </gpxtpx:TrackPointExtension>
        </extensions>
      </trkpt>
			

      <trkpt lat="55.75163" lon="48.74369">
        <ele>196.6</ele>
        <extensions>
          <gpxtpx:TrackPointExtension>
          </gpxtpx:TrackPointExtension>
        </extensions>
      </trkpt>
			

      <trkpt lat="55.751465" lon="48.743523">
        <ele>196.4</ele>
        <extensions>
          <gpxtpx:TrackPointExtension>
          </gpxtpx:TrackPointExtension>
        </extensions>
      </trkpt>
			

      <trkpt lat="55.751117" lon="48.74324">
        <ele>196.4</ele>
        <extensions>
          <gpxtpx:TrackPointExtension>
          </gpxtpx:TrackPointExtension>
        </extensions>
      </trkpt>
			

      <trkpt lat="55.750905" lon="48.743006">
        <ele>196.3</ele>
        <extensions>
          <gpxtpx:TrackPointExtension>
          </gpxtpx:TrackPointExtension>
        </extensions>
      </trkpt>
			

      <trkpt lat="55.750561" lon="48.742733">
        <ele>196.2</ele>
        <extensions>
          <gpxtpx:TrackPointExtension>
          </gpxtpx:TrackPointExtension>
        </extensions>
      </trkpt>
			

      <trkpt lat="55.7502" lon="48.742378">
        <ele>195.9</ele>
        <extensions>
          <gpxtpx:TrackPointExtension>
          </gpxtpx:TrackPointExtension>
        </extensions>
      </trkpt>
			

      <trkpt lat="55.749988" lon="48.7421">
        <ele>195.7</ele>
        <extensions>
          <gpxtpx:TrackPointExtension>
          </gpxtpx:TrackPointExtension>
        </extensions>
      </trkpt>
			

      <trkpt lat="55.749984" lon="48.742113">
        <ele>195.7</ele>
        <extensions>
          <gpxtpx:TrackPointExtension>
          </gpxtpx:TrackPointExtension>
        </extensions>
      </trkpt>
			

      <trkpt lat="55.74947" lon="48.741519">
        <ele>195.6</ele>
        <extensions>
          <gpxtpx:TrackPointExtension>
          </gpxtpx:TrackPointExtension>
        </extensions>
      </trkpt>
			

      <trkpt lat="55.749541" lon="48.741024">
        <ele>194.6</ele>
        <extensions>
          <gpxtpx:TrackPointExtension>
          </gpxtpx:TrackPointExtension>
        </extensions>
      </trkpt>
			

      <trkpt lat="55.749694" lon="48.740568">
        <ele>193.2</ele>
        <extensions>
          <gpxtpx:TrackPointExtension>
          </gpxtpx:TrackPointExtension>
        </extensions>
      </trkpt>
			

      <trkpt lat="55.74987" lon="48.740331">
        <ele>192.1</ele>
        <extensions>
          <gpxtpx:TrackPointExtension>
          </gpxtpx:TrackPointExtension>
        </extensions>
      </trkpt>
			

      <trkpt lat="55.749929" lon="48.739988">
        <ele>191.1</ele>
        <extensions>
          <gpxtpx:TrackPointExtension>
          </gpxtpx:TrackPointExtension>
        </extensions>
      </trkpt>
			

      <trkpt lat="55.749932" lon="48.739465">
        <ele>190.0</ele>
        <extensions>
          <gpxtpx:TrackPointExtension>
          </gpxtpx:TrackPointExtension>
        </extensions>
      </trkpt>
			

      <trkpt lat="55.749772" lon="48.739077">
        <ele>189.6</ele>
        <extensions>
          <gpxtpx:TrackPointExtension>
          </gpxtpx:TrackPointExtension>
        </extensions>
      </trkpt>
			

      <trkpt lat="55.749633" lon="48.738953">
        <ele>189.8</ele>
        <extensions>
          <gpxtpx:TrackPointExtension>
          </gpxtpx:TrackPointExtension>
        </extensions>
      </trkpt>
			

      <trkpt lat="55.749514" lon="48.738834">
        <ele>189.9</ele>
        <extensions>
          <gpxtpx:TrackPointExtension>
          </gpxtpx:TrackPointExtension>
        </extensions>
      </trkpt>
			

      <trkpt lat="55.749348" lon="48.738679">
        <ele>190.1</ele>
        <extensions>
          <gpxtpx:TrackPointExtension>
          </gpxtpx:TrackPointExtension>
        </extensions>
      </trkpt>
			

      <trkpt lat="55.749039" lon="48.738577">
        <ele>190.9</ele>
        <extensions>
          <gpxtpx:TrackPointExtension>
          </gpxtpx:TrackPointExtension>
        </extensions>
      </trkpt>
			

      <trkpt lat="55.748882" lon="48.738567">
        <ele>191.5</ele>
        <extensions>
          <gpxtpx:TrackPointExtension>
          </gpxtpx:TrackPointExtension>
        </extensions>
      </trkpt>
			

      <trkpt lat="55.748673" lon="48.73858">
        <ele>192.1</ele>
        <extensions>
          <gpxtpx:TrackPointExtension>
          </gpxtpx:TrackPointExtension>
        </extensions>
      </trkpt>
			

      <trkpt lat="55.748468" lon="48.738732">
        <ele>192.9</ele>
        <extensions>
          <gpxtpx:TrackPointExtension>
          </gpxtpx:TrackPointExtension>
        </extensions>
      </trkpt>
			

      <trkpt lat="55.748287" lon="48.738979">
        <ele>193.8</ele>
        <extensions>
          <gpxtpx:TrackPointExtension>
          </gpxtpx:TrackPointExtension>
        </extensions>
      </trkpt>
			

      <trkpt lat="55.748208" lon="48.739372">
        <ele>194.7</ele>
        <extensions>
          <gpxtpx:TrackPointExtension>
          </gpxtpx:TrackPointExtension>
        </extensions>
      </trkpt>
			

      <trkpt lat="55.748302" lon="48.73986">
        <ele>195.4</ele>
        <extensions>
          <gpxtpx:TrackPointExtension>
          </gpxtpx:TrackPointExtension>
        </extensions>
      </trkpt>
			

      <trkpt lat="55.748495" lon="48.740261">
        <ele>195.8</ele>
        <extensions>
          <gpxtpx:TrackPointExtension>
          </gpxtpx:TrackPointExtension>
        </extensions>
      </trkpt>
			

      <trkpt lat="55.748734" lon="48.740352">
        <ele>195.6</ele>
        <extensions>
          <gpxtpx:TrackPointExtension>
          </gpxtpx:TrackPointExtension>
        </extensions>
      </trkpt>
			

      <trkpt lat="55.748909" lon="48.740436">
        <ele>195.3</ele>
        <extensions>
          <gpxtpx:TrackPointExtension>
          </gpxtpx:TrackPointExtension>
        </extensions>
      </trkpt>
			

      <trkpt lat="55.748861" lon="48.740607">
        <ele>195.8</ele>
        <extensions>
          <gpxtpx:TrackPointExtension>
          </gpxtpx:TrackPointExtension>
        </extensions>
      </trkpt>
			

      <trkpt lat="55.748803" lon="48.740752">
        <ele>196.3</ele>
        <extensions>
          <gpxtpx:TrackPointExtension>
          </gpxtpx:TrackPointExtension>
        </extensions>
      </trkpt>
			

      <trkpt lat="55.748728" lon="48.740755">
        <ele>196.4</ele>
        <extensions>
          <gpxtpx:TrackPointExtension>
          </gpxtpx:TrackPointExtension>
        </extensions>
      </trkpt>
			

      <trkpt lat="55.748397" lon="48.740316">
        <ele>196.1</ele>
        <extensions>
          <gpxtpx:TrackPointExtension>
          </gpxtpx:TrackPointExtension>
        </extensions>
      </trkpt>
			

      <trkpt lat="55.748058" lon="48.739919">
        <ele>195.9</ele>
        <extensions>
          <gpxtpx:TrackPointExtension>
          </gpxtpx:TrackPointExtension>
        </extensions>
      </trkpt>
			

      <trkpt lat="55.747743" lon="48.739442">
        <ele>195.7</ele>
        <extensions>
          <gpxtpx:TrackPointExtension>
          </gpxtpx:TrackPointExtension>
        </extensions>
      </trkpt>
			

      <trkpt lat="55.747287" lon="48.738805">
        <ele>195.9</ele>
        <extensions>
          <gpxtpx:TrackPointExtension>
          </gpxtpx:TrackPointExtension>
        </extensions>
      </trkpt>
			

      <trkpt lat="55.746756" lon="48.738036">
        <ele>196.3</ele>
        <extensions>
          <gpxtpx:TrackPointExtension>
          </gpxtpx:TrackPointExtension>
        </extensions>
      </trkpt>
			

      <trkpt lat="55.746351" lon="48.737536">
        <ele>196.9</ele>
        <extensions>
          <gpxtpx:TrackPointExtension>
          </gpxtpx:TrackPointExtension>
        </extensions>
      </trkpt>
			

      <trkpt lat="55.746047" lon="48.737032">
        <ele>197.4</ele>
        <extensions>
          <gpxtpx:TrackPointExtension>
          </gpxtpx:TrackPointExtension>
        </extensions>
      </trkpt>
			

      <trkpt lat="55.745916" lon="48.736777">
        <ele>197.6</ele>
        <extensions>
          <gpxtpx:TrackPointExtension>
          </gpxtpx:TrackPointExtension>
        </extensions>
      </trkpt>
			

      <trkpt lat="55.745414" lon="48.73588">
        <ele>198.4</ele>
        <extensions>
          <gpxtpx:TrackPointExtension>
          </gpxtpx:TrackPointExtension>
        </extensions>
      </trkpt>
			

      <trkpt lat="55.745324" lon="48.735752">
        <ele>198.5</ele>
        <extensions>
          <gpxtpx:TrackPointExtension>
          </gpxtpx:TrackPointExtension>
        </extensions>
      </trkpt>
			

      <trkpt lat="55.74495" lon="48.73509">
        <ele>198.7</ele>
        <extensions>
          <gpxtpx:TrackPointExtension>
          </gpxtpx:TrackPointExtension>
        </extensions>
      </trkpt>
			

      <trkpt lat="55.74465" lon="48.734545">
        <ele>198.9</ele>
        <extensions>
          <gpxtpx:TrackPointExtension>
          </gpxtpx:TrackPointExtension>
        </extensions>
      </trkpt>
			

      <trkpt lat="55.744239" lon="48.733699">
        <ele>198.9</ele>
        <extensions>
          <gpxtpx:TrackPointExtension>
          </gpxtpx:TrackPointExtension>
        </extensions>
      </trkpt>
			

      <trkpt lat="55.743902" lon="48.732979">
        <ele>198.9</ele>
        <extensions>
          <gpxtpx:TrackPointExtension>
          </gpxtpx:TrackPointExtension>
        </extensions>
      </trkpt>
			

      <trkpt lat="55.743534" lon="48.732181">
        <ele>198.9</ele>
        <extensions>
          <gpxtpx:TrackPointExtension>
          </gpxtpx:TrackPointExtension>
        </extensions>
      </trkpt>
			

      <trkpt lat="55.74322" lon="48.731411">
        <ele>198.3</ele>
        <extensions>
          <gpxtpx:TrackPointExtension>
          </gpxtpx:TrackPointExtension>
        </extensions>
      </trkpt>
			

      <trkpt lat="55.743018" lon="48.730914">
        <ele>197.8</ele>
        <extensions>
          <gpxtpx:TrackPointExtension>
          </gpxtpx:TrackPointExtension>
        </extensions>
      </trkpt>
			

      <trkpt lat="55.742924" lon="48.730664">
        <ele>197.5</ele>
        <extensions>
          <gpxtpx:TrackPointExtension>
          </gpxtpx:TrackPointExtension>
        </extensions>
      </trkpt>
			

      <trkpt lat="55.742997" lon="48.730729">
        <ele>197.5</ele>
        <extensions>
          <gpxtpx:TrackPointExtension>
          </gpxtpx:TrackPointExtension>
        </extensions>
      </trkpt>
			

      <trkpt lat="55.743265" lon="48.731438">
        <ele>198.3</ele>
        <extensions>
          <gpxtpx:TrackPointExtension>
          </gpxtpx:TrackPointExtension>
        </extensions>
      </trkpt>
			

      <trkpt lat="55.743685" lon="48.732417">
        <ele>198.9</ele>
        <extensions>
          <gpxtpx:TrackPointExtension>
          </gpxtpx:TrackPointExtension>
        </extensions>
      </trkpt>
			

      <trkpt lat="55.743902" lon="48.732923">
        <ele>198.9</ele>
        <extensions>
          <gpxtpx:TrackPointExtension>
          </gpxtpx:TrackPointExtension>
        </extensions>
      </trkpt>
			

      <trkpt lat="55.744116" lon="48.733409">
        <ele>198.8</ele>
        <extensions>
          <gpxtpx:TrackPointExtension>
          </gpxtpx:TrackPointExtension>
        </extensions>
      </trkpt>
			

      <trkpt lat="55.744607" lon="48.734354">
        <ele>198.8</ele>
        <extensions>
          <gpxtpx:TrackPointExtension>
          </gpxtpx:TrackPointExtension>
        </extensions>
      </trkpt>
			

      <trkpt lat="55.744651" lon="48.734447">
        <ele>198.8</ele>
        <extensions>
          <gpxtpx:TrackPointExtension>
          </gpxtpx:TrackPointExtension>
        </extensions>
      </trkpt>
			

      <trkpt lat="55.744882" lon="48.734886">
        <ele>198.7</ele>
        <extensions>
          <gpxtpx:TrackPointExtension>
          </gpxtpx:TrackPointExtension>
        </extensions>
      </trkpt>
			

      <trkpt lat="55.745369" lon="48.735748">
        <ele>198.4</ele>
        <extensions>
          <gpxtpx:TrackPointExtension>
          </gpxtpx:TrackPointExtension>
        </extensions>
      </trkpt>
			

      <trkpt lat="55.745773" lon="48.73645">
        <ele>197.9</ele>
        <extensions>
          <gpxtpx:TrackPointExtension>
          </gpxtpx:TrackPointExtension>
        </extensions>
      </trkpt>
			

      <trkpt lat="55.746055" lon="48.736989">
        <ele>197.4</ele>
        <extensions>
          <gpxtpx:TrackPointExtension>
          </gpxtpx:TrackPointExtension>
        </extensions>
      </trkpt>
			

      <trkpt lat="55.746375" lon="48.73752">
        <ele>196.9</ele>
        <extensions>
          <gpxtpx:TrackPointExtension>
          </gpxtpx:TrackPointExtension>
        </extensions>
      </trkpt>
			

      <trkpt lat="55.746721" lon="48.738008">
        <ele>196.4</ele>
        <extensions>
          <gpxtpx:TrackPointExtension>
          </gpxtpx:TrackPointExtension>
        </extensions>
      </trkpt>
			

      <trkpt lat="55.747004" lon="48.738444">
        <ele>196.1</ele>
        <extensions>
          <gpxtpx:TrackPointExtension>
          </gpxtpx:TrackPointExtension>
        </extensions>
      </trkpt>
			

      <trkpt lat="55.74737" lon="48.738983">
        <ele>196.0</ele>
        <extensions>
          <gpxtpx:TrackPointExtension>
          </gpxtpx:TrackPointExtension>
        </extensions>
      </trkpt>
			

      <trkpt lat="55.747649" lon="48.739371">
        <ele>195.8</ele>
        <extensions>
          <gpxtpx:TrackPointExtension>
          </gpxtpx:TrackPointExtension>
        </extensions>
      </trkpt>
			

      <trkpt lat="55.747838" lon="48.739644">
        <ele>195.8</ele>
        <extensions>
          <gpxtpx:TrackPointExtension>
          </gpxtpx:TrackPointExtension>
        </extensions>
      </trkpt>
			

      <trkpt lat="55.748101" lon="48.740004">
        <ele>195.9</ele>
        <extensions>
          <gpxtpx:TrackPointExtension>
          </gpxtpx:TrackPointExtension>
        </extensions>
      </trkpt>
			

      <trkpt lat="55.74837" lon="48.740337">
        <ele>196.1</ele>
        <extensions>
          <gpxtpx:TrackPointExtension>
          </gpxtpx:TrackPointExtension>
        </extensions>
      </trkpt>
			

      <trkpt lat="55.748735" lon="48.740767">
        <ele>196.5</ele>
        <extensions>
          <gpxtpx:TrackPointExtension>
          </gpxtpx:TrackPointExtension>
        </extensions>
      </trkpt>
			

      <trkpt lat="55.748978" lon="48.741018">
        <ele>196.2</ele>
        <extensions>
          <gpxtpx:TrackPointExtension>
          </gpxtpx:TrackPointExtension>
        </extensions>
      </trkpt>
			

      <trkpt lat="55.749261" lon="48.741382">
        <ele>195.9</ele>
        <extensions>
          <gpxtpx:TrackPointExtension>
          </gpxtpx:TrackPointExtension>
        </extensions>
      </trkpt>
			

      <trkpt lat="55.749469" lon="48.741605">
        <ele>195.8</ele>
        <extensions>
          <gpxtpx:TrackPointExtension>
          </gpxtpx:TrackPointExtension>
        </extensions>
      </trkpt>
			

      <trkpt lat="55.749467" lon="48.741581">
        <ele>195.7</ele>
        <extensions>
          <gpxtpx:TrackPointExtension>
          </gpxtpx:TrackPointExtension>
        </extensions>
      </trkpt>
			

      <trkpt lat="55.749956" lon="48.742088">
        <ele>195.7</ele>
        <extensions>
          <gpxtpx:TrackPointExtension>
          </gpxtpx:TrackPointExtension>
        </extensions>
      </trkpt>
			

      <trkpt lat="55.750367" lon="48.742547">
        <ele>196.1</ele>
        <extensions>
          <gpxtpx:TrackPointExtension>
          </gpxtpx:TrackPointExtension>
        </extensions>
      </trkpt>
			

      <trkpt lat="55.750836" lon="48.742962">
        <ele>196.3</ele>
        <extensions>
          <gpxtpx:TrackPointExtension>
          </gpxtpx:TrackPointExtension>
        </extensions>
      </trkpt>
			

      <trkpt lat="55.751134" lon="48.743231">
        <ele>196.4</ele>
        <extensions>
          <gpxtpx:TrackPointExtension>
          </gpxtpx:TrackPointExtension>
        </extensions>
      </trkpt>
			

      <trkpt lat="55.751561" lon="48.743662">
        <ele>196.6</ele>
        <extensions>
          <gpxtpx:TrackPointExtension>
          </gpxtpx:TrackPointExtension>
        </extensions>
      </trkpt>
			

      <trkpt lat="55.751856" lon="48.743555">
        <ele>195.7</ele>
        <extensions>
          <gpxtpx:TrackPointExtension>
          </gpxtpx:TrackPointExtension>
        </extensions>
      </trkpt>
			

      <trkpt lat="55.752121" lon="48.743304">
        <ele>195.0</ele>
        <extensions>
          <gpxtpx:TrackPointExtension>
          </gpxtpx:TrackPointExtension>
        </extensions>
      </trkpt>
			

      <trkpt lat="55.752305" lon="48.742573">
        <ele>193.2</ele>
        <extensions>
          <gpxtpx:TrackPointExtension>
          </gpxtpx:TrackPointExtension>
        </extensions>
      </trkpt>
			

      <trkpt lat="55.752565" lon="48.74149">
        <ele>190.4</ele>
        <extensions>
          <gpxtpx:TrackPointExtension>
          </gpxtpx:TrackPointExtension>
        </extensions>
      </trkpt>
			

      <trkpt lat="55.752572" lon="48.741401">
        <ele>190.2</ele>
        <extensions>
          <gpxtpx:TrackPointExtension>
          </gpxtpx:TrackPointExtension>
        </extensions>
      </trkpt>
			

      <trkpt lat="55.752539" lon="48.741425">
        <ele>190.2</ele>
        <extensions>
          <gpxtpx:TrackPointExtension>
          </gpxtpx:TrackPointExtension>
        </extensions>
      </trkpt>
			

      <trkpt lat="55.752743" lon="48.7402">
        <ele>187.6</ele>
        <extensions>
          <gpxtpx:TrackPointExtension>
          </gpxtpx:TrackPointExtension>
        </extensions>
      </trkpt>
			

      <trkpt lat="55.752791" lon="48.739876">
        <ele>187.0</ele>
        <extensions>
          <gpxtpx:TrackPointExtension>
          </gpxtpx:TrackPointExtension>
        </extensions>
      </trkpt>
			

      <trkpt lat="55.752865" lon="48.739435">
        <ele>186.3</ele>
        <extensions>
          <gpxtpx:TrackPointExtension>
          </gpxtpx:TrackPointExtension>
        </extensions>
      </trkpt>
			

      <trkpt lat="55.752947" lon="48.738867">
        <ele>185.5</ele>
        <extensions>
          <gpxtpx:TrackPointExtension>
          </gpxtpx:TrackPointExtension>
        </extensions>
      </trkpt>
			

      <trkpt lat="55.753149" lon="48.739001">
        <ele>185.6</ele>
        <extensions>
          <gpxtpx:TrackPointExtension>
          </gpxtpx:TrackPointExtension>
        </extensions>
      </trkpt>
			

      <trkpt lat="55.753354" lon="48.739081">
        <ele>185.7</ele>
        <extensions>
          <gpxtpx:TrackPointExtension>
          </gpxtpx:TrackPointExtension>
        </extensions>
      </trkpt>
			

      <trkpt lat="55.753311" lon="48.739427">
        <ele>186.1</ele>
        <extensions>
          <gpxtpx:TrackPointExtension>
          </gpxtpx:TrackPointExtension>
        </extensions>
      </trkpt>
			

      <trkpt lat="55.753537" lon="48.73955">
        <ele>186.3</ele>
        <extensions>
          <gpxtpx:TrackPointExtension>
          </gpxtpx:TrackPointExtension>
        </extensions>
      </trkpt>
			

      <trkpt lat="55.753792" lon="48.739652">
        <ele>186.7</ele>
        <extensions>
          <gpxtpx:TrackPointExtension>
          </gpxtpx:TrackPointExtension>
        </extensions>
      </trkpt>
			

      <trkpt lat="55.75404" lon="48.739776">
        <ele>187.1</ele>
        <extensions>
          <gpxtpx:TrackPointExtension>
          </gpxtpx:TrackPointExtension>
        </extensions>
      </trkpt>
			

      <trkpt lat="55.754282" lon="48.739886">
        <ele>187.4</ele>
        <extensions>
          <gpxtpx:TrackPointExtension>
          </gpxtpx:TrackPointExtension>
        </extensions>
      </trkpt>
			

      <trkpt lat="55.754523" lon="48.739983">
        <ele>187.8</ele>
        <extensions>
          <gpxtpx:TrackPointExtension>
          </gpxtpx:TrackPointExtension>
        </extensions>
      </trkpt>
			

      <trkpt lat="55.754434" lon="48.740508">
        <ele>188.3</ele>
        <extensions>
          <gpxtpx:TrackPointExtension>
          </gpxtpx:TrackPointExtension>
        </extensions>
      </trkpt>
			

      <trkpt lat="55.754405" lon="48.740564">
        <ele>188.3</ele>
        <extensions>
          <gpxtpx:TrackPointExtension>
          </gpxtpx:TrackPointExtension>
        </extensions>
      </trkpt>
			

      <trkpt lat="55.754049" lon="48.740378">
        <ele>187.7</ele>
        <extensions>
          <gpxtpx:TrackPointExtension>
          </gpxtpx:TrackPointExtension>
        </extensions>
      </trkpt>
			

      <trkpt lat="55.753852" lon="48.740334">
        <ele>187.5</ele>
        <extensions>
          <gpxtpx:TrackPointExtension>
          </gpxtpx:TrackPointExtension>
        </extensions>
      </trkpt>
			

      <trkpt lat="55.753422" lon="48.740122">
        <ele>186.8</ele>
        <extensions>
          <gpxtpx:TrackPointExtension>
          </gpxtpx:TrackPointExtension>
        </extensions>
      </trkpt>
			

      <trkpt lat="55.753274" lon="48.740057">
        <ele>186.9</ele>
        <extensions>
          <gpxtpx:TrackPointExtension>
          </gpxtpx:TrackPointExtension>
        </extensions>
      </trkpt>
			

      <trkpt lat="55.753191" lon="48.740401">
        <ele>187.3</ele>
        <extensions>
          <gpxtpx:TrackPointExtension>
          </gpxtpx:TrackPointExtension>
        </extensions>
      </trkpt>
			

      <trkpt lat="55.753165" lon="48.740629">
        <ele>187.7</ele>
        <extensions>
          <gpxtpx:TrackPointExtension>
          </gpxtpx:TrackPointExtension>
        </extensions>
      </trkpt>
			

      <trkpt lat="55.753437" lon="48.740803">
        <ele>187.6</ele>
        <extensions>
          <gpxtpx:TrackPointExtension>
          </gpxtpx:TrackPointExtension>
        </extensions>
      </trkpt>
			

      <trkpt lat="55.753655" lon="48.74087">
        <ele>187.9</ele>
        <extensions>
          <gpxtpx:TrackPointExtension>
          </gpxtpx:TrackPointExtension>
        </extensions>
      </trkpt>
			

      <trkpt lat="55.753953" lon="48.740981">
        <ele>188.5</ele>
        <extensions>
          <gpxtpx:TrackPointExtension>
          </gpxtpx:TrackPointExtension>
        </extensions>
      </trkpt>
			

      <trkpt lat="55.754132" lon="48.74108">
        <ele>188.9</ele>
        <extensions>
          <gpxtpx:TrackPointExtension>
          </gpxtpx:TrackPointExtension>
        </extensions>
      </trkpt>
			

      <trkpt lat="55.754319" lon="48.741188">
        <ele>189.4</ele>
        <extensions>
          <gpxtpx:TrackPointExtension>
          </gpxtpx:TrackPointExtension>
        </extensions>
      </trkpt>
			

      <trkpt lat="55.754237" lon="48.741713">
        <ele>190.6</ele>
        <extensions>
          <gpxtpx:TrackPointExtension>
          </gpxtpx:TrackPointExtension>
        </extensions>
      </trkpt>
			

      <trkpt lat="55.753633" lon="48.741476">
        <ele>189.5</ele>
        <extensions>
          <gpxtpx:TrackPointExtension>
          </gpxtpx:TrackPointExtension>
        </extensions>
      </trkpt>
			
</trkseg></trk>
</gpx>