<?xml version="1.0" encoding="UTF-8"?>
		<gpx xmlns:xsi="http://www.w3.org/2001/XMLSchema-instance" xmlns="http://www.topografix.com/GPX/1/1" xsi:schemaLocation="http://www.topografix.com/GPX/1/1 http://www.topografix.com/GPX/1/1/gpx.xsd http://www.garmin.com/xmlschemas/GpxExtensions/v3 http://www.garmin.com/xmlschemas/GpxExtensionsv3.xsd http://www.garmin.com/xmlschemas/TrackPointExtension/v1 http://www.garmin.com/xmlschemas/TrackPointExtensionv1.xsd" xmlns:gpxtpx="http://www.garmin.com/xmlschemas/TrackPointExtension/v1" xmlns:gpxx="http://www.garmin.com/xmlschemas/GpxExtensions/v3" version="1.1">

	<metadata>
    <name>0A-1A.3_1A-2A.1_2A-3A.3_3A-4A.3_4A-FA.1</name>
    <author>Strava Mobile</author>
    <type>Running</type>
	</metadata>
	
<trk><trkseg>

      <trkpt lat="55.753473" lon="48.74142">
        <ele>189.2</ele>
        <extensions>
          <gpxtpx:TrackPointExtension>
          </gpxtpx:TrackPointExtension>
        </extensions>
      </trkpt>
			

      <trkpt lat="55.753099" lon="48.74123">
        <ele>189.1</ele>
        <extensions>
          <gpxtpx:TrackPointExtension>
          </gpxtpx:TrackPointExtension>
        </extensions>
      </trkpt>
			

      <trkpt lat="55.752985" lon="48.741787">
        <ele>190.6</ele>
        <extensions>
          <gpxtpx:TrackPointExtension>
          </gpxtpx:TrackPointExtension>
        </extensions>
      </trkpt>
			

      <trkpt lat="55.752945" lon="48.742187">
        <ele>191.7</ele>
        <extensions>
          <gpxtpx:TrackPointExtension>
          </gpxtpx:TrackPointExtension>
        </extensions>
      </trkpt>
			

      <trkpt lat="55.752835" lon="48.742772">
        <ele>193.3</ele>
        <extensions>
          <gpxtpx:TrackPointExtension>
          </gpxtpx:TrackPointExtension>
        </extensions>
      </trkpt>
			

      <trkpt lat="55.75271" lon="48.743102">
        <ele>194.2</ele>
        <extensions>
          <gpxtpx:TrackPointExtension>
          </gpxtpx:TrackPointExtension>
        </extensions>
      </trkpt>
			

      <trkpt lat="55.752592" lon="48.743858">
        <ele>196.4</ele>
        <extensions>
          <gpxtpx:TrackPointExtension>
          </gpxtpx:TrackPointExtension>
        </extensions>
      </trkpt>
			

      <trkpt lat="55.75272" lon="48.744344">
        <ele>198.1</ele>
        <extensions>
          <gpxtpx:TrackPointExtension>
          </gpxtpx:TrackPointExtension>
        </extensions>
      </trkpt>
			

      <trkpt lat="55.753111" lon="48.744676">
        <ele>198.9</ele>
        <extensions>
          <gpxtpx:TrackPointExtension>
          </gpxtpx:TrackPointExtension>
        </extensions>
      </trkpt>
			

      <trkpt lat="55.753465" lon="48.74495">
        <ele>199.7</ele>
        <extensions>
          <gpxtpx:TrackPointExtension>
          </gpxtpx:TrackPointExtension>
        </extensions>
      </trkpt>
			

      <trkpt lat="55.753932" lon="48.745214">
        <ele>201.1</ele>
        <extensions>
          <gpxtpx:TrackPointExtension>
          </gpxtpx:TrackPointExtension>
        </extensions>
      </trkpt>
			

      <trkpt lat="55.754307" lon="48.745455">
        <ele>202.4</ele>
        <extensions>
          <gpxtpx:TrackPointExtension>
          </gpxtpx:TrackPointExtension>
        </extensions>
      </trkpt>
			

      <trkpt lat="55.754596" lon="48.745653">
        <ele>203.5</ele>
        <extensions>
          <gpxtpx:TrackPointExtension>
          </gpxtpx:TrackPointExtension>
        </extensions>
      </trkpt>
			

      <trkpt lat="55.75492" lon="48.745777">
        <ele>204.5</ele>
        <extensions>
          <gpxtpx:TrackPointExtension>
          </gpxtpx:TrackPointExtension>
        </extensions>
      </trkpt>
			

      <trkpt lat="55.755243" lon="48.745926">
        <ele>205.0</ele>
        <extensions>
          <gpxtpx:TrackPointExtension>
          </gpxtpx:TrackPointExtension>
        </extensions>
      </trkpt>
			

      <trkpt lat="55.755627" lon="48.74595">
        <ele>205.0</ele>
        <extensions>
          <gpxtpx:TrackPointExtension>
          </gpxtpx:TrackPointExtension>
        </extensions>
      </trkpt>
			

      <trkpt lat="55.755959" lon="48.746061">
        <ele>205.3</ele>
        <extensions>
          <gpxtpx:TrackPointExtension>
          </gpxtpx:TrackPointExtension>
        </extensions>
      </trkpt>
			

      <trkpt lat="55.756324" lon="48.746095">
        <ele>205.3</ele>
        <extensions>
          <gpxtpx:TrackPointExtension>
          </gpxtpx:TrackPointExtension>
        </extensions>
      </trkpt>
			

      <trkpt lat="55.756619" lon="48.746103">
        <ele>204.8</ele>
        <extensions>
          <gpxtpx:TrackPointExtension>
          </gpxtpx:TrackPointExtension>
        </extensions>
      </trkpt>
			

      <trkpt lat="55.75693" lon="48.746015">
        <ele>203.2</ele>
        <extensions>
          <gpxtpx:TrackPointExtension>
          </gpxtpx:TrackPointExtension>
        </extensions>
      </trkpt>
			

      <trkpt lat="55.757021" lon="48.745985">
        <ele>202.7</ele>
        <extensions>
          <gpxtpx:TrackPointExtension>
          </gpxtpx:TrackPointExtension>
        </extensions>
      </trkpt>
			

      <trkpt lat="55.757033" lon="48.746024">
        <ele>202.9</ele>
        <extensions>
          <gpxtpx:TrackPointExtension>
          </gpxtpx:TrackPointExtension>
        </extensions>
      </trkpt>
			

      <trkpt lat="55.756616" lon="48.746076">
        <ele>204.7</ele>
        <extensions>
          <gpxtpx:TrackPointExtension>
          </gpxtpx:TrackPointExtension>
        </extensions>
      </trkpt>
			

      <trkpt lat="55.75591" lon="48.745997">
        <ele>205.1</ele>
        <extensions>
          <gpxtpx:TrackPointExtension>
          </gpxtpx:TrackPointExtension>
        </extensions>
      </trkpt>
			

      <trkpt lat="55.75559" lon="48.745981">
        <ele>205.1</ele>
        <extensions>
          <gpxtpx:TrackPointExtension>
          </gpxtpx:TrackPointExtension>
        </extensions>
      </trkpt>
			

      <trkpt lat="55.754921" lon="48.74583">
        <ele>204.7</ele>
        <extensions>
          <gpxtpx:TrackPointExtension>
          </gpxtpx:TrackPointExtension>
        </extensions>
      </trkpt>
			

      <trkpt lat="55.754286" lon="48.745427">
        <ele>202.3</ele>
        <extensions>
          <gpxtpx:TrackPointExtension>
          </gpxtpx:TrackPointExtension>
        </extensions>
      </trkpt>
			

      <trkpt lat="55.753776" lon="48.74517">
        <ele>200.7</ele>
        <extensions>
          <gpxtpx:TrackPointExtension>
          </gpxtpx:TrackPointExtension>
        </extensions>
      </trkpt>
			

      <trkpt lat="55.753244" lon="48.744817">
        <ele>199.4</ele>
        <extensions>
          <gpxtpx:TrackPointExtension>
          </gpxtpx:TrackPointExtension>
        </extensions>
      </trkpt>
			

      <trkpt lat="55.752801" lon="48.744556">
        <ele>198.8</ele>
        <extensions>
          <gpxtpx:TrackPointExtension>
          </gpxtpx:TrackPointExtension>
        </extensions>
      </trkpt>
			

      <trkpt lat="55.752646" lon="48.7442">
        <ele>197.7</ele>
        <extensions>
          <gpxtpx:TrackPointExtension>
          </gpxtpx:TrackPointExtension>
        </extensions>
      </trkpt>
			

      <trkpt lat="55.752586" lon="48.743953">
        <ele>196.8</ele>
        <extensions>
          <gpxtpx:TrackPointExtension>
          </gpxtpx:TrackPointExtension>
        </extensions>
      </trkpt>
			

      <trkpt lat="55.752492" lon="48.743898">
        <ele>196.6</ele>
        <extensions>
          <gpxtpx:TrackPointExtension>
          </gpxtpx:TrackPointExtension>
        </extensions>
      </trkpt>
			

      <trkpt lat="55.752481" lon="48.744162">
        <ele>197.6</ele>
        <extensions>
          <gpxtpx:TrackPointExtension>
          </gpxtpx:TrackPointExtension>
        </extensions>
      </trkpt>
			

      <trkpt lat="55.75211" lon="48.744491">
        <ele>199.1</ele>
        <extensions>
          <gpxtpx:TrackPointExtension>
          </gpxtpx:TrackPointExtension>
        </extensions>
      </trkpt>
			

      <trkpt lat="55.751913" lon="48.743749">
        <ele>196.4</ele>
        <extensions>
          <gpxtpx:TrackPointExtension>
          </gpxtpx:TrackPointExtension>
        </extensions>
      </trkpt>
			

      <trkpt lat="55.751812" lon="48.743824">
        <ele>196.8</ele>
        <extensions>
          <gpxtpx:TrackPointExtension>
          </gpxtpx:TrackPointExtension>
        </extensions>
      </trkpt>
			

      <trkpt lat="55.75173" lon="48.743869">
        <ele>197.1</ele>
        <extensions>
          <gpxtpx:TrackPointExtension>
          </gpxtpx:TrackPointExtension>
        </extensions>
      </trkpt>
			

      <trkpt lat="55.751695" lon="48.743728">
        <ele>196.7</ele>
        <extensions>
          <gpxtpx:TrackPointExtension>
          </gpxtpx:TrackPointExtension>
        </extensions>
      </trkpt>
			

      <trkpt lat="55.751638" lon="48.743705">
        <ele>196.6</ele>
        <extensions>
          <gpxtpx:TrackPointExtension>
          </gpxtpx:TrackPointExtension>
        </extensions>
      </trkpt>
			

      <trkpt lat="55.751473" lon="48.743508">
        <ele>196.4</ele>
        <extensions>
          <gpxtpx:TrackPointExtension>
          </gpxtpx:TrackPointExtension>
        </extensions>
      </trkpt>
			

      <trkpt lat="55.751117" lon="48.743255">
        <ele>196.4</ele>
        <extensions>
          <gpxtpx:TrackPointExtension>
          </gpxtpx:TrackPointExtension>
        </extensions>
      </trkpt>
			

      <trkpt lat="55.750913" lon="48.743021">
        <ele>196.3</ele>
        <extensions>
          <gpxtpx:TrackPointExtension>
          </gpxtpx:TrackPointExtension>
        </extensions>
      </trkpt>
			

      <trkpt lat="55.750554" lon="48.742748">
        <ele>196.2</ele>
        <extensions>
          <gpxtpx:TrackPointExtension>
          </gpxtpx:TrackPointExtension>
        </extensions>
      </trkpt>
			

      <trkpt lat="55.750207" lon="48.742386">
        <ele>195.9</ele>
        <extensions>
          <gpxtpx:TrackPointExtension>
          </gpxtpx:TrackPointExtension>
        </extensions>
      </trkpt>
			

      <trkpt lat="55.74998" lon="48.742115">
        <ele>195.7</ele>
        <extensions>
          <gpxtpx:TrackPointExtension>
          </gpxtpx:TrackPointExtension>
        </extensions>
      </trkpt>
			

      <trkpt lat="55.749994" lon="48.742155">
        <ele>195.8</ele>
        <extensions>
          <gpxtpx:TrackPointExtension>
          </gpxtpx:TrackPointExtension>
        </extensions>
      </trkpt>
			

      <trkpt lat="55.749389" lon="48.741493">
        <ele>195.8</ele>
        <extensions>
          <gpxtpx:TrackPointExtension>
          </gpxtpx:TrackPointExtension>
        </extensions>
      </trkpt>
			

      <trkpt lat="55.749269" lon="48.741367">
        <ele>195.9</ele>
        <extensions>
          <gpxtpx:TrackPointExtension>
          </gpxtpx:TrackPointExtension>
        </extensions>
      </trkpt>
			

      <trkpt lat="55.748836" lon="48.740838">
        <ele>196.3</ele>
        <extensions>
          <gpxtpx:TrackPointExtension>
          </gpxtpx:TrackPointExtension>
        </extensions>
      </trkpt>
			

      <trkpt lat="55.748468" lon="48.740449">
        <ele>196.2</ele>
        <extensions>
          <gpxtpx:TrackPointExtension>
          </gpxtpx:TrackPointExtension>
        </extensions>
      </trkpt>
			

      <trkpt lat="55.748202" lon="48.740074">
        <ele>195.9</ele>
        <extensions>
          <gpxtpx:TrackPointExtension>
          </gpxtpx:TrackPointExtension>
        </extensions>
      </trkpt>
			

      <trkpt lat="55.747828" lon="48.739644">
        <ele>195.9</ele>
        <extensions>
          <gpxtpx:TrackPointExtension>
          </gpxtpx:TrackPointExtension>
        </extensions>
      </trkpt>
			

      <trkpt lat="55.747294" lon="48.738889">
        <ele>196.0</ele>
        <extensions>
          <gpxtpx:TrackPointExtension>
          </gpxtpx:TrackPointExtension>
        </extensions>
      </trkpt>
			

      <trkpt lat="55.746757" lon="48.738068">
        <ele>196.4</ele>
        <extensions>
          <gpxtpx:TrackPointExtension>
          </gpxtpx:TrackPointExtension>
        </extensions>
      </trkpt>
			

      <trkpt lat="55.746656" lon="48.737955">
        <ele>196.5</ele>
        <extensions>
          <gpxtpx:TrackPointExtension>
          </gpxtpx:TrackPointExtension>
        </extensions>
      </trkpt>
			

      <trkpt lat="55.746131" lon="48.737092">
        <ele>197.2</ele>
        <extensions>
          <gpxtpx:TrackPointExtension>
          </gpxtpx:TrackPointExtension>
        </extensions>
      </trkpt>
			

      <trkpt lat="55.746043" lon="48.73697">
        <ele>197.4</ele>
        <extensions>
          <gpxtpx:TrackPointExtension>
          </gpxtpx:TrackPointExtension>
        </extensions>
      </trkpt>
			

      <trkpt lat="55.745899" lon="48.736733">
        <ele>197.6</ele>
        <extensions>
          <gpxtpx:TrackPointExtension>
          </gpxtpx:TrackPointExtension>
        </extensions>
      </trkpt>
			

      <trkpt lat="55.745415" lon="48.735869">
        <ele>198.3</ele>
        <extensions>
          <gpxtpx:TrackPointExtension>
          </gpxtpx:TrackPointExtension>
        </extensions>
      </trkpt>
			

      <trkpt lat="55.745038" lon="48.735216">
        <ele>198.7</ele>
        <extensions>
          <gpxtpx:TrackPointExtension>
          </gpxtpx:TrackPointExtension>
        </extensions>
      </trkpt>
			

      <trkpt lat="55.7447" lon="48.73456">
        <ele>198.8</ele>
        <extensions>
          <gpxtpx:TrackPointExtension>
          </gpxtpx:TrackPointExtension>
        </extensions>
      </trkpt>
			

      <trkpt lat="55.744392" lon="48.733914">
        <ele>198.8</ele>
        <extensions>
          <gpxtpx:TrackPointExtension>
          </gpxtpx:TrackPointExtension>
        </extensions>
      </trkpt>
			

      <trkpt lat="55.743952" lon="48.733062">
        <ele>198.9</ele>
        <extensions>
          <gpxtpx:TrackPointExtension>
          </gpxtpx:TrackPointExtension>
        </extensions>
      </trkpt>
			

      <trkpt lat="55.743528" lon="48.732097">
        <ele>198.8</ele>
        <extensions>
          <gpxtpx:TrackPointExtension>
          </gpxtpx:TrackPointExtension>
        </extensions>
      </trkpt>
			

      <trkpt lat="55.743291" lon="48.731528">
        <ele>198.4</ele>
        <extensions>
          <gpxtpx:TrackPointExtension>
          </gpxtpx:TrackPointExtension>
        </extensions>
      </trkpt>
			

      <trkpt lat="55.743114" lon="48.731103">
        <ele>198.0</ele>
        <extensions>
          <gpxtpx:TrackPointExtension>
          </gpxtpx:TrackPointExtension>
        </extensions>
      </trkpt>
			

      <trkpt lat="55.743003" lon="48.730842">
        <ele>197.7</ele>
        <extensions>
          <gpxtpx:TrackPointExtension>
          </gpxtpx:TrackPointExtension>
        </extensions>
      </trkpt>
			

      <trkpt lat="55.742979" lon="48.730753">
        <ele>197.6</ele>
        <extensions>
          <gpxtpx:TrackPointExtension>
          </gpxtpx:TrackPointExtension>
        </extensions>
      </trkpt>
			

      <trkpt lat="55.743015" lon="48.730798">
        <ele>197.6</ele>
        <extensions>
          <gpxtpx:TrackPointExtension>
          </gpxtpx:TrackPointExtension>
        </extensions>
      </trkpt>
			

      <trkpt lat="55.743206" lon="48.731313">
        <ele>198.2</ele>
        <extensions>
          <gpxtpx:TrackPointExtension>
          </gpxtpx:TrackPointExtension>
        </extensions>
      </trkpt>
			

      <trkpt lat="55.743637" lon="48.73231">
        <ele>198.8</ele>
        <extensions>
          <gpxtpx:TrackPointExtension>
          </gpxtpx:TrackPointExtension>
        </extensions>
      </trkpt>
			

      <trkpt lat="55.743732" lon="48.732542">
        <ele>198.9</ele>
        <extensions>
          <gpxtpx:TrackPointExtension>
          </gpxtpx:TrackPointExtension>
        </extensions>
      </trkpt>
			

      <trkpt lat="55.744186" lon="48.73353">
        <ele>198.8</ele>
        <extensions>
          <gpxtpx:TrackPointExtension>
          </gpxtpx:TrackPointExtension>
        </extensions>
      </trkpt>
			

      <trkpt lat="55.74426" lon="48.733699">
        <ele>198.8</ele>
        <extensions>
          <gpxtpx:TrackPointExtension>
          </gpxtpx:TrackPointExtension>
        </extensions>
      </trkpt>
			

      <trkpt lat="55.744765" lon="48.734615">
        <ele>198.8</ele>
        <extensions>
          <gpxtpx:TrackPointExtension>
          </gpxtpx:TrackPointExtension>
        </extensions>
      </trkpt>
			

      <trkpt lat="55.744836" lon="48.734733">
        <ele>198.7</ele>
        <extensions>
          <gpxtpx:TrackPointExtension>
          </gpxtpx:TrackPointExtension>
        </extensions>
      </trkpt>
			

      <trkpt lat="55.745094" lon="48.735255">
        <ele>198.6</ele>
        <extensions>
          <gpxtpx:TrackPointExtension>
          </gpxtpx:TrackPointExtension>
        </extensions>
      </trkpt>
			

      <trkpt lat="55.74562" lon="48.736143">
        <ele>198.1</ele>
        <extensions>
          <gpxtpx:TrackPointExtension>
          </gpxtpx:TrackPointExtension>
        </extensions>
      </trkpt>
			

      <trkpt lat="55.745662" lon="48.736242">
        <ele>198.1</ele>
        <extensions>
          <gpxtpx:TrackPointExtension>
          </gpxtpx:TrackPointExtension>
        </extensions>
      </trkpt>
			

      <trkpt lat="55.746156" lon="48.737187">
        <ele>197.2</ele>
        <extensions>
          <gpxtpx:TrackPointExtension>
          </gpxtpx:TrackPointExtension>
        </extensions>
      </trkpt>
			

      <trkpt lat="55.746151" lon="48.73719">
        <ele>197.2</ele>
        <extensions>
          <gpxtpx:TrackPointExtension>
          </gpxtpx:TrackPointExtension>
        </extensions>
      </trkpt>
			

      <trkpt lat="55.746558" lon="48.737796">
        <ele>196.6</ele>
        <extensions>
          <gpxtpx:TrackPointExtension>
          </gpxtpx:TrackPointExtension>
        </extensions>
      </trkpt>
			

      <trkpt lat="55.747056" lon="48.738436">
        <ele>196.0</ele>
        <extensions>
          <gpxtpx:TrackPointExtension>
          </gpxtpx:TrackPointExtension>
        </extensions>
      </trkpt>
			

      <trkpt lat="55.747604" lon="48.739268">
        <ele>195.8</ele>
        <extensions>
          <gpxtpx:TrackPointExtension>
          </gpxtpx:TrackPointExtension>
        </extensions>
      </trkpt>
			

      <trkpt lat="55.747672" lon="48.739371">
        <ele>195.8</ele>
        <extensions>
          <gpxtpx:TrackPointExtension>
          </gpxtpx:TrackPointExtension>
        </extensions>
      </trkpt>
			

      <trkpt lat="55.747935" lon="48.739678">
        <ele>195.8</ele>
        <extensions>
          <gpxtpx:TrackPointExtension>
          </gpxtpx:TrackPointExtension>
        </extensions>
      </trkpt>
			

      <trkpt lat="55.747783" lon="48.740098">
        <ele>196.6</ele>
        <extensions>
          <gpxtpx:TrackPointExtension>
          </gpxtpx:TrackPointExtension>
        </extensions>
      </trkpt>
			

      <trkpt lat="55.747654" lon="48.740531">
        <ele>197.4</ele>
        <extensions>
          <gpxtpx:TrackPointExtension>
          </gpxtpx:TrackPointExtension>
        </extensions>
      </trkpt>
			

      <trkpt lat="55.747478" lon="48.741056">
        <ele>198.2</ele>
        <extensions>
          <gpxtpx:TrackPointExtension>
          </gpxtpx:TrackPointExtension>
        </extensions>
      </trkpt>
			

      <trkpt lat="55.747325" lon="48.741506">
        <ele>198.5</ele>
        <extensions>
          <gpxtpx:TrackPointExtension>
          </gpxtpx:TrackPointExtension>
        </extensions>
      </trkpt>
			

      <trkpt lat="55.747209" lon="48.741796">
        <ele>198.7</ele>
        <extensions>
          <gpxtpx:TrackPointExtension>
          </gpxtpx:TrackPointExtension>
        </extensions>
      </trkpt>
			

      <trkpt lat="55.747103" lon="48.742117">
        <ele>199.0</ele>
        <extensions>
          <gpxtpx:TrackPointExtension>
          </gpxtpx:TrackPointExtension>
        </extensions>
      </trkpt>
			

      <trkpt lat="55.747075" lon="48.742249">
        <ele>199.0</ele>
        <extensions>
          <gpxtpx:TrackPointExtension>
          </gpxtpx:TrackPointExtension>
        </extensions>
      </trkpt>
			

      <trkpt lat="55.747402" lon="48.742549">
        <ele>198.9</ele>
        <extensions>
          <gpxtpx:TrackPointExtension>
          </gpxtpx:TrackPointExtension>
        </extensions>
      </trkpt>
			

      <trkpt lat="55.747717" lon="48.742829">
        <ele>199.0</ele>
        <extensions>
          <gpxtpx:TrackPointExtension>
          </gpxtpx:TrackPointExtension>
        </extensions>
      </trkpt>
			

      <trkpt lat="55.747888" lon="48.74299">
        <ele>199.0</ele>
        <extensions>
          <gpxtpx:TrackPointExtension>
          </gpxtpx:TrackPointExtension>
        </extensions>
      </trkpt>
			

      <trkpt lat="55.748113" lon="48.743226">
        <ele>199.2</ele>
        <extensions>
          <gpxtpx:TrackPointExtension>
          </gpxtpx:TrackPointExtension>
        </extensions>
      </trkpt>
			

      <trkpt lat="55.748279" lon="48.743332">
        <ele>199.2</ele>
        <extensions>
          <gpxtpx:TrackPointExtension>
          </gpxtpx:TrackPointExtension>
        </extensions>
      </trkpt>
			

      <trkpt lat="55.748417" lon="48.742923">
        <ele>198.9</ele>
        <extensions>
          <gpxtpx:TrackPointExtension>
          </gpxtpx:TrackPointExtension>
        </extensions>
      </trkpt>
			

      <trkpt lat="55.748451" lon="48.74278">
        <ele>198.7</ele>
        <extensions>
          <gpxtpx:TrackPointExtension>
          </gpxtpx:TrackPointExtension>
        </extensions>
      </trkpt>
			

      <trkpt lat="55.748515" lon="48.742656">
        <ele>198.6</ele>
        <extensions>
          <gpxtpx:TrackPointExtension>
          </gpxtpx:TrackPointExtension>
        </extensions>
      </trkpt>
			

      <trkpt lat="55.748651" lon="48.742746">
        <ele>198.6</ele>
        <extensions>
          <gpxtpx:TrackPointExtension>
          </gpxtpx:TrackPointExtension>
        </extensions>
      </trkpt>
			

      <trkpt lat="55.748742" lon="48.742827">
        <ele>198.7</ele>
        <extensions>
          <gpxtpx:TrackPointExtension>
          </gpxtpx:TrackPointExtension>
        </extensions>
      </trkpt>
			

      <trkpt lat="55.748833" lon="48.742706">
        <ele>198.5</ele>
        <extensions>
          <gpxtpx:TrackPointExtension>
          </gpxtpx:TrackPointExtension>
        </extensions>
      </trkpt>
			

      <trkpt lat="55.749094" lon="48.742962">
        <ele>198.5</ele>
        <extensions>
          <gpxtpx:TrackPointExtension>
          </gpxtpx:TrackPointExtension>
        </extensions>
      </trkpt>
			

      <trkpt lat="55.749224" lon="48.743087">
        <ele>198.5</ele>
        <extensions>
          <gpxtpx:TrackPointExtension>
          </gpxtpx:TrackPointExtension>
        </extensions>
      </trkpt>
			

      <trkpt lat="55.749353" lon="48.743089">
        <ele>198.4</ele>
        <extensions>
          <gpxtpx:TrackPointExtension>
          </gpxtpx:TrackPointExtension>
        </extensions>
      </trkpt>
			

      <trkpt lat="55.749436" lon="48.74282">
        <ele>197.9</ele>
        <extensions>
          <gpxtpx:TrackPointExtension>
          </gpxtpx:TrackPointExtension>
        </extensions>
      </trkpt>
			

      <trkpt lat="55.749515" lon="48.742623">
        <ele>197.5</ele>
        <extensions>
          <gpxtpx:TrackPointExtension>
          </gpxtpx:TrackPointExtension>
        </extensions>
      </trkpt>
			

      <trkpt lat="55.749352" lon="48.742464">
        <ele>197.4</ele>
        <extensions>
          <gpxtpx:TrackPointExtension>
          </gpxtpx:TrackPointExtension>
        </extensions>
      </trkpt>
			

      <trkpt lat="55.749243" lon="48.742348">
        <ele>197.4</ele>
        <extensions>
          <gpxtpx:TrackPointExtension>
          </gpxtpx:TrackPointExtension>
        </extensions>
      </trkpt>
			

      <trkpt lat="55.749238" lon="48.742257">
        <ele>197.3</ele>
        <extensions>
          <gpxtpx:TrackPointExtension>
          </gpxtpx:TrackPointExtension>
        </extensions>
      </trkpt>
			

      <trkpt lat="55.749269" lon="48.742137">
        <ele>197.1</ele>
        <extensions>
          <gpxtpx:TrackPointExtension>
          </gpxtpx:TrackPointExtension>
        </extensions>
      </trkpt>
			

      <trkpt lat="55.749215" lon="48.742066">
        <ele>197.0</ele>
        <extensions>
          <gpxtpx:TrackPointExtension>
          </gpxtpx:TrackPointExtension>
        </extensions>
      </trkpt>
			

      <trkpt lat="55.749167" lon="48.742015">
        <ele>197.1</ele>
        <extensions>
          <gpxtpx:TrackPointExtension>
          </gpxtpx:TrackPointExtension>
        </extensions>
      </trkpt>
			

      <trkpt lat="55.749202" lon="48.741892">
        <ele>196.8</ele>
        <extensions>
          <gpxtpx:TrackPointExtension>
          </gpxtpx:TrackPointExtension>
        </extensions>
      </trkpt>
			

      <trkpt lat="55.749248" lon="48.741793">
        <ele>196.6</ele>
        <extensions>
          <gpxtpx:TrackPointExtension>
          </gpxtpx:TrackPointExtension>
        </extensions>
      </trkpt>
			

      <trkpt lat="55.749268" lon="48.741694">
        <ele>196.4</ele>
        <extensions>
          <gpxtpx:TrackPointExtension>
          </gpxtpx:TrackPointExtension>
        </extensions>
      </trkpt>
			

      <trkpt lat="55.749365" lon="48.741718">
        <ele>196.2</ele>
        <extensions>
          <gpxtpx:TrackPointExtension>
          </gpxtpx:TrackPointExtension>
        </extensions>
      </trkpt>
			

      <trkpt lat="55.749437" lon="48.741659">
        <ele>196.0</ele>
        <extensions>
          <gpxtpx:TrackPointExtension>
          </gpxtpx:TrackPointExtension>
        </extensions>
      </trkpt>
			

      <trkpt lat="55.749476" lon="48.741612">
        <ele>195.8</ele>
        <extensions>
          <gpxtpx:TrackPointExtension>
          </gpxtpx:TrackPointExtension>
        </extensions>
      </trkpt>
			

      <trkpt lat="55.749459" lon="48.741568">
        <ele>195.7</ele>
        <extensions>
          <gpxtpx:TrackPointExtension>
          </gpxtpx:TrackPointExtension>
        </extensions>
      </trkpt>
			

      <trkpt lat="55.75007" lon="48.742206">
        <ele>195.8</ele>
        <extensions>
          <gpxtpx:TrackPointExtension>
          </gpxtpx:TrackPointExtension>
        </extensions>
      </trkpt>
			

      <trkpt lat="55.750334" lon="48.742463">
        <ele>196.0</ele>
        <extensions>
          <gpxtpx:TrackPointExtension>
          </gpxtpx:TrackPointExtension>
        </extensions>
      </trkpt>
			

      <trkpt lat="55.750607" lon="48.742694">
        <ele>196.0</ele>
        <extensions>
          <gpxtpx:TrackPointExtension>
          </gpxtpx:TrackPointExtension>
        </extensions>
      </trkpt>
			

      <trkpt lat="55.750811" lon="48.742399">
        <ele>195.0</ele>
        <extensions>
          <gpxtpx:TrackPointExtension>
          </gpxtpx:TrackPointExtension>
        </extensions>
      </trkpt>
			

      <trkpt lat="55.751212" lon="48.742569">
        <ele>194.7</ele>
        <extensions>
          <gpxtpx:TrackPointExtension>
          </gpxtpx:TrackPointExtension>
        </extensions>
      </trkpt>
			

      <trkpt lat="55.751487" lon="48.742725">
        <ele>194.6</ele>
        <extensions>
          <gpxtpx:TrackPointExtension>
          </gpxtpx:TrackPointExtension>
        </extensions>
      </trkpt>
			

      <trkpt lat="55.751778" lon="48.742919">
        <ele>194.5</ele>
        <extensions>
          <gpxtpx:TrackPointExtension>
          </gpxtpx:TrackPointExtension>
        </extensions>
      </trkpt>
			

      <trkpt lat="55.751916" lon="48.742933">
        <ele>194.3</ele>
        <extensions>
          <gpxtpx:TrackPointExtension>
          </gpxtpx:TrackPointExtension>
        </extensions>
      </trkpt>
			

      <trkpt lat="55.75201" lon="48.742943">
        <ele>194.3</ele>
        <extensions>
          <gpxtpx:TrackPointExtension>
          </gpxtpx:TrackPointExtension>
        </extensions>
      </trkpt>
			

      <trkpt lat="55.752064" lon="48.742934">
        <ele>194.3</ele>
        <extensions>
          <gpxtpx:TrackPointExtension>
          </gpxtpx:TrackPointExtension>
        </extensions>
      </trkpt>
			

      <trkpt lat="55.752082" lon="48.742777">
        <ele>193.9</ele>
        <extensions>
          <gpxtpx:TrackPointExtension>
          </gpxtpx:TrackPointExtension>
        </extensions>
      </trkpt>
			

      <trkpt lat="55.752094" lon="48.742719">
        <ele>193.7</ele>
        <extensions>
          <gpxtpx:TrackPointExtension>
          </gpxtpx:TrackPointExtension>
        </extensions>
      </trkpt>
			

      <trkpt lat="55.752234" lon="48.742716">
        <ele>193.6</ele>
        <extensions>
          <gpxtpx:TrackPointExtension>
          </gpxtpx:TrackPointExtension>
        </extensions>
      </trkpt>
			

      <trkpt lat="55.752335" lon="48.742463">
        <ele>192.9</ele>
        <extensions>
          <gpxtpx:TrackPointExtension>
          </gpxtpx:TrackPointExtension>
        </extensions>
      </trkpt>
			

      <trkpt lat="55.75252" lon="48.741428">
        <ele>190.3</ele>
        <extensions>
          <gpxtpx:TrackPointExtension>
          </gpxtpx:TrackPointExtension>
        </extensions>
      </trkpt>
			

      <trkpt lat="55.752546" lon="48.74141">
        <ele>190.2</ele>
        <extensions>
          <gpxtpx:TrackPointExtension>
          </gpxtpx:TrackPointExtension>
        </extensions>
      </trkpt>
			

      <trkpt lat="55.752743" lon="48.740192">
        <ele>187.6</ele>
        <extensions>
          <gpxtpx:TrackPointExtension>
          </gpxtpx:TrackPointExtension>
        </extensions>
      </trkpt>
			

      <trkpt lat="55.752783" lon="48.739891">
        <ele>187.0</ele>
        <extensions>
          <gpxtpx:TrackPointExtension>
          </gpxtpx:TrackPointExtension>
        </extensions>
      </trkpt>
			

      <trkpt lat="55.752873" lon="48.739443">
        <ele>186.3</ele>
        <extensions>
          <gpxtpx:TrackPointExtension>
          </gpxtpx:TrackPointExtension>
        </extensions>
      </trkpt>
			

      <trkpt lat="55.752932" lon="48.738852">
        <ele>185.5</ele>
        <extensions>
          <gpxtpx:TrackPointExtension>
          </gpxtpx:TrackPointExtension>
        </extensions>
      </trkpt>
			

      <trkpt lat="55.753149" lon="48.738993">
        <ele>185.6</ele>
        <extensions>
          <gpxtpx:TrackPointExtension>
          </gpxtpx:TrackPointExtension>
        </extensions>
      </trkpt>
			

      <trkpt lat="55.753339" lon="48.739066">
        <ele>185.7</ele>
        <extensions>
          <gpxtpx:TrackPointExtension>
          </gpxtpx:TrackPointExtension>
        </extensions>
      </trkpt>
			

      <trkpt lat="55.753311" lon="48.739412">
        <ele>186.1</ele>
        <extensions>
          <gpxtpx:TrackPointExtension>
          </gpxtpx:TrackPointExtension>
        </extensions>
      </trkpt>
			

      <trkpt lat="55.753529" lon="48.73955">
        <ele>186.3</ele>
        <extensions>
          <gpxtpx:TrackPointExtension>
          </gpxtpx:TrackPointExtension>
        </extensions>
      </trkpt>
			

      <trkpt lat="55.753792" lon="48.739652">
        <ele>186.7</ele>
        <extensions>
          <gpxtpx:TrackPointExtension>
          </gpxtpx:TrackPointExtension>
        </extensions>
      </trkpt>
			

      <trkpt lat="55.75404" lon="48.739761">
        <ele>187.1</ele>
        <extensions>
          <gpxtpx:TrackPointExtension>
          </gpxtpx:TrackPointExtension>
        </extensions>
      </trkpt>
			

      <trkpt lat="55.75429" lon="48.739871">
        <ele>187.4</ele>
        <extensions>
          <gpxtpx:TrackPointExtension>
          </gpxtpx:TrackPointExtension>
        </extensions>
      </trkpt>
			

      <trkpt lat="55.754508" lon="48.739998">
        <ele>187.8</ele>
        <extensions>
          <gpxtpx:TrackPointExtension>
          </gpxtpx:TrackPointExtension>
        </extensions>
      </trkpt>
			

      <trkpt lat="55.754441" lon="48.740493">
        <ele>188.3</ele>
        <extensions>
          <gpxtpx:TrackPointExtension>
          </gpxtpx:TrackPointExtension>
        </extensions>
      </trkpt>
			

      <trkpt lat="55.754412" lon="48.740564">
        <ele>188.3</ele>
        <extensions>
          <gpxtpx:TrackPointExtension>
          </gpxtpx:TrackPointExtension>
        </extensions>
      </trkpt>
			

      <trkpt lat="55.754041" lon="48.740393">
        <ele>187.7</ele>
        <extensions>
          <gpxtpx:TrackPointExtension>
          </gpxtpx:TrackPointExtension>
        </extensions>
      </trkpt>
			

      <trkpt lat="55.753859" lon="48.740319">
        <ele>187.5</ele>
        <extensions>
          <gpxtpx:TrackPointExtension>
          </gpxtpx:TrackPointExtension>
        </extensions>
      </trkpt>
			

      <trkpt lat="55.753422" lon="48.740107">
        <ele>186.8</ele>
        <extensions>
          <gpxtpx:TrackPointExtension>
          </gpxtpx:TrackPointExtension>
        </extensions>
      </trkpt>
			

      <trkpt lat="55.753274" lon="48.74005">
        <ele>186.9</ele>
        <extensions>
          <gpxtpx:TrackPointExtension>
          </gpxtpx:TrackPointExtension>
        </extensions>
      </trkpt>
			

      <trkpt lat="55.753184" lon="48.740386">
        <ele>187.3</ele>
        <extensions>
          <gpxtpx:TrackPointExtension>
          </gpxtpx:TrackPointExtension>
        </extensions>
      </trkpt>
			

      <trkpt lat="55.753165" lon="48.740637">
        <ele>187.7</ele>
        <extensions>
          <gpxtpx:TrackPointExtension>
          </gpxtpx:TrackPointExtension>
        </extensions>
      </trkpt>
			

      <trkpt lat="55.753445" lon="48.740795">
        <ele>187.6</ele>
        <extensions>
          <gpxtpx:TrackPointExtension>
          </gpxtpx:TrackPointExtension>
        </extensions>
      </trkpt>
			

      <trkpt lat="55.753655" lon="48.740862">
        <ele>187.9</ele>
        <extensions>
          <gpxtpx:TrackPointExtension>
          </gpxtpx:TrackPointExtension>
        </extensions>
      </trkpt>
			

      <trkpt lat="55.753961" lon="48.740996">
        <ele>188.5</ele>
        <extensions>
          <gpxtpx:TrackPointExtension>
          </gpxtpx:TrackPointExtension>
        </extensions>
      </trkpt>
			

      <trkpt lat="55.754132" lon="48.74108">
        <ele>188.9</ele>
        <extensions>
          <gpxtpx:TrackPointExtension>
          </gpxtpx:TrackPointExtension>
        </extensions>
      </trkpt>
			

      <trkpt lat="55.754319" lon="48.741188">
        <ele>189.4</ele>
        <extensions>
          <gpxtpx:TrackPointExtension>
          </gpxtpx:TrackPointExtension>
        </extensions>
      </trkpt>
			

      <trkpt lat="55.754244" lon="48.741728">
        <ele>190.6</ele>
        <extensions>
          <gpxtpx:TrackPointExtension>
          </gpxtpx:TrackPointExtension>
        </extensions>
      </trkpt>
			

      <trkpt lat="55.753625" lon="48.741476">
        <ele>189.5</ele>
        <extensions>
          <gpxtpx:TrackPointExtension>
          </gpxtpx:TrackPointExtension>
        </extensions>
      </trkpt>
			
</trkseg></trk>
</gpx>