<?xml version="1.0" encoding="UTF-8"?>
		<gpx xmlns:xsi="http://www.w3.org/2001/XMLSchema-instance" xmlns="http://www.topografix.com/GPX/1/1" xsi:schemaLocation="http://www.topografix.com/GPX/1/1 http://www.topografix.com/GPX/1/1/gpx.xsd http://www.garmin.com/xmlschemas/GpxExtensions/v3 http://www.garmin.com/xmlschemas/GpxExtensionsv3.xsd http://www.garmin.com/xmlschemas/TrackPointExtension/v1 http://www.garmin.com/xmlschemas/TrackPointExtensionv1.xsd" xmlns:gpxtpx="http://www.garmin.com/xmlschemas/TrackPointExtension/v1" xmlns:gpxx="http://www.garmin.com/xmlschemas/GpxExtensions/v3" version="1.1">

	<metadata>
    <name>0A-1B.2_1B-2B.3_2B-2A.2_2A-3A.1_3A-4A.2_4A-FA.4</name>
    <author>Strava Mobile</author>
    <type>Running</type>
	</metadata>
	
<trk><trkseg>

      <trkpt lat="55.75357" lon="48.741459">
        <ele>189.4</ele>
        <extensions>
          <gpxtpx:TrackPointExtension>
          </gpxtpx:TrackPointExtension>
        </extensions>
      </trkpt>
			

      <trkpt lat="55.753091" lon="48.741184">
        <ele>188.9</ele>
        <extensions>
          <gpxtpx:TrackPointExtension>
          </gpxtpx:TrackPointExtension>
        </extensions>
      </trkpt>
			

      <trkpt lat="55.753018" lon="48.741158">
        <ele>189.0</ele>
        <extensions>
          <gpxtpx:TrackPointExtension>
          </gpxtpx:TrackPointExtension>
        </extensions>
      </trkpt>
			

      <trkpt lat="55.752782" lon="48.741082">
        <ele>189.1</ele>
        <extensions>
          <gpxtpx:TrackPointExtension>
          </gpxtpx:TrackPointExtension>
        </extensions>
      </trkpt>
			

      <trkpt lat="55.75265" lon="48.741012">
        <ele>189.1</ele>
        <extensions>
          <gpxtpx:TrackPointExtension>
          </gpxtpx:TrackPointExtension>
        </extensions>
      </trkpt>
			

      <trkpt lat="55.752599" lon="48.741098">
        <ele>189.4</ele>
        <extensions>
          <gpxtpx:TrackPointExtension>
          </gpxtpx:TrackPointExtension>
        </extensions>
      </trkpt>
			

      <trkpt lat="55.752496" lon="48.741659">
        <ele>190.9</ele>
        <extensions>
          <gpxtpx:TrackPointExtension>
          </gpxtpx:TrackPointExtension>
        </extensions>
      </trkpt>
			

      <trkpt lat="55.752341" lon="48.742388">
        <ele>192.8</ele>
        <extensions>
          <gpxtpx:TrackPointExtension>
          </gpxtpx:TrackPointExtension>
        </extensions>
      </trkpt>
			

      <trkpt lat="55.75229" lon="48.742662">
        <ele>193.4</ele>
        <extensions>
          <gpxtpx:TrackPointExtension>
          </gpxtpx:TrackPointExtension>
        </extensions>
      </trkpt>
			

      <trkpt lat="55.752091" lon="48.742705">
        <ele>193.7</ele>
        <extensions>
          <gpxtpx:TrackPointExtension>
          </gpxtpx:TrackPointExtension>
        </extensions>
      </trkpt>
			

      <trkpt lat="55.752059" lon="48.742919">
        <ele>194.2</ele>
        <extensions>
          <gpxtpx:TrackPointExtension>
          </gpxtpx:TrackPointExtension>
        </extensions>
      </trkpt>
			

      <trkpt lat="55.751998" lon="48.743154">
        <ele>194.8</ele>
        <extensions>
          <gpxtpx:TrackPointExtension>
          </gpxtpx:TrackPointExtension>
        </extensions>
      </trkpt>
			

      <trkpt lat="55.751896" lon="48.743279">
        <ele>195.1</ele>
        <extensions>
          <gpxtpx:TrackPointExtension>
          </gpxtpx:TrackPointExtension>
        </extensions>
      </trkpt>
			

      <trkpt lat="55.751718" lon="48.743381">
        <ele>195.6</ele>
        <extensions>
          <gpxtpx:TrackPointExtension>
          </gpxtpx:TrackPointExtension>
        </extensions>
      </trkpt>
			

      <trkpt lat="55.751698" lon="48.743593">
        <ele>196.1</ele>
        <extensions>
          <gpxtpx:TrackPointExtension>
          </gpxtpx:TrackPointExtension>
        </extensions>
      </trkpt>
			

      <trkpt lat="55.751727" lon="48.743839">
        <ele>197.0</ele>
        <extensions>
          <gpxtpx:TrackPointExtension>
          </gpxtpx:TrackPointExtension>
        </extensions>
      </trkpt>
			

      <trkpt lat="55.75192" lon="48.743717">
        <ele>196.3</ele>
        <extensions>
          <gpxtpx:TrackPointExtension>
          </gpxtpx:TrackPointExtension>
        </extensions>
      </trkpt>
			

      <trkpt lat="55.752192" lon="48.744897">
        <ele>200.6</ele>
        <extensions>
          <gpxtpx:TrackPointExtension>
          </gpxtpx:TrackPointExtension>
        </extensions>
      </trkpt>
			

      <trkpt lat="55.752291" lon="48.745382">
        <ele>202.3</ele>
        <extensions>
          <gpxtpx:TrackPointExtension>
          </gpxtpx:TrackPointExtension>
        </extensions>
      </trkpt>
			

      <trkpt lat="55.752176" lon="48.745476">
        <ele>202.8</ele>
        <extensions>
          <gpxtpx:TrackPointExtension>
          </gpxtpx:TrackPointExtension>
        </extensions>
      </trkpt>
			

      <trkpt lat="55.752107" lon="48.745773">
        <ele>204.0</ele>
        <extensions>
          <gpxtpx:TrackPointExtension>
          </gpxtpx:TrackPointExtension>
        </extensions>
      </trkpt>
			

      <trkpt lat="55.751913" lon="48.746717">
        <ele>207.3</ele>
        <extensions>
          <gpxtpx:TrackPointExtension>
          </gpxtpx:TrackPointExtension>
        </extensions>
      </trkpt>
			

      <trkpt lat="55.751661" lon="48.747601">
        <ele>209.6</ele>
        <extensions>
          <gpxtpx:TrackPointExtension>
          </gpxtpx:TrackPointExtension>
        </extensions>
      </trkpt>
			

      <trkpt lat="55.751519" lon="48.748293">
        <ele>211.1</ele>
        <extensions>
          <gpxtpx:TrackPointExtension>
          </gpxtpx:TrackPointExtension>
        </extensions>
      </trkpt>
			

      <trkpt lat="55.751406" lon="48.748811">
        <ele>212.2</ele>
        <extensions>
          <gpxtpx:TrackPointExtension>
          </gpxtpx:TrackPointExtension>
        </extensions>
      </trkpt>
			

      <trkpt lat="55.751279" lon="48.749389">
        <ele>211.8</ele>
        <extensions>
          <gpxtpx:TrackPointExtension>
          </gpxtpx:TrackPointExtension>
        </extensions>
      </trkpt>
			

      <trkpt lat="55.751224" lon="48.749741">
        <ele>210.7</ele>
        <extensions>
          <gpxtpx:TrackPointExtension>
          </gpxtpx:TrackPointExtension>
        </extensions>
      </trkpt>
			

      <trkpt lat="55.75123" lon="48.749775">
        <ele>210.7</ele>
        <extensions>
          <gpxtpx:TrackPointExtension>
          </gpxtpx:TrackPointExtension>
        </extensions>
      </trkpt>
			

      <trkpt lat="55.751505" lon="48.74996">
        <ele>210.6</ele>
        <extensions>
          <gpxtpx:TrackPointExtension>
          </gpxtpx:TrackPointExtension>
        </extensions>
      </trkpt>
			

      <trkpt lat="55.751825" lon="48.750151">
        <ele>210.9</ele>
        <extensions>
          <gpxtpx:TrackPointExtension>
          </gpxtpx:TrackPointExtension>
        </extensions>
      </trkpt>
			

      <trkpt lat="55.75218" lon="48.750403">
        <ele>209.7</ele>
        <extensions>
          <gpxtpx:TrackPointExtension>
          </gpxtpx:TrackPointExtension>
        </extensions>
      </trkpt>
			

      <trkpt lat="55.752542" lon="48.750585">
        <ele>208.6</ele>
        <extensions>
          <gpxtpx:TrackPointExtension>
          </gpxtpx:TrackPointExtension>
        </extensions>
      </trkpt>
			

      <trkpt lat="55.752891" lon="48.751054">
        <ele>207.3</ele>
        <extensions>
          <gpxtpx:TrackPointExtension>
          </gpxtpx:TrackPointExtension>
        </extensions>
      </trkpt>
			

      <trkpt lat="55.752994" lon="48.751576">
        <ele>206.5</ele>
        <extensions>
          <gpxtpx:TrackPointExtension>
          </gpxtpx:TrackPointExtension>
        </extensions>
      </trkpt>
			

      <trkpt lat="55.752984" lon="48.751642">
        <ele>206.4</ele>
        <extensions>
          <gpxtpx:TrackPointExtension>
          </gpxtpx:TrackPointExtension>
        </extensions>
      </trkpt>
			

      <trkpt lat="55.752742" lon="48.751761">
        <ele>206.6</ele>
        <extensions>
          <gpxtpx:TrackPointExtension>
          </gpxtpx:TrackPointExtension>
        </extensions>
      </trkpt>
			

      <trkpt lat="55.752555" lon="48.751882">
        <ele>206.5</ele>
        <extensions>
          <gpxtpx:TrackPointExtension>
          </gpxtpx:TrackPointExtension>
        </extensions>
      </trkpt>
			

      <trkpt lat="55.752527" lon="48.751903">
        <ele>206.4</ele>
        <extensions>
          <gpxtpx:TrackPointExtension>
          </gpxtpx:TrackPointExtension>
        </extensions>
      </trkpt>
			

      <trkpt lat="55.75247" lon="48.752012">
        <ele>206.1</ele>
        <extensions>
          <gpxtpx:TrackPointExtension>
          </gpxtpx:TrackPointExtension>
        </extensions>
      </trkpt>
			

      <trkpt lat="55.752446" lon="48.752766">
        <ele>203.1</ele>
        <extensions>
          <gpxtpx:TrackPointExtension>
          </gpxtpx:TrackPointExtension>
        </extensions>
      </trkpt>
			

      <trkpt lat="55.752053" lon="48.753211">
        <ele>201.8</ele>
        <extensions>
          <gpxtpx:TrackPointExtension>
          </gpxtpx:TrackPointExtension>
        </extensions>
      </trkpt>
			

      <trkpt lat="55.751759" lon="48.753251">
        <ele>201.6</ele>
        <extensions>
          <gpxtpx:TrackPointExtension>
          </gpxtpx:TrackPointExtension>
        </extensions>
      </trkpt>
			

      <trkpt lat="55.751534" lon="48.75311">
        <ele>201.5</ele>
        <extensions>
          <gpxtpx:TrackPointExtension>
          </gpxtpx:TrackPointExtension>
        </extensions>
      </trkpt>
			

      <trkpt lat="55.751427" lon="48.753038">
        <ele>201.4</ele>
        <extensions>
          <gpxtpx:TrackPointExtension>
          </gpxtpx:TrackPointExtension>
        </extensions>
      </trkpt>
			

      <trkpt lat="55.751351" lon="48.753085">
        <ele>201.0</ele>
        <extensions>
          <gpxtpx:TrackPointExtension>
          </gpxtpx:TrackPointExtension>
        </extensions>
      </trkpt>
			

      <trkpt lat="55.751257" lon="48.753191">
        <ele>200.4</ele>
        <extensions>
          <gpxtpx:TrackPointExtension>
          </gpxtpx:TrackPointExtension>
        </extensions>
      </trkpt>
			

      <trkpt lat="55.751198" lon="48.75323">
        <ele>200.1</ele>
        <extensions>
          <gpxtpx:TrackPointExtension>
          </gpxtpx:TrackPointExtension>
        </extensions>
      </trkpt>
			

      <trkpt lat="55.751117" lon="48.753121">
        <ele>200.2</ele>
        <extensions>
          <gpxtpx:TrackPointExtension>
          </gpxtpx:TrackPointExtension>
        </extensions>
      </trkpt>
			

      <trkpt lat="55.751064" lon="48.753053">
        <ele>200.3</ele>
        <extensions>
          <gpxtpx:TrackPointExtension>
          </gpxtpx:TrackPointExtension>
        </extensions>
      </trkpt>
			

      <trkpt lat="55.75102" lon="48.753061">
        <ele>200.1</ele>
        <extensions>
          <gpxtpx:TrackPointExtension>
          </gpxtpx:TrackPointExtension>
        </extensions>
      </trkpt>
			

      <trkpt lat="55.750962" lon="48.752978">
        <ele>200.2</ele>
        <extensions>
          <gpxtpx:TrackPointExtension>
          </gpxtpx:TrackPointExtension>
        </extensions>
      </trkpt>
			

      <trkpt lat="55.750877" lon="48.752627">
        <ele>201.0</ele>
        <extensions>
          <gpxtpx:TrackPointExtension>
          </gpxtpx:TrackPointExtension>
        </extensions>
      </trkpt>
			

      <trkpt lat="55.750825" lon="48.752316">
        <ele>201.7</ele>
        <extensions>
          <gpxtpx:TrackPointExtension>
          </gpxtpx:TrackPointExtension>
        </extensions>
      </trkpt>
			

      <trkpt lat="55.750947" lon="48.751608">
        <ele>204.3</ele>
        <extensions>
          <gpxtpx:TrackPointExtension>
          </gpxtpx:TrackPointExtension>
        </extensions>
      </trkpt>
			

      <trkpt lat="55.751018" lon="48.751025">
        <ele>206.4</ele>
        <extensions>
          <gpxtpx:TrackPointExtension>
          </gpxtpx:TrackPointExtension>
        </extensions>
      </trkpt>
			

      <trkpt lat="55.751115" lon="48.75038">
        <ele>208.6</ele>
        <extensions>
          <gpxtpx:TrackPointExtension>
          </gpxtpx:TrackPointExtension>
        </extensions>
      </trkpt>
			

      <trkpt lat="55.751208" lon="48.749902">
        <ele>210.2</ele>
        <extensions>
          <gpxtpx:TrackPointExtension>
          </gpxtpx:TrackPointExtension>
        </extensions>
      </trkpt>
			

      <trkpt lat="55.751286" lon="48.749352">
        <ele>211.9</ele>
        <extensions>
          <gpxtpx:TrackPointExtension>
          </gpxtpx:TrackPointExtension>
        </extensions>
      </trkpt>
			

      <trkpt lat="55.751378" lon="48.748883">
        <ele>212.3</ele>
        <extensions>
          <gpxtpx:TrackPointExtension>
          </gpxtpx:TrackPointExtension>
        </extensions>
      </trkpt>
			

      <trkpt lat="55.75152" lon="48.74826">
        <ele>211.0</ele>
        <extensions>
          <gpxtpx:TrackPointExtension>
          </gpxtpx:TrackPointExtension>
        </extensions>
      </trkpt>
			

      <trkpt lat="55.751593" lon="48.748026">
        <ele>210.5</ele>
        <extensions>
          <gpxtpx:TrackPointExtension>
          </gpxtpx:TrackPointExtension>
        </extensions>
      </trkpt>
			

      <trkpt lat="55.751554" lon="48.748111">
        <ele>210.7</ele>
        <extensions>
          <gpxtpx:TrackPointExtension>
          </gpxtpx:TrackPointExtension>
        </extensions>
      </trkpt>
			

      <trkpt lat="55.751736" lon="48.747216">
        <ele>208.7</ele>
        <extensions>
          <gpxtpx:TrackPointExtension>
          </gpxtpx:TrackPointExtension>
        </extensions>
      </trkpt>
			

      <trkpt lat="55.751949" lon="48.746422">
        <ele>206.5</ele>
        <extensions>
          <gpxtpx:TrackPointExtension>
          </gpxtpx:TrackPointExtension>
        </extensions>
      </trkpt>
			

      <trkpt lat="55.752091" lon="48.745753">
        <ele>204.0</ele>
        <extensions>
          <gpxtpx:TrackPointExtension>
          </gpxtpx:TrackPointExtension>
        </extensions>
      </trkpt>
			

      <trkpt lat="55.752139" lon="48.745521">
        <ele>202.9</ele>
        <extensions>
          <gpxtpx:TrackPointExtension>
          </gpxtpx:TrackPointExtension>
        </extensions>
      </trkpt>
			

      <trkpt lat="55.752287" lon="48.74528">
        <ele>201.9</ele>
        <extensions>
          <gpxtpx:TrackPointExtension>
          </gpxtpx:TrackPointExtension>
        </extensions>
      </trkpt>
			

      <trkpt lat="55.752116" lon="48.744531">
        <ele>199.2</ele>
        <extensions>
          <gpxtpx:TrackPointExtension>
          </gpxtpx:TrackPointExtension>
        </extensions>
      </trkpt>
			

      <trkpt lat="55.751928" lon="48.743746">
        <ele>196.3</ele>
        <extensions>
          <gpxtpx:TrackPointExtension>
          </gpxtpx:TrackPointExtension>
        </extensions>
      </trkpt>
			

      <trkpt lat="55.752028" lon="48.743637">
        <ele>195.9</ele>
        <extensions>
          <gpxtpx:TrackPointExtension>
          </gpxtpx:TrackPointExtension>
        </extensions>
      </trkpt>
			

      <trkpt lat="55.752116" lon="48.743362">
        <ele>195.2</ele>
        <extensions>
          <gpxtpx:TrackPointExtension>
          </gpxtpx:TrackPointExtension>
        </extensions>
      </trkpt>
			

      <trkpt lat="55.752234" lon="48.742861">
        <ele>194.0</ele>
        <extensions>
          <gpxtpx:TrackPointExtension>
          </gpxtpx:TrackPointExtension>
        </extensions>
      </trkpt>
			

      <trkpt lat="55.752319" lon="48.742473">
        <ele>193.0</ele>
        <extensions>
          <gpxtpx:TrackPointExtension>
          </gpxtpx:TrackPointExtension>
        </extensions>
      </trkpt>
			

      <trkpt lat="55.752304" lon="48.742397">
        <ele>192.8</ele>
        <extensions>
          <gpxtpx:TrackPointExtension>
          </gpxtpx:TrackPointExtension>
        </extensions>
      </trkpt>
			

      <trkpt lat="55.752059" lon="48.742273">
        <ele>192.8</ele>
        <extensions>
          <gpxtpx:TrackPointExtension>
          </gpxtpx:TrackPointExtension>
        </extensions>
      </trkpt>
			

      <trkpt lat="55.751727" lon="48.742163">
        <ele>192.9</ele>
        <extensions>
          <gpxtpx:TrackPointExtension>
          </gpxtpx:TrackPointExtension>
        </extensions>
      </trkpt>
			

      <trkpt lat="55.751375" lon="48.741967">
        <ele>193.0</ele>
        <extensions>
          <gpxtpx:TrackPointExtension>
          </gpxtpx:TrackPointExtension>
        </extensions>
      </trkpt>
			

      <trkpt lat="55.751081" lon="48.741814">
        <ele>193.2</ele>
        <extensions>
          <gpxtpx:TrackPointExtension>
          </gpxtpx:TrackPointExtension>
        </extensions>
      </trkpt>
			

      <trkpt lat="55.75085" lon="48.741763">
        <ele>193.4</ele>
        <extensions>
          <gpxtpx:TrackPointExtension>
          </gpxtpx:TrackPointExtension>
        </extensions>
      </trkpt>
			

      <trkpt lat="55.750773" lon="48.742008">
        <ele>194.1</ele>
        <extensions>
          <gpxtpx:TrackPointExtension>
          </gpxtpx:TrackPointExtension>
        </extensions>
      </trkpt>
			

      <trkpt lat="55.750664" lon="48.742573">
        <ele>195.7</ele>
        <extensions>
          <gpxtpx:TrackPointExtension>
          </gpxtpx:TrackPointExtension>
        </extensions>
      </trkpt>
			

      <trkpt lat="55.75061" lon="48.742756">
        <ele>196.2</ele>
        <extensions>
          <gpxtpx:TrackPointExtension>
          </gpxtpx:TrackPointExtension>
        </extensions>
      </trkpt>
			

      <trkpt lat="55.750267" lon="48.74241">
        <ele>195.9</ele>
        <extensions>
          <gpxtpx:TrackPointExtension>
          </gpxtpx:TrackPointExtension>
        </extensions>
      </trkpt>
			

      <trkpt lat="55.749897" lon="48.74201">
        <ele>195.7</ele>
        <extensions>
          <gpxtpx:TrackPointExtension>
          </gpxtpx:TrackPointExtension>
        </extensions>
      </trkpt>
			

      <trkpt lat="55.74959" lon="48.741743">
        <ele>195.8</ele>
        <extensions>
          <gpxtpx:TrackPointExtension>
          </gpxtpx:TrackPointExtension>
        </extensions>
      </trkpt>
			

      <trkpt lat="55.749505" lon="48.741629">
        <ele>195.7</ele>
        <extensions>
          <gpxtpx:TrackPointExtension>
          </gpxtpx:TrackPointExtension>
        </extensions>
      </trkpt>
			

      <trkpt lat="55.745895" lon="48.736748">
        <ele>197.7</ele>
        <extensions>
          <gpxtpx:TrackPointExtension>
          </gpxtpx:TrackPointExtension>
        </extensions>
      </trkpt>
			

      <trkpt lat="55.745396" lon="48.735838">
        <ele>198.4</ele>
        <extensions>
          <gpxtpx:TrackPointExtension>
          </gpxtpx:TrackPointExtension>
        </extensions>
      </trkpt>
			

      <trkpt lat="55.745207" lon="48.735484">
        <ele>198.5</ele>
        <extensions>
          <gpxtpx:TrackPointExtension>
          </gpxtpx:TrackPointExtension>
        </extensions>
      </trkpt>
			

      <trkpt lat="55.744712" lon="48.734542">
        <ele>198.8</ele>
        <extensions>
          <gpxtpx:TrackPointExtension>
          </gpxtpx:TrackPointExtension>
        </extensions>
      </trkpt>
			

      <trkpt lat="55.744239" lon="48.733609">
        <ele>198.8</ele>
        <extensions>
          <gpxtpx:TrackPointExtension>
          </gpxtpx:TrackPointExtension>
        </extensions>
      </trkpt>
			

      <trkpt lat="55.744076" lon="48.73328">
        <ele>198.8</ele>
        <extensions>
          <gpxtpx:TrackPointExtension>
          </gpxtpx:TrackPointExtension>
        </extensions>
      </trkpt>
			

      <trkpt lat="55.743652" lon="48.732267">
        <ele>198.8</ele>
        <extensions>
          <gpxtpx:TrackPointExtension>
          </gpxtpx:TrackPointExtension>
        </extensions>
      </trkpt>
			

      <trkpt lat="55.743266" lon="48.731397">
        <ele>198.2</ele>
        <extensions>
          <gpxtpx:TrackPointExtension>
          </gpxtpx:TrackPointExtension>
        </extensions>
      </trkpt>
			

      <trkpt lat="55.742948" lon="48.730702">
        <ele>197.5</ele>
        <extensions>
          <gpxtpx:TrackPointExtension>
          </gpxtpx:TrackPointExtension>
        </extensions>
      </trkpt>
			

      <trkpt lat="55.742967" lon="48.730682">
        <ele>197.5</ele>
        <extensions>
          <gpxtpx:TrackPointExtension>
          </gpxtpx:TrackPointExtension>
        </extensions>
      </trkpt>
			

      <trkpt lat="55.743383" lon="48.73173">
        <ele>198.5</ele>
        <extensions>
          <gpxtpx:TrackPointExtension>
          </gpxtpx:TrackPointExtension>
        </extensions>
      </trkpt>
			

      <trkpt lat="55.74346" lon="48.731889">
        <ele>198.6</ele>
        <extensions>
          <gpxtpx:TrackPointExtension>
          </gpxtpx:TrackPointExtension>
        </extensions>
      </trkpt>
			

      <trkpt lat="55.743903" lon="48.732886">
        <ele>198.9</ele>
        <extensions>
          <gpxtpx:TrackPointExtension>
          </gpxtpx:TrackPointExtension>
        </extensions>
      </trkpt>
			

      <trkpt lat="55.74432" lon="48.733825">
        <ele>198.9</ele>
        <extensions>
          <gpxtpx:TrackPointExtension>
          </gpxtpx:TrackPointExtension>
        </extensions>
      </trkpt>
			

      <trkpt lat="55.744794" lon="48.734766">
        <ele>198.8</ele>
        <extensions>
          <gpxtpx:TrackPointExtension>
          </gpxtpx:TrackPointExtension>
        </extensions>
      </trkpt>
			

      <trkpt lat="55.744825" lon="48.734812">
        <ele>198.8</ele>
        <extensions>
          <gpxtpx:TrackPointExtension>
          </gpxtpx:TrackPointExtension>
        </extensions>
      </trkpt>
			

      <trkpt lat="55.745347" lon="48.735701">
        <ele>198.4</ele>
        <extensions>
          <gpxtpx:TrackPointExtension>
          </gpxtpx:TrackPointExtension>
        </extensions>
      </trkpt>
			

      <trkpt lat="55.745654" lon="48.736259">
        <ele>198.1</ele>
        <extensions>
          <gpxtpx:TrackPointExtension>
          </gpxtpx:TrackPointExtension>
        </extensions>
      </trkpt>
			

      <trkpt lat="55.74618" lon="48.737133">
        <ele>197.1</ele>
        <extensions>
          <gpxtpx:TrackPointExtension>
          </gpxtpx:TrackPointExtension>
        </extensions>
      </trkpt>
			

      <trkpt lat="55.746401" lon="48.737496">
        <ele>196.8</ele>
        <extensions>
          <gpxtpx:TrackPointExtension>
          </gpxtpx:TrackPointExtension>
        </extensions>
      </trkpt>
			

      <trkpt lat="55.746944" lon="48.738316">
        <ele>196.2</ele>
        <extensions>
          <gpxtpx:TrackPointExtension>
          </gpxtpx:TrackPointExtension>
        </extensions>
      </trkpt>
			

      <trkpt lat="55.746971" lon="48.738358">
        <ele>196.1</ele>
        <extensions>
          <gpxtpx:TrackPointExtension>
          </gpxtpx:TrackPointExtension>
        </extensions>
      </trkpt>
			

      <trkpt lat="55.747348" lon="48.738912">
        <ele>195.9</ele>
        <extensions>
          <gpxtpx:TrackPointExtension>
          </gpxtpx:TrackPointExtension>
        </extensions>
      </trkpt>
			

      <trkpt lat="55.747656" lon="48.739302">
        <ele>195.8</ele>
        <extensions>
          <gpxtpx:TrackPointExtension>
          </gpxtpx:TrackPointExtension>
        </extensions>
      </trkpt>
			

      <trkpt lat="55.747915" lon="48.739688">
        <ele>195.8</ele>
        <extensions>
          <gpxtpx:TrackPointExtension>
          </gpxtpx:TrackPointExtension>
        </extensions>
      </trkpt>
			

      <trkpt lat="55.747872" lon="48.739894">
        <ele>196.2</ele>
        <extensions>
          <gpxtpx:TrackPointExtension>
          </gpxtpx:TrackPointExtension>
        </extensions>
      </trkpt>
			

      <trkpt lat="55.747793" lon="48.740034">
        <ele>196.5</ele>
        <extensions>
          <gpxtpx:TrackPointExtension>
          </gpxtpx:TrackPointExtension>
        </extensions>
      </trkpt>
			

      <trkpt lat="55.747721" lon="48.74023">
        <ele>196.9</ele>
        <extensions>
          <gpxtpx:TrackPointExtension>
          </gpxtpx:TrackPointExtension>
        </extensions>
      </trkpt>
			

      <trkpt lat="55.747673" lon="48.740436">
        <ele>197.3</ele>
        <extensions>
          <gpxtpx:TrackPointExtension>
          </gpxtpx:TrackPointExtension>
        </extensions>
      </trkpt>
			

      <trkpt lat="55.747536" lon="48.740277">
        <ele>197.3</ele>
        <extensions>
          <gpxtpx:TrackPointExtension>
          </gpxtpx:TrackPointExtension>
        </extensions>
      </trkpt>
			

      <trkpt lat="55.747358" lon="48.740331">
        <ele>197.6</ele>
        <extensions>
          <gpxtpx:TrackPointExtension>
          </gpxtpx:TrackPointExtension>
        </extensions>
      </trkpt>
			

      <trkpt lat="55.74708" lon="48.740433">
        <ele>198.0</ele>
        <extensions>
          <gpxtpx:TrackPointExtension>
          </gpxtpx:TrackPointExtension>
        </extensions>
      </trkpt>
			

      <trkpt lat="55.746948" lon="48.74048">
        <ele>198.1</ele>
        <extensions>
          <gpxtpx:TrackPointExtension>
          </gpxtpx:TrackPointExtension>
        </extensions>
      </trkpt>
			

      <trkpt lat="55.746841" lon="48.7408">
        <ele>198.5</ele>
        <extensions>
          <gpxtpx:TrackPointExtension>
          </gpxtpx:TrackPointExtension>
        </extensions>
      </trkpt>
			

      <trkpt lat="55.746732" lon="48.741113">
        <ele>198.7</ele>
        <extensions>
          <gpxtpx:TrackPointExtension>
          </gpxtpx:TrackPointExtension>
        </extensions>
      </trkpt>
			

      <trkpt lat="55.746607" lon="48.741519">
        <ele>199.0</ele>
        <extensions>
          <gpxtpx:TrackPointExtension>
          </gpxtpx:TrackPointExtension>
        </extensions>
      </trkpt>
			

      <trkpt lat="55.746428" lon="48.741959">
        <ele>199.4</ele>
        <extensions>
          <gpxtpx:TrackPointExtension>
          </gpxtpx:TrackPointExtension>
        </extensions>
      </trkpt>
			

      <trkpt lat="55.746454" lon="48.742104">
        <ele>199.5</ele>
        <extensions>
          <gpxtpx:TrackPointExtension>
          </gpxtpx:TrackPointExtension>
        </extensions>
      </trkpt>
			

      <trkpt lat="55.746439" lon="48.742246">
        <ele>199.6</ele>
        <extensions>
          <gpxtpx:TrackPointExtension>
          </gpxtpx:TrackPointExtension>
        </extensions>
      </trkpt>
			

      <trkpt lat="55.746432" lon="48.742455">
        <ele>199.8</ele>
        <extensions>
          <gpxtpx:TrackPointExtension>
          </gpxtpx:TrackPointExtension>
        </extensions>
      </trkpt>
			

      <trkpt lat="55.746471" lon="48.742474">
        <ele>199.8</ele>
        <extensions>
          <gpxtpx:TrackPointExtension>
          </gpxtpx:TrackPointExtension>
        </extensions>
      </trkpt>
			

      <trkpt lat="55.746662" lon="48.742454">
        <ele>199.6</ele>
        <extensions>
          <gpxtpx:TrackPointExtension>
          </gpxtpx:TrackPointExtension>
        </extensions>
      </trkpt>
			

      <trkpt lat="55.746722" lon="48.742442">
        <ele>199.5</ele>
        <extensions>
          <gpxtpx:TrackPointExtension>
          </gpxtpx:TrackPointExtension>
        </extensions>
      </trkpt>
			

      <trkpt lat="55.746743" lon="48.742455">
        <ele>199.5</ele>
        <extensions>
          <gpxtpx:TrackPointExtension>
          </gpxtpx:TrackPointExtension>
        </extensions>
      </trkpt>
			

      <trkpt lat="55.746724" lon="48.742549">
        <ele>199.6</ele>
        <extensions>
          <gpxtpx:TrackPointExtension>
          </gpxtpx:TrackPointExtension>
        </extensions>
      </trkpt>
			

      <trkpt lat="55.746793" lon="48.742573">
        <ele>199.5</ele>
        <extensions>
          <gpxtpx:TrackPointExtension>
          </gpxtpx:TrackPointExtension>
        </extensions>
      </trkpt>
			

      <trkpt lat="55.746921" lon="48.742525">
        <ele>199.3</ele>
        <extensions>
          <gpxtpx:TrackPointExtension>
          </gpxtpx:TrackPointExtension>
        </extensions>
      </trkpt>
			

      <trkpt lat="55.747068" lon="48.742201">
        <ele>199.0</ele>
        <extensions>
          <gpxtpx:TrackPointExtension>
          </gpxtpx:TrackPointExtension>
        </extensions>
      </trkpt>
			

      <trkpt lat="55.747141" lon="48.741943">
        <ele>198.9</ele>
        <extensions>
          <gpxtpx:TrackPointExtension>
          </gpxtpx:TrackPointExtension>
        </extensions>
      </trkpt>
			

      <trkpt lat="55.747284" lon="48.741565">
        <ele>198.6</ele>
        <extensions>
          <gpxtpx:TrackPointExtension>
          </gpxtpx:TrackPointExtension>
        </extensions>
      </trkpt>
			

      <trkpt lat="55.74739" lon="48.741235">
        <ele>198.4</ele>
        <extensions>
          <gpxtpx:TrackPointExtension>
          </gpxtpx:TrackPointExtension>
        </extensions>
      </trkpt>
			

      <trkpt lat="55.747482" lon="48.740948">
        <ele>198.1</ele>
        <extensions>
          <gpxtpx:TrackPointExtension>
          </gpxtpx:TrackPointExtension>
        </extensions>
      </trkpt>
			

      <trkpt lat="55.747598" lon="48.74064">
        <ele>197.7</ele>
        <extensions>
          <gpxtpx:TrackPointExtension>
          </gpxtpx:TrackPointExtension>
        </extensions>
      </trkpt>
			

      <trkpt lat="55.74771" lon="48.740361">
        <ele>197.1</ele>
        <extensions>
          <gpxtpx:TrackPointExtension>
          </gpxtpx:TrackPointExtension>
        </extensions>
      </trkpt>
			

      <trkpt lat="55.747814" lon="48.740024">
        <ele>196.5</ele>
        <extensions>
          <gpxtpx:TrackPointExtension>
          </gpxtpx:TrackPointExtension>
        </extensions>
      </trkpt>
			

      <trkpt lat="55.747912" lon="48.739754">
        <ele>195.9</ele>
        <extensions>
          <gpxtpx:TrackPointExtension>
          </gpxtpx:TrackPointExtension>
        </extensions>
      </trkpt>
			

      <trkpt lat="55.748217" lon="48.740083">
        <ele>195.9</ele>
        <extensions>
          <gpxtpx:TrackPointExtension>
          </gpxtpx:TrackPointExtension>
        </extensions>
      </trkpt>
			

      <trkpt lat="55.748472" lon="48.740421">
        <ele>196.1</ele>
        <extensions>
          <gpxtpx:TrackPointExtension>
          </gpxtpx:TrackPointExtension>
        </extensions>
      </trkpt>
			

      <trkpt lat="55.748661" lon="48.740664">
        <ele>196.3</ele>
        <extensions>
          <gpxtpx:TrackPointExtension>
          </gpxtpx:TrackPointExtension>
        </extensions>
      </trkpt>
			

      <trkpt lat="55.748943" lon="48.741004">
        <ele>196.3</ele>
        <extensions>
          <gpxtpx:TrackPointExtension>
          </gpxtpx:TrackPointExtension>
        </extensions>
      </trkpt>
			

      <trkpt lat="55.749289" lon="48.74137">
        <ele>195.8</ele>
        <extensions>
          <gpxtpx:TrackPointExtension>
          </gpxtpx:TrackPointExtension>
        </extensions>
      </trkpt>
			

      <trkpt lat="55.749473" lon="48.741602">
        <ele>195.7</ele>
        <extensions>
          <gpxtpx:TrackPointExtension>
          </gpxtpx:TrackPointExtension>
        </extensions>
      </trkpt>
			

      <trkpt lat="55.74944" lon="48.741605">
        <ele>195.8</ele>
        <extensions>
          <gpxtpx:TrackPointExtension>
          </gpxtpx:TrackPointExtension>
        </extensions>
      </trkpt>
			

      <trkpt lat="55.749701" lon="48.741863">
        <ele>195.8</ele>
        <extensions>
          <gpxtpx:TrackPointExtension>
          </gpxtpx:TrackPointExtension>
        </extensions>
      </trkpt>
			

      <trkpt lat="55.749962" lon="48.742131">
        <ele>195.8</ele>
        <extensions>
          <gpxtpx:TrackPointExtension>
          </gpxtpx:TrackPointExtension>
        </extensions>
      </trkpt>
			

      <trkpt lat="55.750193" lon="48.742391">
        <ele>196.0</ele>
        <extensions>
          <gpxtpx:TrackPointExtension>
          </gpxtpx:TrackPointExtension>
        </extensions>
      </trkpt>
			

      <trkpt lat="55.750566" lon="48.742775">
        <ele>196.3</ele>
        <extensions>
          <gpxtpx:TrackPointExtension>
          </gpxtpx:TrackPointExtension>
        </extensions>
      </trkpt>
			

      <trkpt lat="55.750646" lon="48.742725">
        <ele>196.1</ele>
        <extensions>
          <gpxtpx:TrackPointExtension>
          </gpxtpx:TrackPointExtension>
        </extensions>
      </trkpt>
			

      <trkpt lat="55.750762" lon="48.74234">
        <ele>194.9</ele>
        <extensions>
          <gpxtpx:TrackPointExtension>
          </gpxtpx:TrackPointExtension>
        </extensions>
      </trkpt>
			

      <trkpt lat="55.750862" lon="48.742284">
        <ele>194.6</ele>
        <extensions>
          <gpxtpx:TrackPointExtension>
          </gpxtpx:TrackPointExtension>
        </extensions>
      </trkpt>
			

      <trkpt lat="55.750962" lon="48.741927">
        <ele>193.6</ele>
        <extensions>
          <gpxtpx:TrackPointExtension>
          </gpxtpx:TrackPointExtension>
        </extensions>
      </trkpt>
			

      <trkpt lat="55.751155" lon="48.741807">
        <ele>193.1</ele>
        <extensions>
          <gpxtpx:TrackPointExtension>
          </gpxtpx:TrackPointExtension>
        </extensions>
      </trkpt>
			

      <trkpt lat="55.751576" lon="48.742017">
        <ele>192.9</ele>
        <extensions>
          <gpxtpx:TrackPointExtension>
          </gpxtpx:TrackPointExtension>
        </extensions>
      </trkpt>
			

      <trkpt lat="55.751944" lon="48.742209">
        <ele>192.7</ele>
        <extensions>
          <gpxtpx:TrackPointExtension>
          </gpxtpx:TrackPointExtension>
        </extensions>
      </trkpt>
			

      <trkpt lat="55.752311" lon="48.742375">
        <ele>192.7</ele>
        <extensions>
          <gpxtpx:TrackPointExtension>
          </gpxtpx:TrackPointExtension>
        </extensions>
      </trkpt>
			

      <trkpt lat="55.752544" lon="48.741509">
        <ele>190.5</ele>
        <extensions>
          <gpxtpx:TrackPointExtension>
          </gpxtpx:TrackPointExtension>
        </extensions>
      </trkpt>
			

      <trkpt lat="55.75253" lon="48.741404">
        <ele>190.2</ele>
        <extensions>
          <gpxtpx:TrackPointExtension>
          </gpxtpx:TrackPointExtension>
        </extensions>
      </trkpt>
			

      <trkpt lat="55.752715" lon="48.740162">
        <ele>187.5</ele>
        <extensions>
          <gpxtpx:TrackPointExtension>
          </gpxtpx:TrackPointExtension>
        </extensions>
      </trkpt>
			

      <trkpt lat="55.752785" lon="48.739711">
        <ele>186.8</ele>
        <extensions>
          <gpxtpx:TrackPointExtension>
          </gpxtpx:TrackPointExtension>
        </extensions>
      </trkpt>
			

      <trkpt lat="55.752917" lon="48.738858">
        <ele>185.5</ele>
        <extensions>
          <gpxtpx:TrackPointExtension>
          </gpxtpx:TrackPointExtension>
        </extensions>
      </trkpt>
			

      <trkpt lat="55.753155" lon="48.738961">
        <ele>185.6</ele>
        <extensions>
          <gpxtpx:TrackPointExtension>
          </gpxtpx:TrackPointExtension>
        </extensions>
      </trkpt>
			

      <trkpt lat="55.753367" lon="48.739119">
        <ele>185.7</ele>
        <extensions>
          <gpxtpx:TrackPointExtension>
          </gpxtpx:TrackPointExtension>
        </extensions>
      </trkpt>
			

      <trkpt lat="55.753358" lon="48.739403">
        <ele>186.0</ele>
        <extensions>
          <gpxtpx:TrackPointExtension>
          </gpxtpx:TrackPointExtension>
        </extensions>
      </trkpt>
			

      <trkpt lat="55.753618" lon="48.739564">
        <ele>186.4</ele>
        <extensions>
          <gpxtpx:TrackPointExtension>
          </gpxtpx:TrackPointExtension>
        </extensions>
      </trkpt>
			

      <trkpt lat="55.754124" lon="48.739787">
        <ele>187.1</ele>
        <extensions>
          <gpxtpx:TrackPointExtension>
          </gpxtpx:TrackPointExtension>
        </extensions>
      </trkpt>
			

      <trkpt lat="55.754387" lon="48.739902">
        <ele>187.5</ele>
        <extensions>
          <gpxtpx:TrackPointExtension>
          </gpxtpx:TrackPointExtension>
        </extensions>
      </trkpt>
			

      <trkpt lat="55.754553" lon="48.740023">
        <ele>187.9</ele>
        <extensions>
          <gpxtpx:TrackPointExtension>
          </gpxtpx:TrackPointExtension>
        </extensions>
      </trkpt>
			

      <trkpt lat="55.754701" lon="48.740064">
        <ele>188.1</ele>
        <extensions>
          <gpxtpx:TrackPointExtension>
          </gpxtpx:TrackPointExtension>
        </extensions>
      </trkpt>
			

      <trkpt lat="55.754797" lon="48.740087">
        <ele>188.2</ele>
        <extensions>
          <gpxtpx:TrackPointExtension>
          </gpxtpx:TrackPointExtension>
        </extensions>
      </trkpt>
			

      <trkpt lat="55.75489" lon="48.739898">
        <ele>188.0</ele>
        <extensions>
          <gpxtpx:TrackPointExtension>
          </gpxtpx:TrackPointExtension>
        </extensions>
      </trkpt>
			

      <trkpt lat="55.755026" lon="48.739972">
        <ele>188.1</ele>
        <extensions>
          <gpxtpx:TrackPointExtension>
          </gpxtpx:TrackPointExtension>
        </extensions>
      </trkpt>
			

      <trkpt lat="55.755173" lon="48.740135">
        <ele>188.2</ele>
        <extensions>
          <gpxtpx:TrackPointExtension>
          </gpxtpx:TrackPointExtension>
        </extensions>
      </trkpt>
			

      <trkpt lat="55.755107" lon="48.740677">
        <ele>188.8</ele>
        <extensions>
          <gpxtpx:TrackPointExtension>
          </gpxtpx:TrackPointExtension>
        </extensions>
      </trkpt>
			

      <trkpt lat="55.754983" lon="48.741357">
        <ele>190.3</ele>
        <extensions>
          <gpxtpx:TrackPointExtension>
          </gpxtpx:TrackPointExtension>
        </extensions>
      </trkpt>
			

      <trkpt lat="55.75493" lon="48.741837">
        <ele>191.4</ele>
        <extensions>
          <gpxtpx:TrackPointExtension>
          </gpxtpx:TrackPointExtension>
        </extensions>
      </trkpt>
			

      <trkpt lat="55.754832" lon="48.741798">
        <ele>191.3</ele>
        <extensions>
          <gpxtpx:TrackPointExtension>
          </gpxtpx:TrackPointExtension>
        </extensions>
      </trkpt>
			

      <trkpt lat="55.754732" lon="48.741798">
        <ele>191.2</ele>
        <extensions>
          <gpxtpx:TrackPointExtension>
          </gpxtpx:TrackPointExtension>
        </extensions>
      </trkpt>
			

      <trkpt lat="55.75465" lon="48.741794">
        <ele>191.1</ele>
        <extensions>
          <gpxtpx:TrackPointExtension>
          </gpxtpx:TrackPointExtension>
        </extensions>
      </trkpt>
			

      <trkpt lat="55.754585" lon="48.741805">
        <ele>191.1</ele>
        <extensions>
          <gpxtpx:TrackPointExtension>
          </gpxtpx:TrackPointExtension>
        </extensions>
      </trkpt>
			

      <trkpt lat="55.754522" lon="48.741864">
        <ele>191.2</ele>
        <extensions>
          <gpxtpx:TrackPointExtension>
          </gpxtpx:TrackPointExtension>
        </extensions>
      </trkpt>
			

      <trkpt lat="55.754441" lon="48.741853">
        <ele>191.1</ele>
        <extensions>
          <gpxtpx:TrackPointExtension>
          </gpxtpx:TrackPointExtension>
        </extensions>
      </trkpt>
			

      <trkpt lat="55.754252" lon="48.741755">
        <ele>190.7</ele>
        <extensions>
          <gpxtpx:TrackPointExtension>
          </gpxtpx:TrackPointExtension>
        </extensions>
      </trkpt>
			

      <trkpt lat="55.753819" lon="48.741577">
        <ele>190.0</ele>
        <extensions>
          <gpxtpx:TrackPointExtension>
          </gpxtpx:TrackPointExtension>
        </extensions>
      </trkpt>
			

      <trkpt lat="55.753617" lon="48.741496">
        <ele>189.6</ele>
        <extensions>
          <gpxtpx:TrackPointExtension>
          </gpxtpx:TrackPointExtension>
        </extensions>
      </trkpt>
			

      <trkpt lat="55.753545" lon="48.741469">
        <ele>189.4</ele>
        <extensions>
          <gpxtpx:TrackPointExtension>
          </gpxtpx:TrackPointExtension>
        </extensions>
      </trkpt>
			
</trkseg></trk>
</gpx>