<?xml version="1.0" encoding="UTF-8"?>
		<gpx
			xmlns:xsi="http://www.w3.org/2001/XMLSchema-instance"
			xmlns="http://www.topografix.com/GPX/1/1"
			xsi:schemaLocation="http://www.topografix.com/GPX/1/1 http://www.topografix.com/GPX/1/1/gpx.xsd http://www.garmin.com/xmlschemas/GpxExtensions/v3 http://www.garmin.com/xmlschemas/GpxExtensionsv3.xsd http://www.garmin.com/xmlschemas/TrackPointExtension/v1 http://www.garmin.com/xmlschemas/TrackPointExtensionv1.xsd" xmlns:gpxtpx="http://www.garmin.com/xmlschemas/TrackPointExtension/v1" xmlns:gpxx="http://www.garmin.com/xmlschemas/GpxExtensions/v3"
			version="1.1">

	<metadata>
    <name>0A-1B.3_1B-2B.3_2B-2A.2_2A-3A.3_3A-4A.1_4A-FA.3</name>
    <author>Strava Mobile</author>
    <type>Running</type>
	</metadata>
	
<trk><trkseg>
<trkpt lat="55.753546" lon="48.741472">
				<ele>189.4</ele>
				
				<extensions>
				  <gpxtpx:TrackPointExtension>
					
				  </gpxtpx:TrackPointExtension>
				</extensions>
			  </trkpt>
<trkpt lat="55.753846" lon="48.741593">
				<ele>190.0</ele>
				
				<extensions>
				  <gpxtpx:TrackPointExtension>
					
				  </gpxtpx:TrackPointExtension>
				</extensions>
			  </trkpt>
<trkpt lat="55.754073" lon="48.741674">
				<ele>190.4</ele>
				
				<extensions>
				  <gpxtpx:TrackPointExtension>
					
				  </gpxtpx:TrackPointExtension>
				</extensions>
			  </trkpt>
<trkpt lat="55.754249" lon="48.741821">
				<ele>190.9</ele>
				
				<extensions>
				  <gpxtpx:TrackPointExtension>
					
				  </gpxtpx:TrackPointExtension>
				</extensions>
			  </trkpt>
<trkpt lat="55.7542" lon="48.742097">
				<ele>191.5</ele>
				
				<extensions>
				  <gpxtpx:TrackPointExtension>
					
				  </gpxtpx:TrackPointExtension>
				</extensions>
			  </trkpt>
<trkpt lat="55.754216" lon="48.742398">
				<ele>192.3</ele>
				
				<extensions>
				  <gpxtpx:TrackPointExtension>
					
				  </gpxtpx:TrackPointExtension>
				</extensions>
			  </trkpt>
<trkpt lat="55.754228" lon="48.742626">
				<ele>192.9</ele>
				
				<extensions>
				  <gpxtpx:TrackPointExtension>
					
				  </gpxtpx:TrackPointExtension>
				</extensions>
			  </trkpt>
<trkpt lat="55.754201" lon="48.742875">
				<ele>193.5</ele>
				
				<extensions>
				  <gpxtpx:TrackPointExtension>
					
				  </gpxtpx:TrackPointExtension>
				</extensions>
			  </trkpt>
<trkpt lat="55.754237" lon="48.742988">
				<ele>193.8</ele>
				
				<extensions>
				  <gpxtpx:TrackPointExtension>
					
				  </gpxtpx:TrackPointExtension>
				</extensions>
			  </trkpt>
<trkpt lat="55.754393" lon="48.743079">
				<ele>194.1</ele>
				
				<extensions>
				  <gpxtpx:TrackPointExtension>
					
				  </gpxtpx:TrackPointExtension>
				</extensions>
			  </trkpt>
<trkpt lat="55.754577" lon="48.743189">
				<ele>194.4</ele>
				
				<extensions>
				  <gpxtpx:TrackPointExtension>
					
				  </gpxtpx:TrackPointExtension>
				</extensions>
			  </trkpt>
<trkpt lat="55.754553" lon="48.743548">
				<ele>195.2</ele>
				
				<extensions>
				  <gpxtpx:TrackPointExtension>
					
				  </gpxtpx:TrackPointExtension>
				</extensions>
			  </trkpt>
<trkpt lat="55.754459" lon="48.744184">
				<ele>197.6</ele>
				
				<extensions>
				  <gpxtpx:TrackPointExtension>
					
				  </gpxtpx:TrackPointExtension>
				</extensions>
			  </trkpt>
<trkpt lat="55.754366" lon="48.744849">
				<ele>200.2</ele>
				
				<extensions>
				  <gpxtpx:TrackPointExtension>
					
				  </gpxtpx:TrackPointExtension>
				</extensions>
			  </trkpt>
<trkpt lat="55.754287" lon="48.745359">
				<ele>202.0</ele>
				
				<extensions>
				  <gpxtpx:TrackPointExtension>
					
				  </gpxtpx:TrackPointExtension>
				</extensions>
			  </trkpt>
<trkpt lat="55.754311" lon="48.74548">
				<ele>202.5</ele>
				
				<extensions>
				  <gpxtpx:TrackPointExtension>
					
				  </gpxtpx:TrackPointExtension>
				</extensions>
			  </trkpt>
<trkpt lat="55.754642" lon="48.745616">
				<ele>203.5</ele>
				
				<extensions>
				  <gpxtpx:TrackPointExtension>
					
				  </gpxtpx:TrackPointExtension>
				</extensions>
			  </trkpt>
<trkpt lat="55.754987" lon="48.74582">
				<ele>204.7</ele>
				
				<extensions>
				  <gpxtpx:TrackPointExtension>
					
				  </gpxtpx:TrackPointExtension>
				</extensions>
			  </trkpt>
<trkpt lat="55.755365" lon="48.745887">
				<ele>204.8</ele>
				
				<extensions>
				  <gpxtpx:TrackPointExtension>
					
				  </gpxtpx:TrackPointExtension>
				</extensions>
			  </trkpt>
<trkpt lat="55.755676" lon="48.745997">
				<ele>205.2</ele>
				
				<extensions>
				  <gpxtpx:TrackPointExtension>
					
				  </gpxtpx:TrackPointExtension>
				</extensions>
			  </trkpt>
<trkpt lat="55.75611" lon="48.746048">
				<ele>205.2</ele>
				
				<extensions>
				  <gpxtpx:TrackPointExtension>
					
				  </gpxtpx:TrackPointExtension>
				</extensions>
			  </trkpt>
<trkpt lat="55.756446" lon="48.746129">
				<ele>205.4</ele>
				
				<extensions>
				  <gpxtpx:TrackPointExtension>
					
				  </gpxtpx:TrackPointExtension>
				</extensions>
			  </trkpt>
<trkpt lat="55.756737" lon="48.746032">
				<ele>204.1</ele>
				
				<extensions>
				  <gpxtpx:TrackPointExtension>
					
				  </gpxtpx:TrackPointExtension>
				</extensions>
			  </trkpt>
<trkpt lat="55.756957" lon="48.746035">
				<ele>203.2</ele>
				
				<extensions>
				  <gpxtpx:TrackPointExtension>
					
				  </gpxtpx:TrackPointExtension>
				</extensions>
			  </trkpt>
<trkpt lat="55.75696" lon="48.745997">
				<ele>203.1</ele>
				
				<extensions>
				  <gpxtpx:TrackPointExtension>
					
				  </gpxtpx:TrackPointExtension>
				</extensions>
			  </trkpt>
<trkpt lat="55.756767" lon="48.746075">
				<ele>204.1</ele>
				
				<extensions>
				  <gpxtpx:TrackPointExtension>
					
				  </gpxtpx:TrackPointExtension>
				</extensions>
			  </trkpt>
<trkpt lat="55.756479" lon="48.746067">
				<ele>205.2</ele>
				
				<extensions>
				  <gpxtpx:TrackPointExtension>
					
				  </gpxtpx:TrackPointExtension>
				</extensions>
			  </trkpt>
<trkpt lat="55.756189" lon="48.746105">
				<ele>205.4</ele>
				
				<extensions>
				  <gpxtpx:TrackPointExtension>
					
				  </gpxtpx:TrackPointExtension>
				</extensions>
			  </trkpt>
<trkpt lat="55.755898" lon="48.746056">
				<ele>205.3</ele>
				
				<extensions>
				  <gpxtpx:TrackPointExtension>
					
				  </gpxtpx:TrackPointExtension>
				</extensions>
			  </trkpt>
<trkpt lat="55.755458" lon="48.745957">
				<ele>205.1</ele>
				
				<extensions>
				  <gpxtpx:TrackPointExtension>
					
				  </gpxtpx:TrackPointExtension>
				</extensions>
			  </trkpt>
<trkpt lat="55.755102" lon="48.745895">
				<ele>205.0</ele>
				
				<extensions>
				  <gpxtpx:TrackPointExtension>
					
				  </gpxtpx:TrackPointExtension>
				</extensions>
			  </trkpt>
<trkpt lat="55.754716" lon="48.745716">
				<ele>204.0</ele>
				
				<extensions>
				  <gpxtpx:TrackPointExtension>
					
				  </gpxtpx:TrackPointExtension>
				</extensions>
			  </trkpt>
<trkpt lat="55.754361" lon="48.745477">
				<ele>202.6</ele>
				
				<extensions>
				  <gpxtpx:TrackPointExtension>
					
				  </gpxtpx:TrackPointExtension>
				</extensions>
			  </trkpt>
<trkpt lat="55.754025" lon="48.745308">
				<ele>201.6</ele>
				
				<extensions>
				  <gpxtpx:TrackPointExtension>
					
				  </gpxtpx:TrackPointExtension>
				</extensions>
			  </trkpt>
<trkpt lat="55.753686" lon="48.745075">
				<ele>200.4</ele>
				
				<extensions>
				  <gpxtpx:TrackPointExtension>
					
				  </gpxtpx:TrackPointExtension>
				</extensions>
			  </trkpt>
<trkpt lat="55.753327" lon="48.744881">
				<ele>199.5</ele>
				
				<extensions>
				  <gpxtpx:TrackPointExtension>
					
				  </gpxtpx:TrackPointExtension>
				</extensions>
			  </trkpt>
<trkpt lat="55.753001" lon="48.744648">
				<ele>199.0</ele>
				
				<extensions>
				  <gpxtpx:TrackPointExtension>
					
				  </gpxtpx:TrackPointExtension>
				</extensions>
			  </trkpt>
<trkpt lat="55.752754" lon="48.744498">
				<ele>198.6</ele>
				
				<extensions>
				  <gpxtpx:TrackPointExtension>
					
				  </gpxtpx:TrackPointExtension>
				</extensions>
			  </trkpt>
<trkpt lat="55.752624" lon="48.744147">
				<ele>197.5</ele>
				
				<extensions>
				  <gpxtpx:TrackPointExtension>
					
				  </gpxtpx:TrackPointExtension>
				</extensions>
			  </trkpt>
<trkpt lat="55.752568" lon="48.743886">
				<ele>196.5</ele>
				
				<extensions>
				  <gpxtpx:TrackPointExtension>
					
				  </gpxtpx:TrackPointExtension>
				</extensions>
			  </trkpt>
<trkpt lat="55.752464" lon="48.74394">
				<ele>196.8</ele>
				
				<extensions>
				  <gpxtpx:TrackPointExtension>
					
				  </gpxtpx:TrackPointExtension>
				</extensions>
			  </trkpt>
<trkpt lat="55.752515" lon="48.744122">
				<ele>197.4</ele>
				
				<extensions>
				  <gpxtpx:TrackPointExtension>
					
				  </gpxtpx:TrackPointExtension>
				</extensions>
			  </trkpt>
<trkpt lat="55.752094" lon="48.744533">
				<ele>199.3</ele>
				
				<extensions>
				  <gpxtpx:TrackPointExtension>
					
				  </gpxtpx:TrackPointExtension>
				</extensions>
			  </trkpt>
<trkpt lat="55.752289" lon="48.745354">
				<ele>202.2</ele>
				
				<extensions>
				  <gpxtpx:TrackPointExtension>
					
				  </gpxtpx:TrackPointExtension>
				</extensions>
			  </trkpt>
<trkpt lat="55.752154" lon="48.745494">
				<ele>202.9</ele>
				
				<extensions>
				  <gpxtpx:TrackPointExtension>
					
				  </gpxtpx:TrackPointExtension>
				</extensions>
			  </trkpt>
<trkpt lat="55.752159" lon="48.745681">
				<ele>203.6</ele>
				
				<extensions>
				  <gpxtpx:TrackPointExtension>
					
				  </gpxtpx:TrackPointExtension>
				</extensions>
			  </trkpt>
<trkpt lat="55.75209" lon="48.745791">
				<ele>204.1</ele>
				
				<extensions>
				  <gpxtpx:TrackPointExtension>
					
				  </gpxtpx:TrackPointExtension>
				</extensions>
			  </trkpt>
<trkpt lat="55.752007" lon="48.746134">
				<ele>205.5</ele>
				
				<extensions>
				  <gpxtpx:TrackPointExtension>
					
				  </gpxtpx:TrackPointExtension>
				</extensions>
			  </trkpt>
<trkpt lat="55.75188" lon="48.746657">
				<ele>207.2</ele>
				
				<extensions>
				  <gpxtpx:TrackPointExtension>
					
				  </gpxtpx:TrackPointExtension>
				</extensions>
			  </trkpt>
<trkpt lat="55.751772" lon="48.74714">
				<ele>208.5</ele>
				
				<extensions>
				  <gpxtpx:TrackPointExtension>
					
				  </gpxtpx:TrackPointExtension>
				</extensions>
			  </trkpt>
<trkpt lat="55.751657" lon="48.747655">
				<ele>209.7</ele>
				
				<extensions>
				  <gpxtpx:TrackPointExtension>
					
				  </gpxtpx:TrackPointExtension>
				</extensions>
			  </trkpt>
<trkpt lat="55.75158" lon="48.748016">
				<ele>210.5</ele>
				
				<extensions>
				  <gpxtpx:TrackPointExtension>
					
				  </gpxtpx:TrackPointExtension>
				</extensions>
			  </trkpt>
<trkpt lat="55.751506" lon="48.748346">
				<ele>211.2</ele>
				
				<extensions>
				  <gpxtpx:TrackPointExtension>
					
				  </gpxtpx:TrackPointExtension>
				</extensions>
			  </trkpt>
<trkpt lat="55.751442" lon="48.748646">
				<ele>211.8</ele>
				
				<extensions>
				  <gpxtpx:TrackPointExtension>
					
				  </gpxtpx:TrackPointExtension>
				</extensions>
			  </trkpt>
<trkpt lat="55.75136" lon="48.749032">
				<ele>212.6</ele>
				
				<extensions>
				  <gpxtpx:TrackPointExtension>
					
				  </gpxtpx:TrackPointExtension>
				</extensions>
			  </trkpt>
<trkpt lat="55.751239" lon="48.749648">
				<ele>211.0</ele>
				
				<extensions>
				  <gpxtpx:TrackPointExtension>
					
				  </gpxtpx:TrackPointExtension>
				</extensions>
			  </trkpt>
<trkpt lat="55.75122" lon="48.749748">
				<ele>210.7</ele>
				
				<extensions>
				  <gpxtpx:TrackPointExtension>
					
				  </gpxtpx:TrackPointExtension>
				</extensions>
			  </trkpt>
<trkpt lat="55.751226" lon="48.749763">
				<ele>210.7</ele>
				
				<extensions>
				  <gpxtpx:TrackPointExtension>
					
				  </gpxtpx:TrackPointExtension>
				</extensions>
			  </trkpt>
<trkpt lat="55.751501" lon="48.749956">
				<ele>210.6</ele>
				
				<extensions>
				  <gpxtpx:TrackPointExtension>
					
				  </gpxtpx:TrackPointExtension>
				</extensions>
			  </trkpt>
<trkpt lat="55.751828" lon="48.750139">
				<ele>210.9</ele>
				
				<extensions>
				  <gpxtpx:TrackPointExtension>
					
				  </gpxtpx:TrackPointExtension>
				</extensions>
			  </trkpt>
<trkpt lat="55.752183" lon="48.750391">
				<ele>209.7</ele>
				
				<extensions>
				  <gpxtpx:TrackPointExtension>
					
				  </gpxtpx:TrackPointExtension>
				</extensions>
			  </trkpt>
<trkpt lat="55.752538" lon="48.750573">
				<ele>208.6</ele>
				
				<extensions>
				  <gpxtpx:TrackPointExtension>
					
				  </gpxtpx:TrackPointExtension>
				</extensions>
			  </trkpt>
<trkpt lat="55.752879" lon="48.751042">
				<ele>207.3</ele>
				
				<extensions>
				  <gpxtpx:TrackPointExtension>
					
				  </gpxtpx:TrackPointExtension>
				</extensions>
			  </trkpt>
<trkpt lat="55.752997" lon="48.751579">
				<ele>206.5</ele>
				
				<extensions>
				  <gpxtpx:TrackPointExtension>
					
				  </gpxtpx:TrackPointExtension>
				</extensions>
			  </trkpt>
<trkpt lat="55.75298" lon="48.751638">
				<ele>206.4</ele>
				
				<extensions>
				  <gpxtpx:TrackPointExtension>
					
				  </gpxtpx:TrackPointExtension>
				</extensions>
			  </trkpt>
<trkpt lat="55.752745" lon="48.751764">
				<ele>206.6</ele>
				
				<extensions>
				  <gpxtpx:TrackPointExtension>
					
				  </gpxtpx:TrackPointExtension>
				</extensions>
			  </trkpt>
<trkpt lat="55.752551" lon="48.751885">
				<ele>206.5</ele>
				
				<extensions>
				  <gpxtpx:TrackPointExtension>
					
				  </gpxtpx:TrackPointExtension>
				</extensions>
			  </trkpt>
<trkpt lat="55.752515" lon="48.751906">
				<ele>206.4</ele>
				
				<extensions>
				  <gpxtpx:TrackPointExtension>
					
				  </gpxtpx:TrackPointExtension>
				</extensions>
			  </trkpt>
<trkpt lat="55.752458" lon="48.752">
				<ele>206.1</ele>
				
				<extensions>
				  <gpxtpx:TrackPointExtension>
					
				  </gpxtpx:TrackPointExtension>
				</extensions>
			  </trkpt>
<trkpt lat="55.752434" lon="48.752762">
				<ele>203.1</ele>
				
				<extensions>
				  <gpxtpx:TrackPointExtension>
					
				  </gpxtpx:TrackPointExtension>
				</extensions>
			  </trkpt>
<trkpt lat="55.752056" lon="48.753207">
				<ele>201.8</ele>
				
				<extensions>
				  <gpxtpx:TrackPointExtension>
					
				  </gpxtpx:TrackPointExtension>
				</extensions>
			  </trkpt>
<trkpt lat="55.751747" lon="48.753247">
				<ele>201.6</ele>
				
				<extensions>
				  <gpxtpx:TrackPointExtension>
					
				  </gpxtpx:TrackPointExtension>
				</extensions>
			  </trkpt>
<trkpt lat="55.751537" lon="48.753113">
				<ele>201.5</ele>
				
				<extensions>
				  <gpxtpx:TrackPointExtension>
					
				  </gpxtpx:TrackPointExtension>
				</extensions>
			  </trkpt>
<trkpt lat="55.751415" lon="48.753041">
				<ele>201.4</ele>
				
				<extensions>
				  <gpxtpx:TrackPointExtension>
					
				  </gpxtpx:TrackPointExtension>
				</extensions>
			  </trkpt>
<trkpt lat="55.751339" lon="48.753081">
				<ele>201.0</ele>
				
				<extensions>
				  <gpxtpx:TrackPointExtension>
					
				  </gpxtpx:TrackPointExtension>
				</extensions>
			  </trkpt>
<trkpt lat="55.751253" lon="48.753194">
				<ele>200.4</ele>
				
				<extensions>
				  <gpxtpx:TrackPointExtension>
					
				  </gpxtpx:TrackPointExtension>
				</extensions>
			  </trkpt>
<trkpt lat="55.751194" lon="48.753218">
				<ele>200.1</ele>
				
				<extensions>
				  <gpxtpx:TrackPointExtension>
					
				  </gpxtpx:TrackPointExtension>
				</extensions>
			  </trkpt>
<trkpt lat="55.751113" lon="48.753124">
				<ele>200.2</ele>
				
				<extensions>
				  <gpxtpx:TrackPointExtension>
					
				  </gpxtpx:TrackPointExtension>
				</extensions>
			  </trkpt>
<trkpt lat="55.75106" lon="48.753041">
				<ele>200.3</ele>
				
				<extensions>
				  <gpxtpx:TrackPointExtension>
					
				  </gpxtpx:TrackPointExtension>
				</extensions>
			  </trkpt>
<trkpt lat="55.751016" lon="48.753057">
				<ele>200.1</ele>
				
				<extensions>
				  <gpxtpx:TrackPointExtension>
					
				  </gpxtpx:TrackPointExtension>
				</extensions>
			  </trkpt>
<trkpt lat="55.75095" lon="48.752974">
				<ele>200.2</ele>
				
				<extensions>
				  <gpxtpx:TrackPointExtension>
					
				  </gpxtpx:TrackPointExtension>
				</extensions>
			  </trkpt>
<trkpt lat="55.75088" lon="48.75263">
				<ele>201.0</ele>
				
				<extensions>
				  <gpxtpx:TrackPointExtension>
					
				  </gpxtpx:TrackPointExtension>
				</extensions>
			  </trkpt>
<trkpt lat="55.750821" lon="48.752319">
				<ele>201.7</ele>
				
				<extensions>
				  <gpxtpx:TrackPointExtension>
					
				  </gpxtpx:TrackPointExtension>
				</extensions>
			  </trkpt>
<trkpt lat="55.750935" lon="48.751611">
				<ele>204.3</ele>
				
				<extensions>
				  <gpxtpx:TrackPointExtension>
					
				  </gpxtpx:TrackPointExtension>
				</extensions>
			  </trkpt>
<trkpt lat="55.751006" lon="48.751013">
				<ele>206.4</ele>
				
				<extensions>
				  <gpxtpx:TrackPointExtension>
					
				  </gpxtpx:TrackPointExtension>
				</extensions>
			  </trkpt>
<trkpt lat="55.751111" lon="48.750383">
				<ele>208.6</ele>
				
				<extensions>
				  <gpxtpx:TrackPointExtension>
					
				  </gpxtpx:TrackPointExtension>
				</extensions>
			  </trkpt>
<trkpt lat="55.751196" lon="48.749905">
				<ele>210.2</ele>
				
				<extensions>
				  <gpxtpx:TrackPointExtension>
					
				  </gpxtpx:TrackPointExtension>
				</extensions>
			  </trkpt>
<trkpt lat="55.751274" lon="48.749355">
				<ele>211.9</ele>
				
				<extensions>
				  <gpxtpx:TrackPointExtension>
					
				  </gpxtpx:TrackPointExtension>
				</extensions>
			  </trkpt>
<trkpt lat="55.751381" lon="48.748886">
				<ele>212.3</ele>
				
				<extensions>
				  <gpxtpx:TrackPointExtension>
					
				  </gpxtpx:TrackPointExtension>
				</extensions>
			  </trkpt>
<trkpt lat="55.751516" lon="48.748256">
				<ele>211.0</ele>
				
				<extensions>
				  <gpxtpx:TrackPointExtension>
					
				  </gpxtpx:TrackPointExtension>
				</extensions>
			  </trkpt>
<trkpt lat="55.751596" lon="48.748014">
				<ele>210.5</ele>
				
				<extensions>
				  <gpxtpx:TrackPointExtension>
					
				  </gpxtpx:TrackPointExtension>
				</extensions>
			  </trkpt>
<trkpt lat="55.751557" lon="48.748114">
				<ele>210.7</ele>
				
				<extensions>
				  <gpxtpx:TrackPointExtension>
					
				  </gpxtpx:TrackPointExtension>
				</extensions>
			  </trkpt>
<trkpt lat="55.751739" lon="48.747212">
				<ele>208.7</ele>
				
				<extensions>
				  <gpxtpx:TrackPointExtension>
					
				  </gpxtpx:TrackPointExtension>
				</extensions>
			  </trkpt>
<trkpt lat="55.751952" lon="48.74641">
				<ele>206.5</ele>
				
				<extensions>
				  <gpxtpx:TrackPointExtension>
					
				  </gpxtpx:TrackPointExtension>
				</extensions>
			  </trkpt>
<trkpt lat="55.752079" lon="48.745756">
				<ele>204.0</ele>
				
				<extensions>
				  <gpxtpx:TrackPointExtension>
					
				  </gpxtpx:TrackPointExtension>
				</extensions>
			  </trkpt>
<trkpt lat="55.752142" lon="48.745509">
				<ele>202.9</ele>
				
				<extensions>
				  <gpxtpx:TrackPointExtension>
					
				  </gpxtpx:TrackPointExtension>
				</extensions>
			  </trkpt>
<trkpt lat="55.752283" lon="48.745276">
				<ele>201.9</ele>
				
				<extensions>
				  <gpxtpx:TrackPointExtension>
					
				  </gpxtpx:TrackPointExtension>
				</extensions>
			  </trkpt>
<trkpt lat="55.752112" lon="48.744519">
				<ele>199.2</ele>
				
				<extensions>
				  <gpxtpx:TrackPointExtension>
					
				  </gpxtpx:TrackPointExtension>
				</extensions>
			  </trkpt>
<trkpt lat="55.751931" lon="48.743742">
				<ele>196.3</ele>
				
				<extensions>
				  <gpxtpx:TrackPointExtension>
					
				  </gpxtpx:TrackPointExtension>
				</extensions>
			  </trkpt>
<trkpt lat="55.752031" lon="48.74364">
				<ele>195.9</ele>
				
				<extensions>
				  <gpxtpx:TrackPointExtension>
					
				  </gpxtpx:TrackPointExtension>
				</extensions>
			  </trkpt>
<trkpt lat="55.752104" lon="48.743358">
				<ele>195.2</ele>
				
				<extensions>
				  <gpxtpx:TrackPointExtension>
					
				  </gpxtpx:TrackPointExtension>
				</extensions>
			  </trkpt>
<trkpt lat="55.752222" lon="48.742864">
				<ele>194.0</ele>
				
				<extensions>
				  <gpxtpx:TrackPointExtension>
					
				  </gpxtpx:TrackPointExtension>
				</extensions>
			  </trkpt>
<trkpt lat="55.752322" lon="48.742476">
				<ele>193.0</ele>
				
				<extensions>
				  <gpxtpx:TrackPointExtension>
					
				  </gpxtpx:TrackPointExtension>
				</extensions>
			  </trkpt>
<trkpt lat="55.752292" lon="48.7424">
				<ele>192.8</ele>
				
				<extensions>
				  <gpxtpx:TrackPointExtension>
					
				  </gpxtpx:TrackPointExtension>
				</extensions>
			  </trkpt>
<trkpt lat="55.752047" lon="48.742261">
				<ele>192.8</ele>
				
				<extensions>
				  <gpxtpx:TrackPointExtension>
					
				  </gpxtpx:TrackPointExtension>
				</extensions>
			  </trkpt>
<trkpt lat="55.751723" lon="48.742151">
				<ele>192.9</ele>
				
				<extensions>
				  <gpxtpx:TrackPointExtension>
					
				  </gpxtpx:TrackPointExtension>
				</extensions>
			  </trkpt>
<trkpt lat="55.751378" lon="48.741955">
				<ele>193.0</ele>
				
				<extensions>
				  <gpxtpx:TrackPointExtension>
					
				  </gpxtpx:TrackPointExtension>
				</extensions>
			  </trkpt>
<trkpt lat="55.751069" lon="48.74181">
				<ele>193.2</ele>
				
				<extensions>
				  <gpxtpx:TrackPointExtension>
					
				  </gpxtpx:TrackPointExtension>
				</extensions>
			  </trkpt>
<trkpt lat="55.750853" lon="48.741751">
				<ele>193.4</ele>
				
				<extensions>
				  <gpxtpx:TrackPointExtension>
					
				  </gpxtpx:TrackPointExtension>
				</extensions>
			  </trkpt>
<trkpt lat="55.750776" lon="48.742011">
				<ele>194.1</ele>
				
				<extensions>
				  <gpxtpx:TrackPointExtension>
					
				  </gpxtpx:TrackPointExtension>
				</extensions>
			  </trkpt>
<trkpt lat="55.75066" lon="48.742569">
				<ele>195.7</ele>
				
				<extensions>
				  <gpxtpx:TrackPointExtension>
					
				  </gpxtpx:TrackPointExtension>
				</extensions>
			  </trkpt>
<trkpt lat="55.750598" lon="48.742744">
				<ele>196.2</ele>
				
				<extensions>
				  <gpxtpx:TrackPointExtension>
					
				  </gpxtpx:TrackPointExtension>
				</extensions>
			  </trkpt>
<trkpt lat="55.75027" lon="48.742398">
				<ele>195.9</ele>
				
				<extensions>
				  <gpxtpx:TrackPointExtension>
					
				  </gpxtpx:TrackPointExtension>
				</extensions>
			  </trkpt>
<trkpt lat="55.749885" lon="48.742006">
				<ele>195.7</ele>
				
				<extensions>
				  <gpxtpx:TrackPointExtension>
					
				  </gpxtpx:TrackPointExtension>
				</extensions>
			  </trkpt>
<trkpt lat="55.749578" lon="48.741746">
				<ele>195.8</ele>
				
				<extensions>
				  <gpxtpx:TrackPointExtension>
					
				  </gpxtpx:TrackPointExtension>
				</extensions>
			  </trkpt>
<trkpt lat="55.749493" lon="48.741617">
				<ele>195.7</ele>
				
				<extensions>
				  <gpxtpx:TrackPointExtension>
					
				  </gpxtpx:TrackPointExtension>
				</extensions>
			  </trkpt>
<trkpt lat="55.745902" lon="48.736729">
				<ele>197.6</ele>
				
				<extensions>
				  <gpxtpx:TrackPointExtension>
					
				  </gpxtpx:TrackPointExtension>
				</extensions>
			  </trkpt>
<trkpt lat="55.745418" lon="48.735872">
				<ele>198.3</ele>
				
				<extensions>
				  <gpxtpx:TrackPointExtension>
					
				  </gpxtpx:TrackPointExtension>
				</extensions>
			  </trkpt>
<trkpt lat="55.745041" lon="48.735212">
				<ele>198.7</ele>
				
				<extensions>
				  <gpxtpx:TrackPointExtension>
					
				  </gpxtpx:TrackPointExtension>
				</extensions>
			  </trkpt>
<trkpt lat="55.744688" lon="48.734563">
				<ele>198.8</ele>
				
				<extensions>
				  <gpxtpx:TrackPointExtension>
					
				  </gpxtpx:TrackPointExtension>
				</extensions>
			  </trkpt>
<trkpt lat="55.74438" lon="48.733917">
				<ele>198.8</ele>
				
				<extensions>
				  <gpxtpx:TrackPointExtension>
					
				  </gpxtpx:TrackPointExtension>
				</extensions>
			  </trkpt>
<trkpt lat="55.743948" lon="48.733058">
				<ele>198.9</ele>
				
				<extensions>
				  <gpxtpx:TrackPointExtension>
					
				  </gpxtpx:TrackPointExtension>
				</extensions>
			  </trkpt>
<trkpt lat="55.743516" lon="48.732085">
				<ele>198.8</ele>
				
				<extensions>
				  <gpxtpx:TrackPointExtension>
					
				  </gpxtpx:TrackPointExtension>
				</extensions>
			  </trkpt>
<trkpt lat="55.743279" lon="48.731524">
				<ele>198.4</ele>
				
				<extensions>
				  <gpxtpx:TrackPointExtension>
					
				  </gpxtpx:TrackPointExtension>
				</extensions>
			  </trkpt>
<trkpt lat="55.743102" lon="48.731106">
				<ele>198.0</ele>
				
				<extensions>
				  <gpxtpx:TrackPointExtension>
					
				  </gpxtpx:TrackPointExtension>
				</extensions>
			  </trkpt>
<trkpt lat="55.743006" lon="48.730845">
				<ele>197.7</ele>
				
				<extensions>
				  <gpxtpx:TrackPointExtension>
					
				  </gpxtpx:TrackPointExtension>
				</extensions>
			  </trkpt>
<trkpt lat="55.742967" lon="48.730741">
				<ele>197.6</ele>
				
				<extensions>
				  <gpxtpx:TrackPointExtension>
					
				  </gpxtpx:TrackPointExtension>
				</extensions>
			  </trkpt>
<trkpt lat="55.743003" lon="48.730794">
				<ele>197.6</ele>
				
				<extensions>
				  <gpxtpx:TrackPointExtension>
					
				  </gpxtpx:TrackPointExtension>
				</extensions>
			  </trkpt>
<trkpt lat="55.743202" lon="48.731309">
				<ele>198.2</ele>
				
				<extensions>
				  <gpxtpx:TrackPointExtension>
					
				  </gpxtpx:TrackPointExtension>
				</extensions>
			  </trkpt>
<trkpt lat="55.74364" lon="48.732313">
				<ele>198.8</ele>
				
				<extensions>
				  <gpxtpx:TrackPointExtension>
					
				  </gpxtpx:TrackPointExtension>
				</extensions>
			  </trkpt>
<trkpt lat="55.743735" lon="48.73253">
				<ele>198.9</ele>
				
				<extensions>
				  <gpxtpx:TrackPointExtension>
					
				  </gpxtpx:TrackPointExtension>
				</extensions>
			  </trkpt>
<trkpt lat="55.744174" lon="48.733533">
				<ele>198.8</ele>
				
				<extensions>
				  <gpxtpx:TrackPointExtension>
					
				  </gpxtpx:TrackPointExtension>
				</extensions>
			  </trkpt>
<trkpt lat="55.744248" lon="48.733702">
				<ele>198.8</ele>
				
				<extensions>
				  <gpxtpx:TrackPointExtension>
					
				  </gpxtpx:TrackPointExtension>
				</extensions>
			  </trkpt>
<trkpt lat="55.744753" lon="48.734603">
				<ele>198.8</ele>
				
				<extensions>
				  <gpxtpx:TrackPointExtension>
					
				  </gpxtpx:TrackPointExtension>
				</extensions>
			  </trkpt>
<trkpt lat="55.744824" lon="48.734729">
				<ele>198.7</ele>
				
				<extensions>
				  <gpxtpx:TrackPointExtension>
					
				  </gpxtpx:TrackPointExtension>
				</extensions>
			  </trkpt>
<trkpt lat="55.745097" lon="48.735258">
				<ele>198.6</ele>
				
				<extensions>
				  <gpxtpx:TrackPointExtension>
					
				  </gpxtpx:TrackPointExtension>
				</extensions>
			  </trkpt>
<trkpt lat="55.745608" lon="48.736146">
				<ele>198.1</ele>
				
				<extensions>
				  <gpxtpx:TrackPointExtension>
					
				  </gpxtpx:TrackPointExtension>
				</extensions>
			  </trkpt>
<trkpt lat="55.745665" lon="48.736245">
				<ele>198.1</ele>
				
				<extensions>
				  <gpxtpx:TrackPointExtension>
					
				  </gpxtpx:TrackPointExtension>
				</extensions>
			  </trkpt>
<trkpt lat="55.746152" lon="48.737175">
				<ele>197.2</ele>
				
				<extensions>
				  <gpxtpx:TrackPointExtension>
					
				  </gpxtpx:TrackPointExtension>
				</extensions>
			  </trkpt>
<trkpt lat="55.746154" lon="48.737178">
				<ele>197.2</ele>
				
				<extensions>
				  <gpxtpx:TrackPointExtension>
					
				  </gpxtpx:TrackPointExtension>
				</extensions>
			  </trkpt>
<trkpt lat="55.746546" lon="48.737792">
				<ele>196.6</ele>
				
				<extensions>
				  <gpxtpx:TrackPointExtension>
					
				  </gpxtpx:TrackPointExtension>
				</extensions>
			  </trkpt>
<trkpt lat="55.747044" lon="48.738439">
				<ele>196.0</ele>
				
				<extensions>
				  <gpxtpx:TrackPointExtension>
					
				  </gpxtpx:TrackPointExtension>
				</extensions>
			  </trkpt>
<trkpt lat="55.747592" lon="48.739256">
				<ele>195.8</ele>
				
				<extensions>
				  <gpxtpx:TrackPointExtension>
					
				  </gpxtpx:TrackPointExtension>
				</extensions>
			  </trkpt>
<trkpt lat="55.74766" lon="48.739359">
				<ele>195.8</ele>
				
				<extensions>
				  <gpxtpx:TrackPointExtension>
					
				  </gpxtpx:TrackPointExtension>
				</extensions>
			  </trkpt>
<trkpt lat="55.747923" lon="48.739681">
				<ele>195.8</ele>
				
				<extensions>
				  <gpxtpx:TrackPointExtension>
					
				  </gpxtpx:TrackPointExtension>
				</extensions>
			  </trkpt>
<trkpt lat="55.747786" lon="48.740086">
				<ele>196.6</ele>
				
				<extensions>
				  <gpxtpx:TrackPointExtension>
					
				  </gpxtpx:TrackPointExtension>
				</extensions>
			  </trkpt>
<trkpt lat="55.747657" lon="48.740534">
				<ele>197.4</ele>
				
				<extensions>
				  <gpxtpx:TrackPointExtension>
					
				  </gpxtpx:TrackPointExtension>
				</extensions>
			  </trkpt>
<trkpt lat="55.747466" lon="48.741059">
				<ele>198.2</ele>
				
				<extensions>
				  <gpxtpx:TrackPointExtension>
					
				  </gpxtpx:TrackPointExtension>
				</extensions>
			  </trkpt>
<trkpt lat="55.747321" lon="48.741494">
				<ele>198.5</ele>
				
				<extensions>
				  <gpxtpx:TrackPointExtension>
					
				  </gpxtpx:TrackPointExtension>
				</extensions>
			  </trkpt>
<trkpt lat="55.747212" lon="48.741792">
				<ele>198.7</ele>
				
				<extensions>
				  <gpxtpx:TrackPointExtension>
					
				  </gpxtpx:TrackPointExtension>
				</extensions>
			  </trkpt>
<trkpt lat="55.747099" lon="48.742113">
				<ele>199.0</ele>
				
				<extensions>
				  <gpxtpx:TrackPointExtension>
					
				  </gpxtpx:TrackPointExtension>
				</extensions>
			  </trkpt>
<trkpt lat="55.747078" lon="48.742245">
				<ele>199.0</ele>
				
				<extensions>
				  <gpxtpx:TrackPointExtension>
					
				  </gpxtpx:TrackPointExtension>
				</extensions>
			  </trkpt>
<trkpt lat="55.747398" lon="48.742545">
				<ele>198.9</ele>
				
				<extensions>
				  <gpxtpx:TrackPointExtension>
					
				  </gpxtpx:TrackPointExtension>
				</extensions>
			  </trkpt>
<trkpt lat="55.747713" lon="48.742832">
				<ele>199.0</ele>
				
				<extensions>
				  <gpxtpx:TrackPointExtension>
					
				  </gpxtpx:TrackPointExtension>
				</extensions>
			  </trkpt>
<trkpt lat="55.747884" lon="48.742993">
				<ele>199.0</ele>
				
				<extensions>
				  <gpxtpx:TrackPointExtension>
					
				  </gpxtpx:TrackPointExtension>
				</extensions>
			  </trkpt>
<trkpt lat="55.748116" lon="48.743229">
				<ele>199.2</ele>
				
				<extensions>
				  <gpxtpx:TrackPointExtension>
					
				  </gpxtpx:TrackPointExtension>
				</extensions>
			  </trkpt>
<trkpt lat="55.748282" lon="48.74332">
				<ele>199.2</ele>
				
				<extensions>
				  <gpxtpx:TrackPointExtension>
					
				  </gpxtpx:TrackPointExtension>
				</extensions>
			  </trkpt>
<trkpt lat="55.748405" lon="48.742926">
				<ele>198.9</ele>
				
				<extensions>
				  <gpxtpx:TrackPointExtension>
					
				  </gpxtpx:TrackPointExtension>
				</extensions>
			  </trkpt>
<trkpt lat="55.748454" lon="48.742776">
				<ele>198.7</ele>
				
				<extensions>
				  <gpxtpx:TrackPointExtension>
					
				  </gpxtpx:TrackPointExtension>
				</extensions>
			  </trkpt>
<trkpt lat="55.748503" lon="48.742644">
				<ele>198.6</ele>
				
				<extensions>
				  <gpxtpx:TrackPointExtension>
					
				  </gpxtpx:TrackPointExtension>
				</extensions>
			  </trkpt>
<trkpt lat="55.748639" lon="48.742749">
				<ele>198.6</ele>
				
				<extensions>
				  <gpxtpx:TrackPointExtension>
					
				  </gpxtpx:TrackPointExtension>
				</extensions>
			  </trkpt>
<trkpt lat="55.748738" lon="48.74283">
				<ele>198.7</ele>
				
				<extensions>
				  <gpxtpx:TrackPointExtension>
					
				  </gpxtpx:TrackPointExtension>
				</extensions>
			  </trkpt>
<trkpt lat="55.748821" lon="48.742709">
				<ele>198.5</ele>
				
				<extensions>
				  <gpxtpx:TrackPointExtension>
					
				  </gpxtpx:TrackPointExtension>
				</extensions>
			  </trkpt>
<trkpt lat="55.749097" lon="48.742958">
				<ele>198.5</ele>
				
				<extensions>
				  <gpxtpx:TrackPointExtension>
					
				  </gpxtpx:TrackPointExtension>
				</extensions>
			  </trkpt>
<trkpt lat="55.749227" lon="48.74309">
				<ele>198.5</ele>
				
				<extensions>
				  <gpxtpx:TrackPointExtension>
					
				  </gpxtpx:TrackPointExtension>
				</extensions>
			  </trkpt>
<trkpt lat="55.749356" lon="48.743092">
				<ele>198.4</ele>
				
				<extensions>
				  <gpxtpx:TrackPointExtension>
					
				  </gpxtpx:TrackPointExtension>
				</extensions>
			  </trkpt>
<trkpt lat="55.749424" lon="48.742808">
				<ele>197.9</ele>
				
				<extensions>
				  <gpxtpx:TrackPointExtension>
					
				  </gpxtpx:TrackPointExtension>
				</extensions>
			  </trkpt>
<trkpt lat="55.749511" lon="48.742626">
				<ele>197.5</ele>
				
				<extensions>
				  <gpxtpx:TrackPointExtension>
					
				  </gpxtpx:TrackPointExtension>
				</extensions>
			  </trkpt>
<trkpt lat="55.749348" lon="48.742467">
				<ele>197.4</ele>
				
				<extensions>
				  <gpxtpx:TrackPointExtension>
					
				  </gpxtpx:TrackPointExtension>
				</extensions>
			  </trkpt>
<trkpt lat="55.749239" lon="48.742344">
				<ele>197.4</ele>
				
				<extensions>
				  <gpxtpx:TrackPointExtension>
					
				  </gpxtpx:TrackPointExtension>
				</extensions>
			  </trkpt>
<trkpt lat="55.749241" lon="48.742253">
				<ele>197.3</ele>
				
				<extensions>
				  <gpxtpx:TrackPointExtension>
					
				  </gpxtpx:TrackPointExtension>
				</extensions>
			  </trkpt>
<trkpt lat="55.749265" lon="48.74214">
				<ele>197.1</ele>
				
				<extensions>
				  <gpxtpx:TrackPointExtension>
					
				  </gpxtpx:TrackPointExtension>
				</extensions>
			  </trkpt>
<trkpt lat="55.749211" lon="48.742062">
				<ele>197.0</ele>
				
				<extensions>
				  <gpxtpx:TrackPointExtension>
					
				  </gpxtpx:TrackPointExtension>
				</extensions>
			  </trkpt>
<trkpt lat="55.749155" lon="48.742003">
				<ele>197.1</ele>
				
				<extensions>
				  <gpxtpx:TrackPointExtension>
					
				  </gpxtpx:TrackPointExtension>
				</extensions>
			  </trkpt>
<trkpt lat="55.74919" lon="48.741888">
				<ele>196.8</ele>
				
				<extensions>
				  <gpxtpx:TrackPointExtension>
					
				  </gpxtpx:TrackPointExtension>
				</extensions>
			  </trkpt>
<trkpt lat="55.749244" lon="48.741789">
				<ele>196.6</ele>
				
				<extensions>
				  <gpxtpx:TrackPointExtension>
					
				  </gpxtpx:TrackPointExtension>
				</extensions>
			  </trkpt>
<trkpt lat="55.749271" lon="48.741682">
				<ele>196.4</ele>
				
				<extensions>
				  <gpxtpx:TrackPointExtension>
					
				  </gpxtpx:TrackPointExtension>
				</extensions>
			  </trkpt>
<trkpt lat="55.749353" lon="48.741714">
				<ele>196.2</ele>
				
				<extensions>
				  <gpxtpx:TrackPointExtension>
					
				  </gpxtpx:TrackPointExtension>
				</extensions>
			  </trkpt>
<trkpt lat="55.749425" lon="48.741655">
				<ele>196.0</ele>
				
				<extensions>
				  <gpxtpx:TrackPointExtension>
					
				  </gpxtpx:TrackPointExtension>
				</extensions>
			  </trkpt>
<trkpt lat="55.749472" lon="48.741615">
				<ele>195.8</ele>
				
				<extensions>
				  <gpxtpx:TrackPointExtension>
					
				  </gpxtpx:TrackPointExtension>
				</extensions>
			  </trkpt>
<trkpt lat="55.74947" lon="48.741569">
				<ele>195.7</ele>
				
				<extensions>
				  <gpxtpx:TrackPointExtension>
					
				  </gpxtpx:TrackPointExtension>
				</extensions>
			  </trkpt>
<trkpt lat="55.749959" lon="48.742084">
				<ele>195.7</ele>
				
				<extensions>
				  <gpxtpx:TrackPointExtension>
					
				  </gpxtpx:TrackPointExtension>
				</extensions>
			  </trkpt>
<trkpt lat="55.750355" lon="48.742535">
				<ele>196.1</ele>
				
				<extensions>
				  <gpxtpx:TrackPointExtension>
					
				  </gpxtpx:TrackPointExtension>
				</extensions>
			  </trkpt>
<trkpt lat="55.750832" lon="48.742958">
				<ele>196.3</ele>
				
				<extensions>
				  <gpxtpx:TrackPointExtension>
					
				  </gpxtpx:TrackPointExtension>
				</extensions>
			  </trkpt>
<trkpt lat="55.751122" lon="48.743227">
				<ele>196.4</ele>
				
				<extensions>
				  <gpxtpx:TrackPointExtension>
					
				  </gpxtpx:TrackPointExtension>
				</extensions>
			  </trkpt>
<trkpt lat="55.751557" lon="48.74365">
				<ele>196.6</ele>
				
				<extensions>
				  <gpxtpx:TrackPointExtension>
					
				  </gpxtpx:TrackPointExtension>
				</extensions>
			  </trkpt>
<trkpt lat="55.751852" lon="48.743543">
				<ele>195.7</ele>
				
				<extensions>
				  <gpxtpx:TrackPointExtension>
					
				  </gpxtpx:TrackPointExtension>
				</extensions>
			  </trkpt>
<trkpt lat="55.752109" lon="48.743307">
				<ele>195.0</ele>
				
				<extensions>
				  <gpxtpx:TrackPointExtension>
					
				  </gpxtpx:TrackPointExtension>
				</extensions>
			  </trkpt>
<trkpt lat="55.752308" lon="48.742561">
				<ele>193.2</ele>
				
				<extensions>
				  <gpxtpx:TrackPointExtension>
					
				  </gpxtpx:TrackPointExtension>
				</extensions>
			  </trkpt>
<trkpt lat="55.752553" lon="48.741478">
				<ele>190.4</ele>
				
				<extensions>
				  <gpxtpx:TrackPointExtension>
					
				  </gpxtpx:TrackPointExtension>
				</extensions>
			  </trkpt>
<trkpt lat="55.752568" lon="48.741397">
				<ele>190.2</ele>
				
				<extensions>
				  <gpxtpx:TrackPointExtension>
					
				  </gpxtpx:TrackPointExtension>
				</extensions>
			  </trkpt>
<trkpt lat="55.75252" lon="48.741472">
				<ele>190.4</ele>
				
				<extensions>
				  <gpxtpx:TrackPointExtension>
					
				  </gpxtpx:TrackPointExtension>
				</extensions>
			  </trkpt>
<trkpt lat="55.752604" lon="48.740965">
				<ele>189.1</ele>
				
				<extensions>
				  <gpxtpx:TrackPointExtension>
					
				  </gpxtpx:TrackPointExtension>
				</extensions>
			  </trkpt>
<trkpt lat="55.752719" lon="48.740214">
				<ele>187.6</ele>
				
				<extensions>
				  <gpxtpx:TrackPointExtension>
					
				  </gpxtpx:TrackPointExtension>
				</extensions>
			  </trkpt>
<trkpt lat="55.752853" lon="48.739361">
				<ele>186.2</ele>
				
				<extensions>
				  <gpxtpx:TrackPointExtension>
					
				  </gpxtpx:TrackPointExtension>
				</extensions>
			  </trkpt>
<trkpt lat="55.7529" lon="48.739021">
				<ele>185.7</ele>
				
				<extensions>
				  <gpxtpx:TrackPointExtension>
					
				  </gpxtpx:TrackPointExtension>
				</extensions>
			  </trkpt>
<trkpt lat="55.752918" lon="48.738833">
				<ele>185.4</ele>
				
				<extensions>
				  <gpxtpx:TrackPointExtension>
					
				  </gpxtpx:TrackPointExtension>
				</extensions>
			  </trkpt>
<trkpt lat="55.753075" lon="48.738908">
				<ele>185.5</ele>
				
				<extensions>
				  <gpxtpx:TrackPointExtension>
					
				  </gpxtpx:TrackPointExtension>
				</extensions>
			  </trkpt>
<trkpt lat="55.753273" lon="48.739024">
				<ele>185.6</ele>
				
				<extensions>
				  <gpxtpx:TrackPointExtension>
					
				  </gpxtpx:TrackPointExtension>
				</extensions>
			  </trkpt>
<trkpt lat="55.75335" lon="48.739235">
				<ele>185.9</ele>
				
				<extensions>
				  <gpxtpx:TrackPointExtension>
					
				  </gpxtpx:TrackPointExtension>
				</extensions>
			  </trkpt>
<trkpt lat="55.753291" lon="48.7396">
				<ele>186.3</ele>
				
				<extensions>
				  <gpxtpx:TrackPointExtension>
					
				  </gpxtpx:TrackPointExtension>
				</extensions>
			  </trkpt>
<trkpt lat="55.753229" lon="48.740056">
				<ele>186.9</ele>
				
				<extensions>
				  <gpxtpx:TrackPointExtension>
					
				  </gpxtpx:TrackPointExtension>
				</extensions>
			  </trkpt>
<trkpt lat="55.75316" lon="48.740475">
				<ele>187.5</ele>
				
				<extensions>
				  <gpxtpx:TrackPointExtension>
					
				  </gpxtpx:TrackPointExtension>
				</extensions>
			  </trkpt>
<trkpt lat="55.753123" lon="48.74078">
				<ele>187.9</ele>
				
				<extensions>
				  <gpxtpx:TrackPointExtension>
					
				  </gpxtpx:TrackPointExtension>
				</extensions>
			  </trkpt>
<trkpt lat="55.753108" lon="48.740904">
				<ele>188.2</ele>
				
				<extensions>
				  <gpxtpx:TrackPointExtension>
					
				  </gpxtpx:TrackPointExtension>
				</extensions>
			  </trkpt>
<trkpt lat="55.753181" lon="48.741075">
				<ele>188.5</ele>
				
				<extensions>
				  <gpxtpx:TrackPointExtension>
					
				  </gpxtpx:TrackPointExtension>
				</extensions>
			  </trkpt>
<trkpt lat="55.753215" lon="48.741285">
				<ele>189.0</ele>
				
				<extensions>
				  <gpxtpx:TrackPointExtension>
					
				  </gpxtpx:TrackPointExtension>
				</extensions>
			  </trkpt>
<trkpt lat="55.753498" lon="48.741429">
				<ele>189.3</ele>
				
				<extensions>
				  <gpxtpx:TrackPointExtension>
					
				  </gpxtpx:TrackPointExtension>
				</extensions>
			  </trkpt>
</trkseg></trk>
</gpx>
