<?xml version="1.0" encoding="UTF-8"?>
		<gpx
			xmlns:xsi="http://www.w3.org/2001/XMLSchema-instance"
			xmlns="http://www.topografix.com/GPX/1/1"
			xsi:schemaLocation="http://www.topografix.com/GPX/1/1 http://www.topografix.com/GPX/1/1/gpx.xsd http://www.garmin.com/xmlschemas/GpxExtensions/v3 http://www.garmin.com/xmlschemas/GpxExtensionsv3.xsd http://www.garmin.com/xmlschemas/TrackPointExtension/v1 http://www.garmin.com/xmlschemas/TrackPointExtensionv1.xsd" xmlns:gpxtpx="http://www.garmin.com/xmlschemas/TrackPointExtension/v1" xmlns:gpxx="http://www.garmin.com/xmlschemas/GpxExtensions/v3"
			version="1.1">

	<metadata>
    <name>0A-1B.3_1B-2B.3_2B-2A.2_2A-3A.2_3A-4A.3_4A-FA.1</name>
    <author>Strava Mobile</author>
    <type>Running</type>
	</metadata>
	
<trk><trkseg>
<trkpt lat="55.753546" lon="48.741472">
				<ele>189.4</ele>
				
				<extensions>
				  <gpxtpx:TrackPointExtension>
					
				  </gpxtpx:TrackPointExtension>
				</extensions>
			  </trkpt>
<trkpt lat="55.753846" lon="48.741593">
				<ele>190.0</ele>
				
				<extensions>
				  <gpxtpx:TrackPointExtension>
					
				  </gpxtpx:TrackPointExtension>
				</extensions>
			  </trkpt>
<trkpt lat="55.754073" lon="48.741674">
				<ele>190.4</ele>
				
				<extensions>
				  <gpxtpx:TrackPointExtension>
					
				  </gpxtpx:TrackPointExtension>
				</extensions>
			  </trkpt>
<trkpt lat="55.754249" lon="48.741821">
				<ele>190.9</ele>
				
				<extensions>
				  <gpxtpx:TrackPointExtension>
					
				  </gpxtpx:TrackPointExtension>
				</extensions>
			  </trkpt>
<trkpt lat="55.7542" lon="48.742097">
				<ele>191.5</ele>
				
				<extensions>
				  <gpxtpx:TrackPointExtension>
					
				  </gpxtpx:TrackPointExtension>
				</extensions>
			  </trkpt>
<trkpt lat="55.754216" lon="48.742398">
				<ele>192.3</ele>
				
				<extensions>
				  <gpxtpx:TrackPointExtension>
					
				  </gpxtpx:TrackPointExtension>
				</extensions>
			  </trkpt>
<trkpt lat="55.754228" lon="48.742626">
				<ele>192.9</ele>
				
				<extensions>
				  <gpxtpx:TrackPointExtension>
					
				  </gpxtpx:TrackPointExtension>
				</extensions>
			  </trkpt>
<trkpt lat="55.754201" lon="48.742875">
				<ele>193.5</ele>
				
				<extensions>
				  <gpxtpx:TrackPointExtension>
					
				  </gpxtpx:TrackPointExtension>
				</extensions>
			  </trkpt>
<trkpt lat="55.754237" lon="48.742988">
				<ele>193.8</ele>
				
				<extensions>
				  <gpxtpx:TrackPointExtension>
					
				  </gpxtpx:TrackPointExtension>
				</extensions>
			  </trkpt>
<trkpt lat="55.754393" lon="48.743079">
				<ele>194.1</ele>
				
				<extensions>
				  <gpxtpx:TrackPointExtension>
					
				  </gpxtpx:TrackPointExtension>
				</extensions>
			  </trkpt>
<trkpt lat="55.754577" lon="48.743189">
				<ele>194.4</ele>
				
				<extensions>
				  <gpxtpx:TrackPointExtension>
					
				  </gpxtpx:TrackPointExtension>
				</extensions>
			  </trkpt>
<trkpt lat="55.754553" lon="48.743548">
				<ele>195.2</ele>
				
				<extensions>
				  <gpxtpx:TrackPointExtension>
					
				  </gpxtpx:TrackPointExtension>
				</extensions>
			  </trkpt>
<trkpt lat="55.754459" lon="48.744184">
				<ele>197.6</ele>
				
				<extensions>
				  <gpxtpx:TrackPointExtension>
					
				  </gpxtpx:TrackPointExtension>
				</extensions>
			  </trkpt>
<trkpt lat="55.754366" lon="48.744849">
				<ele>200.2</ele>
				
				<extensions>
				  <gpxtpx:TrackPointExtension>
					
				  </gpxtpx:TrackPointExtension>
				</extensions>
			  </trkpt>
<trkpt lat="55.754287" lon="48.745359">
				<ele>202.0</ele>
				
				<extensions>
				  <gpxtpx:TrackPointExtension>
					
				  </gpxtpx:TrackPointExtension>
				</extensions>
			  </trkpt>
<trkpt lat="55.754311" lon="48.74548">
				<ele>202.5</ele>
				
				<extensions>
				  <gpxtpx:TrackPointExtension>
					
				  </gpxtpx:TrackPointExtension>
				</extensions>
			  </trkpt>
<trkpt lat="55.754642" lon="48.745616">
				<ele>203.5</ele>
				
				<extensions>
				  <gpxtpx:TrackPointExtension>
					
				  </gpxtpx:TrackPointExtension>
				</extensions>
			  </trkpt>
<trkpt lat="55.754987" lon="48.74582">
				<ele>204.7</ele>
				
				<extensions>
				  <gpxtpx:TrackPointExtension>
					
				  </gpxtpx:TrackPointExtension>
				</extensions>
			  </trkpt>
<trkpt lat="55.755365" lon="48.745887">
				<ele>204.8</ele>
				
				<extensions>
				  <gpxtpx:TrackPointExtension>
					
				  </gpxtpx:TrackPointExtension>
				</extensions>
			  </trkpt>
<trkpt lat="55.755676" lon="48.745997">
				<ele>205.2</ele>
				
				<extensions>
				  <gpxtpx:TrackPointExtension>
					
				  </gpxtpx:TrackPointExtension>
				</extensions>
			  </trkpt>
<trkpt lat="55.75611" lon="48.746048">
				<ele>205.2</ele>
				
				<extensions>
				  <gpxtpx:TrackPointExtension>
					
				  </gpxtpx:TrackPointExtension>
				</extensions>
			  </trkpt>
<trkpt lat="55.756446" lon="48.746129">
				<ele>205.4</ele>
				
				<extensions>
				  <gpxtpx:TrackPointExtension>
					
				  </gpxtpx:TrackPointExtension>
				</extensions>
			  </trkpt>
<trkpt lat="55.756737" lon="48.746032">
				<ele>204.1</ele>
				
				<extensions>
				  <gpxtpx:TrackPointExtension>
					
				  </gpxtpx:TrackPointExtension>
				</extensions>
			  </trkpt>
<trkpt lat="55.756957" lon="48.746035">
				<ele>203.2</ele>
				
				<extensions>
				  <gpxtpx:TrackPointExtension>
					
				  </gpxtpx:TrackPointExtension>
				</extensions>
			  </trkpt>
<trkpt lat="55.75696" lon="48.745997">
				<ele>203.1</ele>
				
				<extensions>
				  <gpxtpx:TrackPointExtension>
					
				  </gpxtpx:TrackPointExtension>
				</extensions>
			  </trkpt>
<trkpt lat="55.756767" lon="48.746075">
				<ele>204.1</ele>
				
				<extensions>
				  <gpxtpx:TrackPointExtension>
					
				  </gpxtpx:TrackPointExtension>
				</extensions>
			  </trkpt>
<trkpt lat="55.756479" lon="48.746067">
				<ele>205.2</ele>
				
				<extensions>
				  <gpxtpx:TrackPointExtension>
					
				  </gpxtpx:TrackPointExtension>
				</extensions>
			  </trkpt>
<trkpt lat="55.756189" lon="48.746105">
				<ele>205.4</ele>
				
				<extensions>
				  <gpxtpx:TrackPointExtension>
					
				  </gpxtpx:TrackPointExtension>
				</extensions>
			  </trkpt>
<trkpt lat="55.755898" lon="48.746056">
				<ele>205.3</ele>
				
				<extensions>
				  <gpxtpx:TrackPointExtension>
					
				  </gpxtpx:TrackPointExtension>
				</extensions>
			  </trkpt>
<trkpt lat="55.755458" lon="48.745957">
				<ele>205.1</ele>
				
				<extensions>
				  <gpxtpx:TrackPointExtension>
					
				  </gpxtpx:TrackPointExtension>
				</extensions>
			  </trkpt>
<trkpt lat="55.755102" lon="48.745895">
				<ele>205.0</ele>
				
				<extensions>
				  <gpxtpx:TrackPointExtension>
					
				  </gpxtpx:TrackPointExtension>
				</extensions>
			  </trkpt>
<trkpt lat="55.754716" lon="48.745716">
				<ele>204.0</ele>
				
				<extensions>
				  <gpxtpx:TrackPointExtension>
					
				  </gpxtpx:TrackPointExtension>
				</extensions>
			  </trkpt>
<trkpt lat="55.754361" lon="48.745477">
				<ele>202.6</ele>
				
				<extensions>
				  <gpxtpx:TrackPointExtension>
					
				  </gpxtpx:TrackPointExtension>
				</extensions>
			  </trkpt>
<trkpt lat="55.754025" lon="48.745308">
				<ele>201.6</ele>
				
				<extensions>
				  <gpxtpx:TrackPointExtension>
					
				  </gpxtpx:TrackPointExtension>
				</extensions>
			  </trkpt>
<trkpt lat="55.753686" lon="48.745075">
				<ele>200.4</ele>
				
				<extensions>
				  <gpxtpx:TrackPointExtension>
					
				  </gpxtpx:TrackPointExtension>
				</extensions>
			  </trkpt>
<trkpt lat="55.753327" lon="48.744881">
				<ele>199.5</ele>
				
				<extensions>
				  <gpxtpx:TrackPointExtension>
					
				  </gpxtpx:TrackPointExtension>
				</extensions>
			  </trkpt>
<trkpt lat="55.753001" lon="48.744648">
				<ele>199.0</ele>
				
				<extensions>
				  <gpxtpx:TrackPointExtension>
					
				  </gpxtpx:TrackPointExtension>
				</extensions>
			  </trkpt>
<trkpt lat="55.752754" lon="48.744498">
				<ele>198.6</ele>
				
				<extensions>
				  <gpxtpx:TrackPointExtension>
					
				  </gpxtpx:TrackPointExtension>
				</extensions>
			  </trkpt>
<trkpt lat="55.752624" lon="48.744147">
				<ele>197.5</ele>
				
				<extensions>
				  <gpxtpx:TrackPointExtension>
					
				  </gpxtpx:TrackPointExtension>
				</extensions>
			  </trkpt>
<trkpt lat="55.752568" lon="48.743886">
				<ele>196.5</ele>
				
				<extensions>
				  <gpxtpx:TrackPointExtension>
					
				  </gpxtpx:TrackPointExtension>
				</extensions>
			  </trkpt>
<trkpt lat="55.752464" lon="48.74394">
				<ele>196.8</ele>
				
				<extensions>
				  <gpxtpx:TrackPointExtension>
					
				  </gpxtpx:TrackPointExtension>
				</extensions>
			  </trkpt>
<trkpt lat="55.752515" lon="48.744122">
				<ele>197.4</ele>
				
				<extensions>
				  <gpxtpx:TrackPointExtension>
					
				  </gpxtpx:TrackPointExtension>
				</extensions>
			  </trkpt>
<trkpt lat="55.752094" lon="48.744533">
				<ele>199.3</ele>
				
				<extensions>
				  <gpxtpx:TrackPointExtension>
					
				  </gpxtpx:TrackPointExtension>
				</extensions>
			  </trkpt>
<trkpt lat="55.752289" lon="48.745354">
				<ele>202.2</ele>
				
				<extensions>
				  <gpxtpx:TrackPointExtension>
					
				  </gpxtpx:TrackPointExtension>
				</extensions>
			  </trkpt>
<trkpt lat="55.752154" lon="48.745494">
				<ele>202.9</ele>
				
				<extensions>
				  <gpxtpx:TrackPointExtension>
					
				  </gpxtpx:TrackPointExtension>
				</extensions>
			  </trkpt>
<trkpt lat="55.752159" lon="48.745681">
				<ele>203.6</ele>
				
				<extensions>
				  <gpxtpx:TrackPointExtension>
					
				  </gpxtpx:TrackPointExtension>
				</extensions>
			  </trkpt>
<trkpt lat="55.75209" lon="48.745791">
				<ele>204.1</ele>
				
				<extensions>
				  <gpxtpx:TrackPointExtension>
					
				  </gpxtpx:TrackPointExtension>
				</extensions>
			  </trkpt>
<trkpt lat="55.752007" lon="48.746134">
				<ele>205.5</ele>
				
				<extensions>
				  <gpxtpx:TrackPointExtension>
					
				  </gpxtpx:TrackPointExtension>
				</extensions>
			  </trkpt>
<trkpt lat="55.75188" lon="48.746657">
				<ele>207.2</ele>
				
				<extensions>
				  <gpxtpx:TrackPointExtension>
					
				  </gpxtpx:TrackPointExtension>
				</extensions>
			  </trkpt>
<trkpt lat="55.751772" lon="48.74714">
				<ele>208.5</ele>
				
				<extensions>
				  <gpxtpx:TrackPointExtension>
					
				  </gpxtpx:TrackPointExtension>
				</extensions>
			  </trkpt>
<trkpt lat="55.751657" lon="48.747655">
				<ele>209.7</ele>
				
				<extensions>
				  <gpxtpx:TrackPointExtension>
					
				  </gpxtpx:TrackPointExtension>
				</extensions>
			  </trkpt>
<trkpt lat="55.75158" lon="48.748016">
				<ele>210.5</ele>
				
				<extensions>
				  <gpxtpx:TrackPointExtension>
					
				  </gpxtpx:TrackPointExtension>
				</extensions>
			  </trkpt>
<trkpt lat="55.751506" lon="48.748346">
				<ele>211.2</ele>
				
				<extensions>
				  <gpxtpx:TrackPointExtension>
					
				  </gpxtpx:TrackPointExtension>
				</extensions>
			  </trkpt>
<trkpt lat="55.751442" lon="48.748646">
				<ele>211.8</ele>
				
				<extensions>
				  <gpxtpx:TrackPointExtension>
					
				  </gpxtpx:TrackPointExtension>
				</extensions>
			  </trkpt>
<trkpt lat="55.75136" lon="48.749032">
				<ele>212.6</ele>
				
				<extensions>
				  <gpxtpx:TrackPointExtension>
					
				  </gpxtpx:TrackPointExtension>
				</extensions>
			  </trkpt>
<trkpt lat="55.751239" lon="48.749648">
				<ele>211.0</ele>
				
				<extensions>
				  <gpxtpx:TrackPointExtension>
					
				  </gpxtpx:TrackPointExtension>
				</extensions>
			  </trkpt>
<trkpt lat="55.75122" lon="48.749748">
				<ele>210.7</ele>
				
				<extensions>
				  <gpxtpx:TrackPointExtension>
					
				  </gpxtpx:TrackPointExtension>
				</extensions>
			  </trkpt>
<trkpt lat="55.751226" lon="48.749763">
				<ele>210.7</ele>
				
				<extensions>
				  <gpxtpx:TrackPointExtension>
					
				  </gpxtpx:TrackPointExtension>
				</extensions>
			  </trkpt>
<trkpt lat="55.751501" lon="48.749956">
				<ele>210.6</ele>
				
				<extensions>
				  <gpxtpx:TrackPointExtension>
					
				  </gpxtpx:TrackPointExtension>
				</extensions>
			  </trkpt>
<trkpt lat="55.751828" lon="48.750139">
				<ele>210.9</ele>
				
				<extensions>
				  <gpxtpx:TrackPointExtension>
					
				  </gpxtpx:TrackPointExtension>
				</extensions>
			  </trkpt>
<trkpt lat="55.752183" lon="48.750391">
				<ele>209.7</ele>
				
				<extensions>
				  <gpxtpx:TrackPointExtension>
					
				  </gpxtpx:TrackPointExtension>
				</extensions>
			  </trkpt>
<trkpt lat="55.752538" lon="48.750573">
				<ele>208.6</ele>
				
				<extensions>
				  <gpxtpx:TrackPointExtension>
					
				  </gpxtpx:TrackPointExtension>
				</extensions>
			  </trkpt>
<trkpt lat="55.752879" lon="48.751042">
				<ele>207.3</ele>
				
				<extensions>
				  <gpxtpx:TrackPointExtension>
					
				  </gpxtpx:TrackPointExtension>
				</extensions>
			  </trkpt>
<trkpt lat="55.752997" lon="48.751579">
				<ele>206.5</ele>
				
				<extensions>
				  <gpxtpx:TrackPointExtension>
					
				  </gpxtpx:TrackPointExtension>
				</extensions>
			  </trkpt>
<trkpt lat="55.75298" lon="48.751638">
				<ele>206.4</ele>
				
				<extensions>
				  <gpxtpx:TrackPointExtension>
					
				  </gpxtpx:TrackPointExtension>
				</extensions>
			  </trkpt>
<trkpt lat="55.752745" lon="48.751764">
				<ele>206.6</ele>
				
				<extensions>
				  <gpxtpx:TrackPointExtension>
					
				  </gpxtpx:TrackPointExtension>
				</extensions>
			  </trkpt>
<trkpt lat="55.752551" lon="48.751885">
				<ele>206.5</ele>
				
				<extensions>
				  <gpxtpx:TrackPointExtension>
					
				  </gpxtpx:TrackPointExtension>
				</extensions>
			  </trkpt>
<trkpt lat="55.752515" lon="48.751906">
				<ele>206.4</ele>
				
				<extensions>
				  <gpxtpx:TrackPointExtension>
					
				  </gpxtpx:TrackPointExtension>
				</extensions>
			  </trkpt>
<trkpt lat="55.752458" lon="48.752">
				<ele>206.1</ele>
				
				<extensions>
				  <gpxtpx:TrackPointExtension>
					
				  </gpxtpx:TrackPointExtension>
				</extensions>
			  </trkpt>
<trkpt lat="55.752434" lon="48.752762">
				<ele>203.1</ele>
				
				<extensions>
				  <gpxtpx:TrackPointExtension>
					
				  </gpxtpx:TrackPointExtension>
				</extensions>
			  </trkpt>
<trkpt lat="55.752056" lon="48.753207">
				<ele>201.8</ele>
				
				<extensions>
				  <gpxtpx:TrackPointExtension>
					
				  </gpxtpx:TrackPointExtension>
				</extensions>
			  </trkpt>
<trkpt lat="55.751747" lon="48.753247">
				<ele>201.6</ele>
				
				<extensions>
				  <gpxtpx:TrackPointExtension>
					
				  </gpxtpx:TrackPointExtension>
				</extensions>
			  </trkpt>
<trkpt lat="55.751537" lon="48.753113">
				<ele>201.5</ele>
				
				<extensions>
				  <gpxtpx:TrackPointExtension>
					
				  </gpxtpx:TrackPointExtension>
				</extensions>
			  </trkpt>
<trkpt lat="55.751415" lon="48.753041">
				<ele>201.4</ele>
				
				<extensions>
				  <gpxtpx:TrackPointExtension>
					
				  </gpxtpx:TrackPointExtension>
				</extensions>
			  </trkpt>
<trkpt lat="55.751339" lon="48.753081">
				<ele>201.0</ele>
				
				<extensions>
				  <gpxtpx:TrackPointExtension>
					
				  </gpxtpx:TrackPointExtension>
				</extensions>
			  </trkpt>
<trkpt lat="55.751253" lon="48.753194">
				<ele>200.4</ele>
				
				<extensions>
				  <gpxtpx:TrackPointExtension>
					
				  </gpxtpx:TrackPointExtension>
				</extensions>
			  </trkpt>
<trkpt lat="55.751194" lon="48.753218">
				<ele>200.1</ele>
				
				<extensions>
				  <gpxtpx:TrackPointExtension>
					
				  </gpxtpx:TrackPointExtension>
				</extensions>
			  </trkpt>
<trkpt lat="55.751113" lon="48.753124">
				<ele>200.2</ele>
				
				<extensions>
				  <gpxtpx:TrackPointExtension>
					
				  </gpxtpx:TrackPointExtension>
				</extensions>
			  </trkpt>
<trkpt lat="55.75106" lon="48.753041">
				<ele>200.3</ele>
				
				<extensions>
				  <gpxtpx:TrackPointExtension>
					
				  </gpxtpx:TrackPointExtension>
				</extensions>
			  </trkpt>
<trkpt lat="55.751016" lon="48.753057">
				<ele>200.1</ele>
				
				<extensions>
				  <gpxtpx:TrackPointExtension>
					
				  </gpxtpx:TrackPointExtension>
				</extensions>
			  </trkpt>
<trkpt lat="55.75095" lon="48.752974">
				<ele>200.2</ele>
				
				<extensions>
				  <gpxtpx:TrackPointExtension>
					
				  </gpxtpx:TrackPointExtension>
				</extensions>
			  </trkpt>
<trkpt lat="55.75088" lon="48.75263">
				<ele>201.0</ele>
				
				<extensions>
				  <gpxtpx:TrackPointExtension>
					
				  </gpxtpx:TrackPointExtension>
				</extensions>
			  </trkpt>
<trkpt lat="55.750821" lon="48.752319">
				<ele>201.7</ele>
				
				<extensions>
				  <gpxtpx:TrackPointExtension>
					
				  </gpxtpx:TrackPointExtension>
				</extensions>
			  </trkpt>
<trkpt lat="55.750935" lon="48.751611">
				<ele>204.3</ele>
				
				<extensions>
				  <gpxtpx:TrackPointExtension>
					
				  </gpxtpx:TrackPointExtension>
				</extensions>
			  </trkpt>
<trkpt lat="55.751006" lon="48.751013">
				<ele>206.4</ele>
				
				<extensions>
				  <gpxtpx:TrackPointExtension>
					
				  </gpxtpx:TrackPointExtension>
				</extensions>
			  </trkpt>
<trkpt lat="55.751111" lon="48.750383">
				<ele>208.6</ele>
				
				<extensions>
				  <gpxtpx:TrackPointExtension>
					
				  </gpxtpx:TrackPointExtension>
				</extensions>
			  </trkpt>
<trkpt lat="55.751196" lon="48.749905">
				<ele>210.2</ele>
				
				<extensions>
				  <gpxtpx:TrackPointExtension>
					
				  </gpxtpx:TrackPointExtension>
				</extensions>
			  </trkpt>
<trkpt lat="55.751274" lon="48.749355">
				<ele>211.9</ele>
				
				<extensions>
				  <gpxtpx:TrackPointExtension>
					
				  </gpxtpx:TrackPointExtension>
				</extensions>
			  </trkpt>
<trkpt lat="55.751381" lon="48.748886">
				<ele>212.3</ele>
				
				<extensions>
				  <gpxtpx:TrackPointExtension>
					
				  </gpxtpx:TrackPointExtension>
				</extensions>
			  </trkpt>
<trkpt lat="55.751516" lon="48.748256">
				<ele>211.0</ele>
				
				<extensions>
				  <gpxtpx:TrackPointExtension>
					
				  </gpxtpx:TrackPointExtension>
				</extensions>
			  </trkpt>
<trkpt lat="55.751596" lon="48.748014">
				<ele>210.5</ele>
				
				<extensions>
				  <gpxtpx:TrackPointExtension>
					
				  </gpxtpx:TrackPointExtension>
				</extensions>
			  </trkpt>
<trkpt lat="55.751557" lon="48.748114">
				<ele>210.7</ele>
				
				<extensions>
				  <gpxtpx:TrackPointExtension>
					
				  </gpxtpx:TrackPointExtension>
				</extensions>
			  </trkpt>
<trkpt lat="55.751739" lon="48.747212">
				<ele>208.7</ele>
				
				<extensions>
				  <gpxtpx:TrackPointExtension>
					
				  </gpxtpx:TrackPointExtension>
				</extensions>
			  </trkpt>
<trkpt lat="55.751952" lon="48.74641">
				<ele>206.5</ele>
				
				<extensions>
				  <gpxtpx:TrackPointExtension>
					
				  </gpxtpx:TrackPointExtension>
				</extensions>
			  </trkpt>
<trkpt lat="55.752079" lon="48.745756">
				<ele>204.0</ele>
				
				<extensions>
				  <gpxtpx:TrackPointExtension>
					
				  </gpxtpx:TrackPointExtension>
				</extensions>
			  </trkpt>
<trkpt lat="55.752142" lon="48.745509">
				<ele>202.9</ele>
				
				<extensions>
				  <gpxtpx:TrackPointExtension>
					
				  </gpxtpx:TrackPointExtension>
				</extensions>
			  </trkpt>
<trkpt lat="55.752283" lon="48.745276">
				<ele>201.9</ele>
				
				<extensions>
				  <gpxtpx:TrackPointExtension>
					
				  </gpxtpx:TrackPointExtension>
				</extensions>
			  </trkpt>
<trkpt lat="55.752112" lon="48.744519">
				<ele>199.2</ele>
				
				<extensions>
				  <gpxtpx:TrackPointExtension>
					
				  </gpxtpx:TrackPointExtension>
				</extensions>
			  </trkpt>
<trkpt lat="55.751931" lon="48.743742">
				<ele>196.3</ele>
				
				<extensions>
				  <gpxtpx:TrackPointExtension>
					
				  </gpxtpx:TrackPointExtension>
				</extensions>
			  </trkpt>
<trkpt lat="55.752031" lon="48.74364">
				<ele>195.9</ele>
				
				<extensions>
				  <gpxtpx:TrackPointExtension>
					
				  </gpxtpx:TrackPointExtension>
				</extensions>
			  </trkpt>
<trkpt lat="55.752104" lon="48.743358">
				<ele>195.2</ele>
				
				<extensions>
				  <gpxtpx:TrackPointExtension>
					
				  </gpxtpx:TrackPointExtension>
				</extensions>
			  </trkpt>
<trkpt lat="55.752222" lon="48.742864">
				<ele>194.0</ele>
				
				<extensions>
				  <gpxtpx:TrackPointExtension>
					
				  </gpxtpx:TrackPointExtension>
				</extensions>
			  </trkpt>
<trkpt lat="55.752322" lon="48.742476">
				<ele>193.0</ele>
				
				<extensions>
				  <gpxtpx:TrackPointExtension>
					
				  </gpxtpx:TrackPointExtension>
				</extensions>
			  </trkpt>
<trkpt lat="55.752292" lon="48.7424">
				<ele>192.8</ele>
				
				<extensions>
				  <gpxtpx:TrackPointExtension>
					
				  </gpxtpx:TrackPointExtension>
				</extensions>
			  </trkpt>
<trkpt lat="55.752047" lon="48.742261">
				<ele>192.8</ele>
				
				<extensions>
				  <gpxtpx:TrackPointExtension>
					
				  </gpxtpx:TrackPointExtension>
				</extensions>
			  </trkpt>
<trkpt lat="55.751723" lon="48.742151">
				<ele>192.9</ele>
				
				<extensions>
				  <gpxtpx:TrackPointExtension>
					
				  </gpxtpx:TrackPointExtension>
				</extensions>
			  </trkpt>
<trkpt lat="55.751378" lon="48.741955">
				<ele>193.0</ele>
				
				<extensions>
				  <gpxtpx:TrackPointExtension>
					
				  </gpxtpx:TrackPointExtension>
				</extensions>
			  </trkpt>
<trkpt lat="55.751069" lon="48.74181">
				<ele>193.2</ele>
				
				<extensions>
				  <gpxtpx:TrackPointExtension>
					
				  </gpxtpx:TrackPointExtension>
				</extensions>
			  </trkpt>
<trkpt lat="55.750853" lon="48.741751">
				<ele>193.4</ele>
				
				<extensions>
				  <gpxtpx:TrackPointExtension>
					
				  </gpxtpx:TrackPointExtension>
				</extensions>
			  </trkpt>
<trkpt lat="55.750776" lon="48.742011">
				<ele>194.1</ele>
				
				<extensions>
				  <gpxtpx:TrackPointExtension>
					
				  </gpxtpx:TrackPointExtension>
				</extensions>
			  </trkpt>
<trkpt lat="55.75066" lon="48.742569">
				<ele>195.7</ele>
				
				<extensions>
				  <gpxtpx:TrackPointExtension>
					
				  </gpxtpx:TrackPointExtension>
				</extensions>
			  </trkpt>
<trkpt lat="55.750598" lon="48.742744">
				<ele>196.2</ele>
				
				<extensions>
				  <gpxtpx:TrackPointExtension>
					
				  </gpxtpx:TrackPointExtension>
				</extensions>
			  </trkpt>
<trkpt lat="55.75027" lon="48.742398">
				<ele>195.9</ele>
				
				<extensions>
				  <gpxtpx:TrackPointExtension>
					
				  </gpxtpx:TrackPointExtension>
				</extensions>
			  </trkpt>
<trkpt lat="55.749885" lon="48.742006">
				<ele>195.7</ele>
				
				<extensions>
				  <gpxtpx:TrackPointExtension>
					
				  </gpxtpx:TrackPointExtension>
				</extensions>
			  </trkpt>
<trkpt lat="55.749578" lon="48.741746">
				<ele>195.8</ele>
				
				<extensions>
				  <gpxtpx:TrackPointExtension>
					
				  </gpxtpx:TrackPointExtension>
				</extensions>
			  </trkpt>
<trkpt lat="55.749493" lon="48.741617">
				<ele>195.7</ele>
				
				<extensions>
				  <gpxtpx:TrackPointExtension>
					
				  </gpxtpx:TrackPointExtension>
				</extensions>
			  </trkpt>
<trkpt lat="55.745912" lon="48.736773">
				<ele>197.6</ele>
				
				<extensions>
				  <gpxtpx:TrackPointExtension>
					
				  </gpxtpx:TrackPointExtension>
				</extensions>
			  </trkpt>
<trkpt lat="55.745402" lon="48.735883">
				<ele>198.4</ele>
				
				<extensions>
				  <gpxtpx:TrackPointExtension>
					
				  </gpxtpx:TrackPointExtension>
				</extensions>
			  </trkpt>
<trkpt lat="55.74532" lon="48.73574">
				<ele>198.5</ele>
				
				<extensions>
				  <gpxtpx:TrackPointExtension>
					
				  </gpxtpx:TrackPointExtension>
				</extensions>
			  </trkpt>
<trkpt lat="55.744953" lon="48.735086">
				<ele>198.7</ele>
				
				<extensions>
				  <gpxtpx:TrackPointExtension>
					
				  </gpxtpx:TrackPointExtension>
				</extensions>
			  </trkpt>
<trkpt lat="55.744653" lon="48.734533">
				<ele>198.9</ele>
				
				<extensions>
				  <gpxtpx:TrackPointExtension>
					
				  </gpxtpx:TrackPointExtension>
				</extensions>
			  </trkpt>
<trkpt lat="55.744235" lon="48.733702">
				<ele>198.9</ele>
				
				<extensions>
				  <gpxtpx:TrackPointExtension>
					
				  </gpxtpx:TrackPointExtension>
				</extensions>
			  </trkpt>
<trkpt lat="55.743898" lon="48.732975">
				<ele>198.9</ele>
				
				<extensions>
				  <gpxtpx:TrackPointExtension>
					
				  </gpxtpx:TrackPointExtension>
				</extensions>
			  </trkpt>
<trkpt lat="55.743537" lon="48.732184">
				<ele>198.9</ele>
				
				<extensions>
				  <gpxtpx:TrackPointExtension>
					
				  </gpxtpx:TrackPointExtension>
				</extensions>
			  </trkpt>
<trkpt lat="55.743208" lon="48.731414">
				<ele>198.3</ele>
				
				<extensions>
				  <gpxtpx:TrackPointExtension>
					
				  </gpxtpx:TrackPointExtension>
				</extensions>
			  </trkpt>
<trkpt lat="55.743006" lon="48.730902">
				<ele>197.8</ele>
				
				<extensions>
				  <gpxtpx:TrackPointExtension>
					
				  </gpxtpx:TrackPointExtension>
				</extensions>
			  </trkpt>
<trkpt lat="55.742912" lon="48.73066">
				<ele>197.5</ele>
				
				<extensions>
				  <gpxtpx:TrackPointExtension>
					
				  </gpxtpx:TrackPointExtension>
				</extensions>
			  </trkpt>
<trkpt lat="55.743" lon="48.730717">
				<ele>197.5</ele>
				
				<extensions>
				  <gpxtpx:TrackPointExtension>
					
				  </gpxtpx:TrackPointExtension>
				</extensions>
			  </trkpt>
<trkpt lat="55.743261" lon="48.731441">
				<ele>198.3</ele>
				
				<extensions>
				  <gpxtpx:TrackPointExtension>
					
				  </gpxtpx:TrackPointExtension>
				</extensions>
			  </trkpt>
<trkpt lat="55.743673" lon="48.73242">
				<ele>198.9</ele>
				
				<extensions>
				  <gpxtpx:TrackPointExtension>
					
				  </gpxtpx:TrackPointExtension>
				</extensions>
			  </trkpt>
<trkpt lat="55.743898" lon="48.732919">
				<ele>198.9</ele>
				
				<extensions>
				  <gpxtpx:TrackPointExtension>
					
				  </gpxtpx:TrackPointExtension>
				</extensions>
			  </trkpt>
<trkpt lat="55.744112" lon="48.733412">
				<ele>198.8</ele>
				
				<extensions>
				  <gpxtpx:TrackPointExtension>
					
				  </gpxtpx:TrackPointExtension>
				</extensions>
			  </trkpt>
<trkpt lat="55.744595" lon="48.73435">
				<ele>198.8</ele>
				
				<extensions>
				  <gpxtpx:TrackPointExtension>
					
				  </gpxtpx:TrackPointExtension>
				</extensions>
			  </trkpt>
<trkpt lat="55.744647" lon="48.73445">
				<ele>198.8</ele>
				
				<extensions>
				  <gpxtpx:TrackPointExtension>
					
				  </gpxtpx:TrackPointExtension>
				</extensions>
			  </trkpt>
<trkpt lat="55.74487" lon="48.734874">
				<ele>198.7</ele>
				
				<extensions>
				  <gpxtpx:TrackPointExtension>
					
				  </gpxtpx:TrackPointExtension>
				</extensions>
			  </trkpt>
<trkpt lat="55.745357" lon="48.735751">
				<ele>198.4</ele>
				
				<extensions>
				  <gpxtpx:TrackPointExtension>
					
				  </gpxtpx:TrackPointExtension>
				</extensions>
			  </trkpt>
<trkpt lat="55.745761" lon="48.736446">
				<ele>197.9</ele>
				
				<extensions>
				  <gpxtpx:TrackPointExtension>
					
				  </gpxtpx:TrackPointExtension>
				</extensions>
			  </trkpt>
<trkpt lat="55.746051" lon="48.736977">
				<ele>197.4</ele>
				
				<extensions>
				  <gpxtpx:TrackPointExtension>
					
				  </gpxtpx:TrackPointExtension>
				</extensions>
			  </trkpt>
<trkpt lat="55.746371" lon="48.737508">
				<ele>196.9</ele>
				
				<extensions>
				  <gpxtpx:TrackPointExtension>
					
				  </gpxtpx:TrackPointExtension>
				</extensions>
			  </trkpt>
<trkpt lat="55.746709" lon="48.737996">
				<ele>196.4</ele>
				
				<extensions>
				  <gpxtpx:TrackPointExtension>
					
				  </gpxtpx:TrackPointExtension>
				</extensions>
			  </trkpt>
<trkpt lat="55.747007" lon="48.738447">
				<ele>196.1</ele>
				
				<extensions>
				  <gpxtpx:TrackPointExtension>
					
				  </gpxtpx:TrackPointExtension>
				</extensions>
			  </trkpt>
<trkpt lat="55.747358" lon="48.738986">
				<ele>196.0</ele>
				
				<extensions>
				  <gpxtpx:TrackPointExtension>
					
				  </gpxtpx:TrackPointExtension>
				</extensions>
			  </trkpt>
<trkpt lat="55.747645" lon="48.739367">
				<ele>195.8</ele>
				
				<extensions>
				  <gpxtpx:TrackPointExtension>
					
				  </gpxtpx:TrackPointExtension>
				</extensions>
			  </trkpt>
<trkpt lat="55.747834" lon="48.739632">
				<ele>195.8</ele>
				
				<extensions>
				  <gpxtpx:TrackPointExtension>
					
				  </gpxtpx:TrackPointExtension>
				</extensions>
			  </trkpt>
<trkpt lat="55.748104" lon="48.739992">
				<ele>195.9</ele>
				
				<extensions>
				  <gpxtpx:TrackPointExtension>
					
				  </gpxtpx:TrackPointExtension>
				</extensions>
			  </trkpt>
<trkpt lat="55.748373" lon="48.74034">
				<ele>196.1</ele>
				
				<extensions>
				  <gpxtpx:TrackPointExtension>
					
				  </gpxtpx:TrackPointExtension>
				</extensions>
			  </trkpt>
<trkpt lat="55.748738" lon="48.74077">
				<ele>196.5</ele>
				
				<extensions>
				  <gpxtpx:TrackPointExtension>
					
				  </gpxtpx:TrackPointExtension>
				</extensions>
			  </trkpt>
<trkpt lat="55.748974" lon="48.741006">
				<ele>196.2</ele>
				
				<extensions>
				  <gpxtpx:TrackPointExtension>
					
				  </gpxtpx:TrackPointExtension>
				</extensions>
			  </trkpt>
<trkpt lat="55.749264" lon="48.741378">
				<ele>195.9</ele>
				
				<extensions>
				  <gpxtpx:TrackPointExtension>
					
				  </gpxtpx:TrackPointExtension>
				</extensions>
			  </trkpt>
<trkpt lat="55.749472" lon="48.741608">
				<ele>195.8</ele>
				
				<extensions>
				  <gpxtpx:TrackPointExtension>
					
				  </gpxtpx:TrackPointExtension>
				</extensions>
			  </trkpt>
<trkpt lat="55.749455" lon="48.741564">
				<ele>195.7</ele>
				
				<extensions>
				  <gpxtpx:TrackPointExtension>
					
				  </gpxtpx:TrackPointExtension>
				</extensions>
			  </trkpt>
<trkpt lat="55.750073" lon="48.742202">
				<ele>195.8</ele>
				
				<extensions>
				  <gpxtpx:TrackPointExtension>
					
				  </gpxtpx:TrackPointExtension>
				</extensions>
			  </trkpt>
<trkpt lat="55.750322" lon="48.742459">
				<ele>196.0</ele>
				
				<extensions>
				  <gpxtpx:TrackPointExtension>
					
				  </gpxtpx:TrackPointExtension>
				</extensions>
			  </trkpt>
<trkpt lat="55.750603" lon="48.74269">
				<ele>196.0</ele>
				
				<extensions>
				  <gpxtpx:TrackPointExtension>
					
				  </gpxtpx:TrackPointExtension>
				</extensions>
			  </trkpt>
<trkpt lat="55.750814" lon="48.742395">
				<ele>195.0</ele>
				
				<extensions>
				  <gpxtpx:TrackPointExtension>
					
				  </gpxtpx:TrackPointExtension>
				</extensions>
			  </trkpt>
<trkpt lat="55.7512" lon="48.742572">
				<ele>194.7</ele>
				
				<extensions>
				  <gpxtpx:TrackPointExtension>
					
				  </gpxtpx:TrackPointExtension>
				</extensions>
			  </trkpt>
<trkpt lat="55.751475" lon="48.742728">
				<ele>194.6</ele>
				
				<extensions>
				  <gpxtpx:TrackPointExtension>
					
				  </gpxtpx:TrackPointExtension>
				</extensions>
			  </trkpt>
<trkpt lat="55.751774" lon="48.742915">
				<ele>194.5</ele>
				
				<extensions>
				  <gpxtpx:TrackPointExtension>
					
				  </gpxtpx:TrackPointExtension>
				</extensions>
			  </trkpt>
<trkpt lat="55.751904" lon="48.742921">
				<ele>194.3</ele>
				
				<extensions>
				  <gpxtpx:TrackPointExtension>
					
				  </gpxtpx:TrackPointExtension>
				</extensions>
			  </trkpt>
<trkpt lat="55.752006" lon="48.742931">
				<ele>194.3</ele>
				
				<extensions>
				  <gpxtpx:TrackPointExtension>
					
				  </gpxtpx:TrackPointExtension>
				</extensions>
			  </trkpt>
<trkpt lat="55.752052" lon="48.742937">
				<ele>194.3</ele>
				
				<extensions>
				  <gpxtpx:TrackPointExtension>
					
				  </gpxtpx:TrackPointExtension>
				</extensions>
			  </trkpt>
<trkpt lat="55.75207" lon="48.742765">
				<ele>193.9</ele>
				
				<extensions>
				  <gpxtpx:TrackPointExtension>
					
				  </gpxtpx:TrackPointExtension>
				</extensions>
			  </trkpt>
<trkpt lat="55.752097" lon="48.742722">
				<ele>193.7</ele>
				
				<extensions>
				  <gpxtpx:TrackPointExtension>
					
				  </gpxtpx:TrackPointExtension>
				</extensions>
			  </trkpt>
<trkpt lat="55.75223" lon="48.742712">
				<ele>193.6</ele>
				
				<extensions>
				  <gpxtpx:TrackPointExtension>
					
				  </gpxtpx:TrackPointExtension>
				</extensions>
			  </trkpt>
<trkpt lat="55.752338" lon="48.742459">
				<ele>192.9</ele>
				
				<extensions>
				  <gpxtpx:TrackPointExtension>
					
				  </gpxtpx:TrackPointExtension>
				</extensions>
			  </trkpt>
<trkpt lat="55.752523" lon="48.741424">
				<ele>190.3</ele>
				
				<extensions>
				  <gpxtpx:TrackPointExtension>
					
				  </gpxtpx:TrackPointExtension>
				</extensions>
			  </trkpt>
<trkpt lat="55.752542" lon="48.741413">
				<ele>190.2</ele>
				
				<extensions>
				  <gpxtpx:TrackPointExtension>
					
				  </gpxtpx:TrackPointExtension>
				</extensions>
			  </trkpt>
<trkpt lat="55.752731" lon="48.740188">
				<ele>187.6</ele>
				
				<extensions>
				  <gpxtpx:TrackPointExtension>
					
				  </gpxtpx:TrackPointExtension>
				</extensions>
			  </trkpt>
<trkpt lat="55.752779" lon="48.739879">
				<ele>187.0</ele>
				
				<extensions>
				  <gpxtpx:TrackPointExtension>
					
				  </gpxtpx:TrackPointExtension>
				</extensions>
			  </trkpt>
<trkpt lat="55.752861" lon="48.739431">
				<ele>186.3</ele>
				
				<extensions>
				  <gpxtpx:TrackPointExtension>
					
				  </gpxtpx:TrackPointExtension>
				</extensions>
			  </trkpt>
<trkpt lat="55.752935" lon="48.738855">
				<ele>185.5</ele>
				
				<extensions>
				  <gpxtpx:TrackPointExtension>
					
				  </gpxtpx:TrackPointExtension>
				</extensions>
			  </trkpt>
<trkpt lat="55.753152" lon="48.738989">
				<ele>185.6</ele>
				
				<extensions>
				  <gpxtpx:TrackPointExtension>
					
				  </gpxtpx:TrackPointExtension>
				</extensions>
			  </trkpt>
<trkpt lat="55.753342" lon="48.739069">
				<ele>185.7</ele>
				
				<extensions>
				  <gpxtpx:TrackPointExtension>
					
				  </gpxtpx:TrackPointExtension>
				</extensions>
			  </trkpt>
<trkpt lat="55.753314" lon="48.739415">
				<ele>186.1</ele>
				
				<extensions>
				  <gpxtpx:TrackPointExtension>
					
				  </gpxtpx:TrackPointExtension>
				</extensions>
			  </trkpt>
<trkpt lat="55.753525" lon="48.739538">
				<ele>186.3</ele>
				
				<extensions>
				  <gpxtpx:TrackPointExtension>
					
				  </gpxtpx:TrackPointExtension>
				</extensions>
			  </trkpt>
<trkpt lat="55.753788" lon="48.73964">
				<ele>186.7</ele>
				
				<extensions>
				  <gpxtpx:TrackPointExtension>
					
				  </gpxtpx:TrackPointExtension>
				</extensions>
			  </trkpt>
<trkpt lat="55.754043" lon="48.739764">
				<ele>187.1</ele>
				
				<extensions>
				  <gpxtpx:TrackPointExtension>
					
				  </gpxtpx:TrackPointExtension>
				</extensions>
			  </trkpt>
<trkpt lat="55.754278" lon="48.739874">
				<ele>187.4</ele>
				
				<extensions>
				  <gpxtpx:TrackPointExtension>
					
				  </gpxtpx:TrackPointExtension>
				</extensions>
			  </trkpt>
<trkpt lat="55.754511" lon="48.739986">
				<ele>187.8</ele>
				
				<extensions>
				  <gpxtpx:TrackPointExtension>
					
				  </gpxtpx:TrackPointExtension>
				</extensions>
			  </trkpt>
<trkpt lat="55.754437" lon="48.740496">
				<ele>188.3</ele>
				
				<extensions>
				  <gpxtpx:TrackPointExtension>
					
				  </gpxtpx:TrackPointExtension>
				</extensions>
			  </trkpt>
<trkpt lat="55.754408" lon="48.74056">
				<ele>188.3</ele>
				
				<extensions>
				  <gpxtpx:TrackPointExtension>
					
				  </gpxtpx:TrackPointExtension>
				</extensions>
			  </trkpt>
<trkpt lat="55.754037" lon="48.740381">
				<ele>187.7</ele>
				
				<extensions>
				  <gpxtpx:TrackPointExtension>
					
				  </gpxtpx:TrackPointExtension>
				</extensions>
			  </trkpt>
<trkpt lat="55.753855" lon="48.740322">
				<ele>187.5</ele>
				
				<extensions>
				  <gpxtpx:TrackPointExtension>
					
				  </gpxtpx:TrackPointExtension>
				</extensions>
			  </trkpt>
<trkpt lat="55.753425" lon="48.74011">
				<ele>186.8</ele>
				
				<extensions>
				  <gpxtpx:TrackPointExtension>
					
				  </gpxtpx:TrackPointExtension>
				</extensions>
			  </trkpt>
<trkpt lat="55.75327" lon="48.740053">
				<ele>186.9</ele>
				
				<extensions>
				  <gpxtpx:TrackPointExtension>
					
				  </gpxtpx:TrackPointExtension>
				</extensions>
			  </trkpt>
<trkpt lat="55.753187" lon="48.740389">
				<ele>187.3</ele>
				
				<extensions>
				  <gpxtpx:TrackPointExtension>
					
				  </gpxtpx:TrackPointExtension>
				</extensions>
			  </trkpt>
<trkpt lat="55.753161" lon="48.740625">
				<ele>187.7</ele>
				
				<extensions>
				  <gpxtpx:TrackPointExtension>
					
				  </gpxtpx:TrackPointExtension>
				</extensions>
			  </trkpt>
<trkpt lat="55.753433" lon="48.740791">
				<ele>187.6</ele>
				
				<extensions>
				  <gpxtpx:TrackPointExtension>
					
				  </gpxtpx:TrackPointExtension>
				</extensions>
			  </trkpt>
<trkpt lat="55.753658" lon="48.740858">
				<ele>187.9</ele>
				
				<extensions>
				  <gpxtpx:TrackPointExtension>
					
				  </gpxtpx:TrackPointExtension>
				</extensions>
			  </trkpt>
<trkpt lat="55.753949" lon="48.740984">
				<ele>188.5</ele>
				
				<extensions>
				  <gpxtpx:TrackPointExtension>
					
				  </gpxtpx:TrackPointExtension>
				</extensions>
			  </trkpt>
<trkpt lat="55.75412" lon="48.741083">
				<ele>188.9</ele>
				
				<extensions>
				  <gpxtpx:TrackPointExtension>
					
				  </gpxtpx:TrackPointExtension>
				</extensions>
			  </trkpt>
<trkpt lat="55.754307" lon="48.741191">
				<ele>189.4</ele>
				
				<extensions>
				  <gpxtpx:TrackPointExtension>
					
				  </gpxtpx:TrackPointExtension>
				</extensions>
			  </trkpt>
<trkpt lat="55.75424" lon="48.741716">
				<ele>190.6</ele>
				
				<extensions>
				  <gpxtpx:TrackPointExtension>
					
				  </gpxtpx:TrackPointExtension>
				</extensions>
			  </trkpt>
<trkpt lat="55.753621" lon="48.741472">
				<ele>189.5</ele>
				
				<extensions>
				  <gpxtpx:TrackPointExtension>
					
				  </gpxtpx:TrackPointExtension>
				</extensions>
			  </trkpt>
</trkseg></trk>
</gpx>
