<?xml version="1.0" encoding="UTF-8"?>
		<gpx
			xmlns:xsi="http://www.w3.org/2001/XMLSchema-instance"
			xmlns="http://www.topografix.com/GPX/1/1"
			xsi:schemaLocation="http://www.topografix.com/GPX/1/1 http://www.topografix.com/GPX/1/1/gpx.xsd http://www.garmin.com/xmlschemas/GpxExtensions/v3 http://www.garmin.com/xmlschemas/GpxExtensionsv3.xsd http://www.garmin.com/xmlschemas/TrackPointExtension/v1 http://www.garmin.com/xmlschemas/TrackPointExtensionv1.xsd" xmlns:gpxtpx="http://www.garmin.com/xmlschemas/TrackPointExtension/v1" xmlns:gpxx="http://www.garmin.com/xmlschemas/GpxExtensions/v3"
			version="1.1">

	<metadata>
    <name>0A-1B.3_1B-2B.1_2B-2A.1_2A-3A.1_3A-4A.1_4A-FA.1</name>
    <author>Strava Mobile</author>
    <type>Running</type>
	</metadata>
	
<trk><trkseg>
<trkpt lat="55.753546" lon="48.741472">
				<ele>189.4</ele>
				
				<extensions>
				  <gpxtpx:TrackPointExtension>
					
				  </gpxtpx:TrackPointExtension>
				</extensions>
			  </trkpt>
<trkpt lat="55.753846" lon="48.741593">
				<ele>190.0</ele>
				
				<extensions>
				  <gpxtpx:TrackPointExtension>
					
				  </gpxtpx:TrackPointExtension>
				</extensions>
			  </trkpt>
<trkpt lat="55.754073" lon="48.741674">
				<ele>190.4</ele>
				
				<extensions>
				  <gpxtpx:TrackPointExtension>
					
				  </gpxtpx:TrackPointExtension>
				</extensions>
			  </trkpt>
<trkpt lat="55.754249" lon="48.741821">
				<ele>190.9</ele>
				
				<extensions>
				  <gpxtpx:TrackPointExtension>
					
				  </gpxtpx:TrackPointExtension>
				</extensions>
			  </trkpt>
<trkpt lat="55.7542" lon="48.742097">
				<ele>191.5</ele>
				
				<extensions>
				  <gpxtpx:TrackPointExtension>
					
				  </gpxtpx:TrackPointExtension>
				</extensions>
			  </trkpt>
<trkpt lat="55.754216" lon="48.742398">
				<ele>192.3</ele>
				
				<extensions>
				  <gpxtpx:TrackPointExtension>
					
				  </gpxtpx:TrackPointExtension>
				</extensions>
			  </trkpt>
<trkpt lat="55.754228" lon="48.742626">
				<ele>192.9</ele>
				
				<extensions>
				  <gpxtpx:TrackPointExtension>
					
				  </gpxtpx:TrackPointExtension>
				</extensions>
			  </trkpt>
<trkpt lat="55.754201" lon="48.742875">
				<ele>193.5</ele>
				
				<extensions>
				  <gpxtpx:TrackPointExtension>
					
				  </gpxtpx:TrackPointExtension>
				</extensions>
			  </trkpt>
<trkpt lat="55.754237" lon="48.742988">
				<ele>193.8</ele>
				
				<extensions>
				  <gpxtpx:TrackPointExtension>
					
				  </gpxtpx:TrackPointExtension>
				</extensions>
			  </trkpt>
<trkpt lat="55.754393" lon="48.743079">
				<ele>194.1</ele>
				
				<extensions>
				  <gpxtpx:TrackPointExtension>
					
				  </gpxtpx:TrackPointExtension>
				</extensions>
			  </trkpt>
<trkpt lat="55.754577" lon="48.743189">
				<ele>194.4</ele>
				
				<extensions>
				  <gpxtpx:TrackPointExtension>
					
				  </gpxtpx:TrackPointExtension>
				</extensions>
			  </trkpt>
<trkpt lat="55.754553" lon="48.743548">
				<ele>195.2</ele>
				
				<extensions>
				  <gpxtpx:TrackPointExtension>
					
				  </gpxtpx:TrackPointExtension>
				</extensions>
			  </trkpt>
<trkpt lat="55.754459" lon="48.744184">
				<ele>197.6</ele>
				
				<extensions>
				  <gpxtpx:TrackPointExtension>
					
				  </gpxtpx:TrackPointExtension>
				</extensions>
			  </trkpt>
<trkpt lat="55.754366" lon="48.744849">
				<ele>200.2</ele>
				
				<extensions>
				  <gpxtpx:TrackPointExtension>
					
				  </gpxtpx:TrackPointExtension>
				</extensions>
			  </trkpt>
<trkpt lat="55.754287" lon="48.745359">
				<ele>202.0</ele>
				
				<extensions>
				  <gpxtpx:TrackPointExtension>
					
				  </gpxtpx:TrackPointExtension>
				</extensions>
			  </trkpt>
<trkpt lat="55.754311" lon="48.74548">
				<ele>202.5</ele>
				
				<extensions>
				  <gpxtpx:TrackPointExtension>
					
				  </gpxtpx:TrackPointExtension>
				</extensions>
			  </trkpt>
<trkpt lat="55.754642" lon="48.745616">
				<ele>203.5</ele>
				
				<extensions>
				  <gpxtpx:TrackPointExtension>
					
				  </gpxtpx:TrackPointExtension>
				</extensions>
			  </trkpt>
<trkpt lat="55.754987" lon="48.74582">
				<ele>204.7</ele>
				
				<extensions>
				  <gpxtpx:TrackPointExtension>
					
				  </gpxtpx:TrackPointExtension>
				</extensions>
			  </trkpt>
<trkpt lat="55.755365" lon="48.745887">
				<ele>204.8</ele>
				
				<extensions>
				  <gpxtpx:TrackPointExtension>
					
				  </gpxtpx:TrackPointExtension>
				</extensions>
			  </trkpt>
<trkpt lat="55.755676" lon="48.745997">
				<ele>205.2</ele>
				
				<extensions>
				  <gpxtpx:TrackPointExtension>
					
				  </gpxtpx:TrackPointExtension>
				</extensions>
			  </trkpt>
<trkpt lat="55.75611" lon="48.746048">
				<ele>205.2</ele>
				
				<extensions>
				  <gpxtpx:TrackPointExtension>
					
				  </gpxtpx:TrackPointExtension>
				</extensions>
			  </trkpt>
<trkpt lat="55.756446" lon="48.746129">
				<ele>205.4</ele>
				
				<extensions>
				  <gpxtpx:TrackPointExtension>
					
				  </gpxtpx:TrackPointExtension>
				</extensions>
			  </trkpt>
<trkpt lat="55.756737" lon="48.746032">
				<ele>204.1</ele>
				
				<extensions>
				  <gpxtpx:TrackPointExtension>
					
				  </gpxtpx:TrackPointExtension>
				</extensions>
			  </trkpt>
<trkpt lat="55.756957" lon="48.746035">
				<ele>203.2</ele>
				
				<extensions>
				  <gpxtpx:TrackPointExtension>
					
				  </gpxtpx:TrackPointExtension>
				</extensions>
			  </trkpt>
<trkpt lat="55.75696" lon="48.745997">
				<ele>203.1</ele>
				
				<extensions>
				  <gpxtpx:TrackPointExtension>
					
				  </gpxtpx:TrackPointExtension>
				</extensions>
			  </trkpt>
<trkpt lat="55.756767" lon="48.746075">
				<ele>204.1</ele>
				
				<extensions>
				  <gpxtpx:TrackPointExtension>
					
				  </gpxtpx:TrackPointExtension>
				</extensions>
			  </trkpt>
<trkpt lat="55.756479" lon="48.746067">
				<ele>205.2</ele>
				
				<extensions>
				  <gpxtpx:TrackPointExtension>
					
				  </gpxtpx:TrackPointExtension>
				</extensions>
			  </trkpt>
<trkpt lat="55.756189" lon="48.746105">
				<ele>205.4</ele>
				
				<extensions>
				  <gpxtpx:TrackPointExtension>
					
				  </gpxtpx:TrackPointExtension>
				</extensions>
			  </trkpt>
<trkpt lat="55.755898" lon="48.746056">
				<ele>205.3</ele>
				
				<extensions>
				  <gpxtpx:TrackPointExtension>
					
				  </gpxtpx:TrackPointExtension>
				</extensions>
			  </trkpt>
<trkpt lat="55.755458" lon="48.745957">
				<ele>205.1</ele>
				
				<extensions>
				  <gpxtpx:TrackPointExtension>
					
				  </gpxtpx:TrackPointExtension>
				</extensions>
			  </trkpt>
<trkpt lat="55.755102" lon="48.745895">
				<ele>205.0</ele>
				
				<extensions>
				  <gpxtpx:TrackPointExtension>
					
				  </gpxtpx:TrackPointExtension>
				</extensions>
			  </trkpt>
<trkpt lat="55.754716" lon="48.745716">
				<ele>204.0</ele>
				
				<extensions>
				  <gpxtpx:TrackPointExtension>
					
				  </gpxtpx:TrackPointExtension>
				</extensions>
			  </trkpt>
<trkpt lat="55.754361" lon="48.745477">
				<ele>202.6</ele>
				
				<extensions>
				  <gpxtpx:TrackPointExtension>
					
				  </gpxtpx:TrackPointExtension>
				</extensions>
			  </trkpt>
<trkpt lat="55.754025" lon="48.745308">
				<ele>201.6</ele>
				
				<extensions>
				  <gpxtpx:TrackPointExtension>
					
				  </gpxtpx:TrackPointExtension>
				</extensions>
			  </trkpt>
<trkpt lat="55.753686" lon="48.745075">
				<ele>200.4</ele>
				
				<extensions>
				  <gpxtpx:TrackPointExtension>
					
				  </gpxtpx:TrackPointExtension>
				</extensions>
			  </trkpt>
<trkpt lat="55.753327" lon="48.744881">
				<ele>199.5</ele>
				
				<extensions>
				  <gpxtpx:TrackPointExtension>
					
				  </gpxtpx:TrackPointExtension>
				</extensions>
			  </trkpt>
<trkpt lat="55.753001" lon="48.744648">
				<ele>199.0</ele>
				
				<extensions>
				  <gpxtpx:TrackPointExtension>
					
				  </gpxtpx:TrackPointExtension>
				</extensions>
			  </trkpt>
<trkpt lat="55.752754" lon="48.744498">
				<ele>198.6</ele>
				
				<extensions>
				  <gpxtpx:TrackPointExtension>
					
				  </gpxtpx:TrackPointExtension>
				</extensions>
			  </trkpt>
<trkpt lat="55.752624" lon="48.744147">
				<ele>197.5</ele>
				
				<extensions>
				  <gpxtpx:TrackPointExtension>
					
				  </gpxtpx:TrackPointExtension>
				</extensions>
			  </trkpt>
<trkpt lat="55.752568" lon="48.743886">
				<ele>196.5</ele>
				
				<extensions>
				  <gpxtpx:TrackPointExtension>
					
				  </gpxtpx:TrackPointExtension>
				</extensions>
			  </trkpt>
<trkpt lat="55.752464" lon="48.74394">
				<ele>196.8</ele>
				
				<extensions>
				  <gpxtpx:TrackPointExtension>
					
				  </gpxtpx:TrackPointExtension>
				</extensions>
			  </trkpt>
<trkpt lat="55.752515" lon="48.744122">
				<ele>197.4</ele>
				
				<extensions>
				  <gpxtpx:TrackPointExtension>
					
				  </gpxtpx:TrackPointExtension>
				</extensions>
			  </trkpt>
<trkpt lat="55.752094" lon="48.744533">
				<ele>199.3</ele>
				
				<extensions>
				  <gpxtpx:TrackPointExtension>
					
				  </gpxtpx:TrackPointExtension>
				</extensions>
			  </trkpt>
<trkpt lat="55.752289" lon="48.745354">
				<ele>202.2</ele>
				
				<extensions>
				  <gpxtpx:TrackPointExtension>
					
				  </gpxtpx:TrackPointExtension>
				</extensions>
			  </trkpt>
<trkpt lat="55.752154" lon="48.745494">
				<ele>202.9</ele>
				
				<extensions>
				  <gpxtpx:TrackPointExtension>
					
				  </gpxtpx:TrackPointExtension>
				</extensions>
			  </trkpt>
<trkpt lat="55.752159" lon="48.745681">
				<ele>203.6</ele>
				
				<extensions>
				  <gpxtpx:TrackPointExtension>
					
				  </gpxtpx:TrackPointExtension>
				</extensions>
			  </trkpt>
<trkpt lat="55.75209" lon="48.745791">
				<ele>204.1</ele>
				
				<extensions>
				  <gpxtpx:TrackPointExtension>
					
				  </gpxtpx:TrackPointExtension>
				</extensions>
			  </trkpt>
<trkpt lat="55.752007" lon="48.746134">
				<ele>205.5</ele>
				
				<extensions>
				  <gpxtpx:TrackPointExtension>
					
				  </gpxtpx:TrackPointExtension>
				</extensions>
			  </trkpt>
<trkpt lat="55.75188" lon="48.746657">
				<ele>207.2</ele>
				
				<extensions>
				  <gpxtpx:TrackPointExtension>
					
				  </gpxtpx:TrackPointExtension>
				</extensions>
			  </trkpt>
<trkpt lat="55.751772" lon="48.74714">
				<ele>208.5</ele>
				
				<extensions>
				  <gpxtpx:TrackPointExtension>
					
				  </gpxtpx:TrackPointExtension>
				</extensions>
			  </trkpt>
<trkpt lat="55.751657" lon="48.747655">
				<ele>209.7</ele>
				
				<extensions>
				  <gpxtpx:TrackPointExtension>
					
				  </gpxtpx:TrackPointExtension>
				</extensions>
			  </trkpt>
<trkpt lat="55.75158" lon="48.748016">
				<ele>210.5</ele>
				
				<extensions>
				  <gpxtpx:TrackPointExtension>
					
				  </gpxtpx:TrackPointExtension>
				</extensions>
			  </trkpt>
<trkpt lat="55.751506" lon="48.748346">
				<ele>211.2</ele>
				
				<extensions>
				  <gpxtpx:TrackPointExtension>
					
				  </gpxtpx:TrackPointExtension>
				</extensions>
			  </trkpt>
<trkpt lat="55.751442" lon="48.748646">
				<ele>211.8</ele>
				
				<extensions>
				  <gpxtpx:TrackPointExtension>
					
				  </gpxtpx:TrackPointExtension>
				</extensions>
			  </trkpt>
<trkpt lat="55.75136" lon="48.749032">
				<ele>212.6</ele>
				
				<extensions>
				  <gpxtpx:TrackPointExtension>
					
				  </gpxtpx:TrackPointExtension>
				</extensions>
			  </trkpt>
<trkpt lat="55.751239" lon="48.749648">
				<ele>211.0</ele>
				
				<extensions>
				  <gpxtpx:TrackPointExtension>
					
				  </gpxtpx:TrackPointExtension>
				</extensions>
			  </trkpt>
<trkpt lat="55.75122" lon="48.749748">
				<ele>210.7</ele>
				
				<extensions>
				  <gpxtpx:TrackPointExtension>
					
				  </gpxtpx:TrackPointExtension>
				</extensions>
			  </trkpt>
<trkpt lat="55.751215" lon="48.749771">
				<ele>210.6</ele>
				
				<extensions>
				  <gpxtpx:TrackPointExtension>
					
				  </gpxtpx:TrackPointExtension>
				</extensions>
			  </trkpt>
<trkpt lat="55.751285" lon="48.750045">
				<ele>210.0</ele>
				
				<extensions>
				  <gpxtpx:TrackPointExtension>
					
				  </gpxtpx:TrackPointExtension>
				</extensions>
			  </trkpt>
<trkpt lat="55.751141" lon="48.750766">
				<ele>207.6</ele>
				
				<extensions>
				  <gpxtpx:TrackPointExtension>
					
				  </gpxtpx:TrackPointExtension>
				</extensions>
			  </trkpt>
<trkpt lat="55.751069" lon="48.751313">
				<ele>205.7</ele>
				
				<extensions>
				  <gpxtpx:TrackPointExtension>
					
				  </gpxtpx:TrackPointExtension>
				</extensions>
			  </trkpt>
<trkpt lat="55.751161" lon="48.751423">
				<ele>205.7</ele>
				
				<extensions>
				  <gpxtpx:TrackPointExtension>
					
				  </gpxtpx:TrackPointExtension>
				</extensions>
			  </trkpt>
<trkpt lat="55.7513" lon="48.751515">
				<ele>206.0</ele>
				
				<extensions>
				  <gpxtpx:TrackPointExtension>
					
				  </gpxtpx:TrackPointExtension>
				</extensions>
			  </trkpt>
<trkpt lat="55.751297" lon="48.751694">
				<ele>205.5</ele>
				
				<extensions>
				  <gpxtpx:TrackPointExtension>
					
				  </gpxtpx:TrackPointExtension>
				</extensions>
			  </trkpt>
<trkpt lat="55.751246" lon="48.751767">
				<ele>205.1</ele>
				
				<extensions>
				  <gpxtpx:TrackPointExtension>
					
				  </gpxtpx:TrackPointExtension>
				</extensions>
			  </trkpt>
<trkpt lat="55.751315" lon="48.751928">
				<ele>204.9</ele>
				
				<extensions>
				  <gpxtpx:TrackPointExtension>
					
				  </gpxtpx:TrackPointExtension>
				</extensions>
			  </trkpt>
<trkpt lat="55.751342" lon="48.752595">
				<ele>202.7</ele>
				
				<extensions>
				  <gpxtpx:TrackPointExtension>
					
				  </gpxtpx:TrackPointExtension>
				</extensions>
			  </trkpt>
<trkpt lat="55.751513" lon="48.753178">
				<ele>201.2</ele>
				
				<extensions>
				  <gpxtpx:TrackPointExtension>
					
				  </gpxtpx:TrackPointExtension>
				</extensions>
			  </trkpt>
<trkpt lat="55.751668" lon="48.753304">
				<ele>201.2</ele>
				
				<extensions>
				  <gpxtpx:TrackPointExtension>
					
				  </gpxtpx:TrackPointExtension>
				</extensions>
			  </trkpt>
<trkpt lat="55.751828" lon="48.753392">
				<ele>201.2</ele>
				
				<extensions>
				  <gpxtpx:TrackPointExtension>
					
				  </gpxtpx:TrackPointExtension>
				</extensions>
			  </trkpt>
<trkpt lat="55.75216" lon="48.753293">
				<ele>201.3</ele>
				
				<extensions>
				  <gpxtpx:TrackPointExtension>
					
				  </gpxtpx:TrackPointExtension>
				</extensions>
			  </trkpt>
<trkpt lat="55.752326" lon="48.753054">
				<ele>202.0</ele>
				
				<extensions>
				  <gpxtpx:TrackPointExtension>
					
				  </gpxtpx:TrackPointExtension>
				</extensions>
			  </trkpt>
<trkpt lat="55.752406" lon="48.752735">
				<ele>203.2</ele>
				
				<extensions>
				  <gpxtpx:TrackPointExtension>
					
				  </gpxtpx:TrackPointExtension>
				</extensions>
			  </trkpt>
<trkpt lat="55.752437" lon="48.751973">
				<ele>206.2</ele>
				
				<extensions>
				  <gpxtpx:TrackPointExtension>
					
				  </gpxtpx:TrackPointExtension>
				</extensions>
			  </trkpt>
<trkpt lat="55.752346" lon="48.751654">
				<ele>207.2</ele>
				
				<extensions>
				  <gpxtpx:TrackPointExtension>
					
				  </gpxtpx:TrackPointExtension>
				</extensions>
			  </trkpt>
<trkpt lat="55.752085" lon="48.751268">
				<ele>208.3</ele>
				
				<extensions>
				  <gpxtpx:TrackPointExtension>
					
				  </gpxtpx:TrackPointExtension>
				</extensions>
			  </trkpt>
<trkpt lat="55.751972" lon="48.751211">
				<ele>208.6</ele>
				
				<extensions>
				  <gpxtpx:TrackPointExtension>
					
				  </gpxtpx:TrackPointExtension>
				</extensions>
			  </trkpt>
<trkpt lat="55.751861" lon="48.751249">
				<ele>208.7</ele>
				
				<extensions>
				  <gpxtpx:TrackPointExtension>
					
				  </gpxtpx:TrackPointExtension>
				</extensions>
			  </trkpt>
<trkpt lat="55.751815" lon="48.750718">
				<ele>209.7</ele>
				
				<extensions>
				  <gpxtpx:TrackPointExtension>
					
				  </gpxtpx:TrackPointExtension>
				</extensions>
			  </trkpt>
<trkpt lat="55.751778" lon="48.75016">
				<ele>210.8</ele>
				
				<extensions>
				  <gpxtpx:TrackPointExtension>
					
				  </gpxtpx:TrackPointExtension>
				</extensions>
			  </trkpt>
<trkpt lat="55.751394" lon="48.749927">
				<ele>210.5</ele>
				
				<extensions>
				  <gpxtpx:TrackPointExtension>
					
				  </gpxtpx:TrackPointExtension>
				</extensions>
			  </trkpt>
<trkpt lat="55.751247" lon="48.749677">
				<ele>210.9</ele>
				
				<extensions>
				  <gpxtpx:TrackPointExtension>
					
				  </gpxtpx:TrackPointExtension>
				</extensions>
			  </trkpt>
<trkpt lat="55.75143" lon="48.748685">
				<ele>211.9</ele>
				
				<extensions>
				  <gpxtpx:TrackPointExtension>
					
				  </gpxtpx:TrackPointExtension>
				</extensions>
			  </trkpt>
<trkpt lat="55.75156" lon="48.748143">
				<ele>210.8</ele>
				
				<extensions>
				  <gpxtpx:TrackPointExtension>
					
				  </gpxtpx:TrackPointExtension>
				</extensions>
			  </trkpt>
<trkpt lat="55.751575" lon="48.748076">
				<ele>210.7</ele>
				
				<extensions>
				  <gpxtpx:TrackPointExtension>
					
				  </gpxtpx:TrackPointExtension>
				</extensions>
			  </trkpt>
<trkpt lat="55.75172" lon="48.747405">
				<ele>209.1</ele>
				
				<extensions>
				  <gpxtpx:TrackPointExtension>
					
				  </gpxtpx:TrackPointExtension>
				</extensions>
			  </trkpt>
<trkpt lat="55.751877" lon="48.746622">
				<ele>207.1</ele>
				
				<extensions>
				  <gpxtpx:TrackPointExtension>
					
				  </gpxtpx:TrackPointExtension>
				</extensions>
			  </trkpt>
<trkpt lat="55.752031" lon="48.745962">
				<ele>204.8</ele>
				
				<extensions>
				  <gpxtpx:TrackPointExtension>
					
				  </gpxtpx:TrackPointExtension>
				</extensions>
			  </trkpt>
<trkpt lat="55.752172" lon="48.745673">
				<ele>203.5</ele>
				
				<extensions>
				  <gpxtpx:TrackPointExtension>
					
				  </gpxtpx:TrackPointExtension>
				</extensions>
			  </trkpt>
<trkpt lat="55.752154" lon="48.745458">
				<ele>202.7</ele>
				
				<extensions>
				  <gpxtpx:TrackPointExtension>
					
				  </gpxtpx:TrackPointExtension>
				</extensions>
			  </trkpt>
<trkpt lat="55.752269" lon="48.745329">
				<ele>202.1</ele>
				
				<extensions>
				  <gpxtpx:TrackPointExtension>
					
				  </gpxtpx:TrackPointExtension>
				</extensions>
			  </trkpt>
<trkpt lat="55.752094" lon="48.744519">
				<ele>199.2</ele>
				
				<extensions>
				  <gpxtpx:TrackPointExtension>
					
				  </gpxtpx:TrackPointExtension>
				</extensions>
			  </trkpt>
<trkpt lat="55.751946" lon="48.743801">
				<ele>196.6</ele>
				
				<extensions>
				  <gpxtpx:TrackPointExtension>
					
				  </gpxtpx:TrackPointExtension>
				</extensions>
			  </trkpt>
<trkpt lat="55.751741" lon="48.743876">
				<ele>197.1</ele>
				
				<extensions>
				  <gpxtpx:TrackPointExtension>
					
				  </gpxtpx:TrackPointExtension>
				</extensions>
			  </trkpt>
<trkpt lat="55.751569" lon="48.743623">
				<ele>196.5</ele>
				
				<extensions>
				  <gpxtpx:TrackPointExtension>
					
				  </gpxtpx:TrackPointExtension>
				</extensions>
			  </trkpt>
<trkpt lat="55.751203" lon="48.743328">
				<ele>196.5</ele>
				
				<extensions>
				  <gpxtpx:TrackPointExtension>
					
				  </gpxtpx:TrackPointExtension>
				</extensions>
			  </trkpt>
<trkpt lat="55.750796" lon="48.742964">
				<ele>196.4</ele>
				
				<extensions>
				  <gpxtpx:TrackPointExtension>
					
				  </gpxtpx:TrackPointExtension>
				</extensions>
			  </trkpt>
<trkpt lat="55.750515" lon="48.742674">
				<ele>196.2</ele>
				
				<extensions>
				  <gpxtpx:TrackPointExtension>
					
				  </gpxtpx:TrackPointExtension>
				</extensions>
			  </trkpt>
<trkpt lat="55.750222" lon="48.742384">
				<ele>195.9</ele>
				
				<extensions>
				  <gpxtpx:TrackPointExtension>
					
				  </gpxtpx:TrackPointExtension>
				</extensions>
			  </trkpt>
<trkpt lat="55.749926" lon="48.742068">
				<ele>195.7</ele>
				
				<extensions>
				  <gpxtpx:TrackPointExtension>
					
				  </gpxtpx:TrackPointExtension>
				</extensions>
			  </trkpt>
<trkpt lat="55.749639" lon="48.741762">
				<ele>195.7</ele>
				
				<extensions>
				  <gpxtpx:TrackPointExtension>
					
				  </gpxtpx:TrackPointExtension>
				</extensions>
			  </trkpt>
<trkpt lat="55.749495" lon="48.74159">
				<ele>195.7</ele>
				
				<extensions>
				  <gpxtpx:TrackPointExtension>
					
				  </gpxtpx:TrackPointExtension>
				</extensions>
			  </trkpt>
<trkpt lat="55.745883" lon="48.736736">
				<ele>197.7</ele>
				
				<extensions>
				  <gpxtpx:TrackPointExtension>
					
				  </gpxtpx:TrackPointExtension>
				</extensions>
			  </trkpt>
<trkpt lat="55.745384" lon="48.735826">
				<ele>198.4</ele>
				
				<extensions>
				  <gpxtpx:TrackPointExtension>
					
				  </gpxtpx:TrackPointExtension>
				</extensions>
			  </trkpt>
<trkpt lat="55.745195" lon="48.73548">
				<ele>198.5</ele>
				
				<extensions>
				  <gpxtpx:TrackPointExtension>
					
				  </gpxtpx:TrackPointExtension>
				</extensions>
			  </trkpt>
<trkpt lat="55.744715" lon="48.734538">
				<ele>198.8</ele>
				
				<extensions>
				  <gpxtpx:TrackPointExtension>
					
				  </gpxtpx:TrackPointExtension>
				</extensions>
			  </trkpt>
<trkpt lat="55.744235" lon="48.733597">
				<ele>198.8</ele>
				
				<extensions>
				  <gpxtpx:TrackPointExtension>
					
				  </gpxtpx:TrackPointExtension>
				</extensions>
			  </trkpt>
<trkpt lat="55.744072" lon="48.733276">
				<ele>198.8</ele>
				
				<extensions>
				  <gpxtpx:TrackPointExtension>
					
				  </gpxtpx:TrackPointExtension>
				</extensions>
			  </trkpt>
<trkpt lat="55.74364" lon="48.732263">
				<ele>198.8</ele>
				
				<extensions>
				  <gpxtpx:TrackPointExtension>
					
				  </gpxtpx:TrackPointExtension>
				</extensions>
			  </trkpt>
<trkpt lat="55.743269" lon="48.731393">
				<ele>198.2</ele>
				
				<extensions>
				  <gpxtpx:TrackPointExtension>
					
				  </gpxtpx:TrackPointExtension>
				</extensions>
			  </trkpt>
<trkpt lat="55.742936" lon="48.73069">
				<ele>197.5</ele>
				
				<extensions>
				  <gpxtpx:TrackPointExtension>
					
				  </gpxtpx:TrackPointExtension>
				</extensions>
			  </trkpt>
<trkpt lat="55.74297" lon="48.730685">
				<ele>197.5</ele>
				
				<extensions>
				  <gpxtpx:TrackPointExtension>
					
				  </gpxtpx:TrackPointExtension>
				</extensions>
			  </trkpt>
<trkpt lat="55.743386" lon="48.731718">
				<ele>198.5</ele>
				
				<extensions>
				  <gpxtpx:TrackPointExtension>
					
				  </gpxtpx:TrackPointExtension>
				</extensions>
			  </trkpt>
<trkpt lat="55.743456" lon="48.731892">
				<ele>198.6</ele>
				
				<extensions>
				  <gpxtpx:TrackPointExtension>
					
				  </gpxtpx:TrackPointExtension>
				</extensions>
			  </trkpt>
<trkpt lat="55.743899" lon="48.732889">
				<ele>198.9</ele>
				
				<extensions>
				  <gpxtpx:TrackPointExtension>
					
				  </gpxtpx:TrackPointExtension>
				</extensions>
			  </trkpt>
<trkpt lat="55.744316" lon="48.733828">
				<ele>198.9</ele>
				
				<extensions>
				  <gpxtpx:TrackPointExtension>
					
				  </gpxtpx:TrackPointExtension>
				</extensions>
			  </trkpt>
<trkpt lat="55.744797" lon="48.734769">
				<ele>198.8</ele>
				
				<extensions>
				  <gpxtpx:TrackPointExtension>
					
				  </gpxtpx:TrackPointExtension>
				</extensions>
			  </trkpt>
<trkpt lat="55.744821" lon="48.734815">
				<ele>198.8</ele>
				
				<extensions>
				  <gpxtpx:TrackPointExtension>
					
				  </gpxtpx:TrackPointExtension>
				</extensions>
			  </trkpt>
<trkpt lat="55.745335" lon="48.735697">
				<ele>198.4</ele>
				
				<extensions>
				  <gpxtpx:TrackPointExtension>
					
				  </gpxtpx:TrackPointExtension>
				</extensions>
			  </trkpt>
<trkpt lat="55.745657" lon="48.736247">
				<ele>198.1</ele>
				
				<extensions>
				  <gpxtpx:TrackPointExtension>
					
				  </gpxtpx:TrackPointExtension>
				</extensions>
			  </trkpt>
<trkpt lat="55.746176" lon="48.737121">
				<ele>197.1</ele>
				
				<extensions>
				  <gpxtpx:TrackPointExtension>
					
				  </gpxtpx:TrackPointExtension>
				</extensions>
			  </trkpt>
<trkpt lat="55.746397" lon="48.737492">
				<ele>196.8</ele>
				
				<extensions>
				  <gpxtpx:TrackPointExtension>
					
				  </gpxtpx:TrackPointExtension>
				</extensions>
			  </trkpt>
<trkpt lat="55.74694" lon="48.738319">
				<ele>196.2</ele>
				
				<extensions>
				  <gpxtpx:TrackPointExtension>
					
				  </gpxtpx:TrackPointExtension>
				</extensions>
			  </trkpt>
<trkpt lat="55.746967" lon="48.738361">
				<ele>196.1</ele>
				
				<extensions>
				  <gpxtpx:TrackPointExtension>
					
				  </gpxtpx:TrackPointExtension>
				</extensions>
			  </trkpt>
<trkpt lat="55.747336" lon="48.738908">
				<ele>195.9</ele>
				
				<extensions>
				  <gpxtpx:TrackPointExtension>
					
				  </gpxtpx:TrackPointExtension>
				</extensions>
			  </trkpt>
<trkpt lat="55.747644" lon="48.739305">
				<ele>195.8</ele>
				
				<extensions>
				  <gpxtpx:TrackPointExtension>
					
				  </gpxtpx:TrackPointExtension>
				</extensions>
			  </trkpt>
<trkpt lat="55.747911" lon="48.739691">
				<ele>195.8</ele>
				
				<extensions>
				  <gpxtpx:TrackPointExtension>
					
				  </gpxtpx:TrackPointExtension>
				</extensions>
			  </trkpt>
<trkpt lat="55.74786" lon="48.739882">
				<ele>196.2</ele>
				
				<extensions>
				  <gpxtpx:TrackPointExtension>
					
				  </gpxtpx:TrackPointExtension>
				</extensions>
			  </trkpt>
<trkpt lat="55.747789" lon="48.740037">
				<ele>196.5</ele>
				
				<extensions>
				  <gpxtpx:TrackPointExtension>
					
				  </gpxtpx:TrackPointExtension>
				</extensions>
			  </trkpt>
<trkpt lat="55.747724" lon="48.740233">
				<ele>196.9</ele>
				
				<extensions>
				  <gpxtpx:TrackPointExtension>
					
				  </gpxtpx:TrackPointExtension>
				</extensions>
			  </trkpt>
<trkpt lat="55.747669" lon="48.740424">
				<ele>197.3</ele>
				
				<extensions>
				  <gpxtpx:TrackPointExtension>
					
				  </gpxtpx:TrackPointExtension>
				</extensions>
			  </trkpt>
<trkpt lat="55.747524" lon="48.740273">
				<ele>197.3</ele>
				
				<extensions>
				  <gpxtpx:TrackPointExtension>
					
				  </gpxtpx:TrackPointExtension>
				</extensions>
			  </trkpt>
<trkpt lat="55.747354" lon="48.740327">
				<ele>197.6</ele>
				
				<extensions>
				  <gpxtpx:TrackPointExtension>
					
				  </gpxtpx:TrackPointExtension>
				</extensions>
			  </trkpt>
<trkpt lat="55.747076" lon="48.740421">
				<ele>198.0</ele>
				
				<extensions>
				  <gpxtpx:TrackPointExtension>
					
				  </gpxtpx:TrackPointExtension>
				</extensions>
			  </trkpt>
<trkpt lat="55.746951" lon="48.740483">
				<ele>198.1</ele>
				
				<extensions>
				  <gpxtpx:TrackPointExtension>
					
				  </gpxtpx:TrackPointExtension>
				</extensions>
			  </trkpt>
<trkpt lat="55.746829" lon="48.740796">
				<ele>198.5</ele>
				
				<extensions>
				  <gpxtpx:TrackPointExtension>
					
				  </gpxtpx:TrackPointExtension>
				</extensions>
			  </trkpt>
<trkpt lat="55.74672" lon="48.741116">
				<ele>198.7</ele>
				
				<extensions>
				  <gpxtpx:TrackPointExtension>
					
				  </gpxtpx:TrackPointExtension>
				</extensions>
			  </trkpt>
<trkpt lat="55.746595" lon="48.741507">
				<ele>199.0</ele>
				
				<extensions>
				  <gpxtpx:TrackPointExtension>
					
				  </gpxtpx:TrackPointExtension>
				</extensions>
			  </trkpt>
<trkpt lat="55.746431" lon="48.741955">
				<ele>199.4</ele>
				
				<extensions>
				  <gpxtpx:TrackPointExtension>
					
				  </gpxtpx:TrackPointExtension>
				</extensions>
			  </trkpt>
<trkpt lat="55.746457" lon="48.7421">
				<ele>199.5</ele>
				
				<extensions>
				  <gpxtpx:TrackPointExtension>
					
				  </gpxtpx:TrackPointExtension>
				</extensions>
			  </trkpt>
<trkpt lat="55.746442" lon="48.742234">
				<ele>199.6</ele>
				
				<extensions>
				  <gpxtpx:TrackPointExtension>
					
				  </gpxtpx:TrackPointExtension>
				</extensions>
			  </trkpt>
<trkpt lat="55.746428" lon="48.742443">
				<ele>199.8</ele>
				
				<extensions>
				  <gpxtpx:TrackPointExtension>
					
				  </gpxtpx:TrackPointExtension>
				</extensions>
			  </trkpt>
<trkpt lat="55.746474" lon="48.74247">
				<ele>199.8</ele>
				
				<extensions>
				  <gpxtpx:TrackPointExtension>
					
				  </gpxtpx:TrackPointExtension>
				</extensions>
			  </trkpt>
<trkpt lat="55.74665" lon="48.742457">
				<ele>199.6</ele>
				
				<extensions>
				  <gpxtpx:TrackPointExtension>
					
				  </gpxtpx:TrackPointExtension>
				</extensions>
			  </trkpt>
<trkpt lat="55.746718" lon="48.74243">
				<ele>199.5</ele>
				
				<extensions>
				  <gpxtpx:TrackPointExtension>
					
				  </gpxtpx:TrackPointExtension>
				</extensions>
			  </trkpt>
<trkpt lat="55.746739" lon="48.742443">
				<ele>199.5</ele>
				
				<extensions>
				  <gpxtpx:TrackPointExtension>
					
				  </gpxtpx:TrackPointExtension>
				</extensions>
			  </trkpt>
<trkpt lat="55.746712" lon="48.742545">
				<ele>199.6</ele>
				
				<extensions>
				  <gpxtpx:TrackPointExtension>
					
				  </gpxtpx:TrackPointExtension>
				</extensions>
			  </trkpt>
<trkpt lat="55.746789" lon="48.742569">
				<ele>199.5</ele>
				
				<extensions>
				  <gpxtpx:TrackPointExtension>
					
				  </gpxtpx:TrackPointExtension>
				</extensions>
			  </trkpt>
<trkpt lat="55.746924" lon="48.742513">
				<ele>199.3</ele>
				
				<extensions>
				  <gpxtpx:TrackPointExtension>
					
				  </gpxtpx:TrackPointExtension>
				</extensions>
			  </trkpt>
<trkpt lat="55.747056" lon="48.742197">
				<ele>199.0</ele>
				
				<extensions>
				  <gpxtpx:TrackPointExtension>
					
				  </gpxtpx:TrackPointExtension>
				</extensions>
			  </trkpt>
<trkpt lat="55.747144" lon="48.741931">
				<ele>198.9</ele>
				
				<extensions>
				  <gpxtpx:TrackPointExtension>
					
				  </gpxtpx:TrackPointExtension>
				</extensions>
			  </trkpt>
<trkpt lat="55.74728" lon="48.741561">
				<ele>198.6</ele>
				
				<extensions>
				  <gpxtpx:TrackPointExtension>
					
				  </gpxtpx:TrackPointExtension>
				</extensions>
			  </trkpt>
<trkpt lat="55.747386" lon="48.741231">
				<ele>198.4</ele>
				
				<extensions>
				  <gpxtpx:TrackPointExtension>
					
				  </gpxtpx:TrackPointExtension>
				</extensions>
			  </trkpt>
<trkpt lat="55.747485" lon="48.740944">
				<ele>198.1</ele>
				
				<extensions>
				  <gpxtpx:TrackPointExtension>
					
				  </gpxtpx:TrackPointExtension>
				</extensions>
			  </trkpt>
<trkpt lat="55.747594" lon="48.740636">
				<ele>197.7</ele>
				
				<extensions>
				  <gpxtpx:TrackPointExtension>
					
				  </gpxtpx:TrackPointExtension>
				</extensions>
			  </trkpt>
<trkpt lat="55.747698" lon="48.740349">
				<ele>197.1</ele>
				
				<extensions>
				  <gpxtpx:TrackPointExtension>
					
				  </gpxtpx:TrackPointExtension>
				</extensions>
			  </trkpt>
<trkpt lat="55.74781" lon="48.740027">
				<ele>196.5</ele>
				
				<extensions>
				  <gpxtpx:TrackPointExtension>
					
				  </gpxtpx:TrackPointExtension>
				</extensions>
			  </trkpt>
<trkpt lat="55.747915" lon="48.739742">
				<ele>195.9</ele>
				
				<extensions>
				  <gpxtpx:TrackPointExtension>
					
				  </gpxtpx:TrackPointExtension>
				</extensions>
			  </trkpt>
<trkpt lat="55.74822" lon="48.740086">
				<ele>195.9</ele>
				
				<extensions>
				  <gpxtpx:TrackPointExtension>
					
				  </gpxtpx:TrackPointExtension>
				</extensions>
			  </trkpt>
<trkpt lat="55.748468" lon="48.740424">
				<ele>196.1</ele>
				
				<extensions>
				  <gpxtpx:TrackPointExtension>
					
				  </gpxtpx:TrackPointExtension>
				</extensions>
			  </trkpt>
<trkpt lat="55.748657" lon="48.740652">
				<ele>196.3</ele>
				
				<extensions>
				  <gpxtpx:TrackPointExtension>
					
				  </gpxtpx:TrackPointExtension>
				</extensions>
			  </trkpt>
<trkpt lat="55.748939" lon="48.741">
				<ele>196.3</ele>
				
				<extensions>
				  <gpxtpx:TrackPointExtension>
					
				  </gpxtpx:TrackPointExtension>
				</extensions>
			  </trkpt>
<trkpt lat="55.749285" lon="48.741373">
				<ele>195.8</ele>
				
				<extensions>
				  <gpxtpx:TrackPointExtension>
					
				  </gpxtpx:TrackPointExtension>
				</extensions>
			  </trkpt>
<trkpt lat="55.749476" lon="48.74159">
				<ele>195.7</ele>
				
				<extensions>
				  <gpxtpx:TrackPointExtension>
					
				  </gpxtpx:TrackPointExtension>
				</extensions>
			  </trkpt>
<trkpt lat="55.74947" lon="48.741569">
				<ele>195.7</ele>
				
				<extensions>
				  <gpxtpx:TrackPointExtension>
					
				  </gpxtpx:TrackPointExtension>
				</extensions>
			  </trkpt>
<trkpt lat="55.749959" lon="48.742084">
				<ele>195.7</ele>
				
				<extensions>
				  <gpxtpx:TrackPointExtension>
					
				  </gpxtpx:TrackPointExtension>
				</extensions>
			  </trkpt>
<trkpt lat="55.750355" lon="48.742535">
				<ele>196.1</ele>
				
				<extensions>
				  <gpxtpx:TrackPointExtension>
					
				  </gpxtpx:TrackPointExtension>
				</extensions>
			  </trkpt>
<trkpt lat="55.750832" lon="48.742958">
				<ele>196.3</ele>
				
				<extensions>
				  <gpxtpx:TrackPointExtension>
					
				  </gpxtpx:TrackPointExtension>
				</extensions>
			  </trkpt>
<trkpt lat="55.751122" lon="48.743227">
				<ele>196.4</ele>
				
				<extensions>
				  <gpxtpx:TrackPointExtension>
					
				  </gpxtpx:TrackPointExtension>
				</extensions>
			  </trkpt>
<trkpt lat="55.751557" lon="48.74365">
				<ele>196.6</ele>
				
				<extensions>
				  <gpxtpx:TrackPointExtension>
					
				  </gpxtpx:TrackPointExtension>
				</extensions>
			  </trkpt>
<trkpt lat="55.751852" lon="48.743543">
				<ele>195.7</ele>
				
				<extensions>
				  <gpxtpx:TrackPointExtension>
					
				  </gpxtpx:TrackPointExtension>
				</extensions>
			  </trkpt>
<trkpt lat="55.752109" lon="48.743307">
				<ele>195.0</ele>
				
				<extensions>
				  <gpxtpx:TrackPointExtension>
					
				  </gpxtpx:TrackPointExtension>
				</extensions>
			  </trkpt>
<trkpt lat="55.752308" lon="48.742561">
				<ele>193.2</ele>
				
				<extensions>
				  <gpxtpx:TrackPointExtension>
					
				  </gpxtpx:TrackPointExtension>
				</extensions>
			  </trkpt>
<trkpt lat="55.752553" lon="48.741478">
				<ele>190.4</ele>
				
				<extensions>
				  <gpxtpx:TrackPointExtension>
					
				  </gpxtpx:TrackPointExtension>
				</extensions>
			  </trkpt>
<trkpt lat="55.752568" lon="48.741397">
				<ele>190.2</ele>
				
				<extensions>
				  <gpxtpx:TrackPointExtension>
					
				  </gpxtpx:TrackPointExtension>
				</extensions>
			  </trkpt>
<trkpt lat="55.752542" lon="48.741413">
				<ele>190.2</ele>
				
				<extensions>
				  <gpxtpx:TrackPointExtension>
					
				  </gpxtpx:TrackPointExtension>
				</extensions>
			  </trkpt>
<trkpt lat="55.752731" lon="48.740188">
				<ele>187.6</ele>
				
				<extensions>
				  <gpxtpx:TrackPointExtension>
					
				  </gpxtpx:TrackPointExtension>
				</extensions>
			  </trkpt>
<trkpt lat="55.752779" lon="48.739879">
				<ele>187.0</ele>
				
				<extensions>
				  <gpxtpx:TrackPointExtension>
					
				  </gpxtpx:TrackPointExtension>
				</extensions>
			  </trkpt>
<trkpt lat="55.752861" lon="48.739431">
				<ele>186.3</ele>
				
				<extensions>
				  <gpxtpx:TrackPointExtension>
					
				  </gpxtpx:TrackPointExtension>
				</extensions>
			  </trkpt>
<trkpt lat="55.752935" lon="48.738855">
				<ele>185.5</ele>
				
				<extensions>
				  <gpxtpx:TrackPointExtension>
					
				  </gpxtpx:TrackPointExtension>
				</extensions>
			  </trkpt>
<trkpt lat="55.753152" lon="48.738989">
				<ele>185.6</ele>
				
				<extensions>
				  <gpxtpx:TrackPointExtension>
					
				  </gpxtpx:TrackPointExtension>
				</extensions>
			  </trkpt>
<trkpt lat="55.753342" lon="48.739069">
				<ele>185.7</ele>
				
				<extensions>
				  <gpxtpx:TrackPointExtension>
					
				  </gpxtpx:TrackPointExtension>
				</extensions>
			  </trkpt>
<trkpt lat="55.753314" lon="48.739415">
				<ele>186.1</ele>
				
				<extensions>
				  <gpxtpx:TrackPointExtension>
					
				  </gpxtpx:TrackPointExtension>
				</extensions>
			  </trkpt>
<trkpt lat="55.753525" lon="48.739538">
				<ele>186.3</ele>
				
				<extensions>
				  <gpxtpx:TrackPointExtension>
					
				  </gpxtpx:TrackPointExtension>
				</extensions>
			  </trkpt>
<trkpt lat="55.753788" lon="48.73964">
				<ele>186.7</ele>
				
				<extensions>
				  <gpxtpx:TrackPointExtension>
					
				  </gpxtpx:TrackPointExtension>
				</extensions>
			  </trkpt>
<trkpt lat="55.754043" lon="48.739764">
				<ele>187.1</ele>
				
				<extensions>
				  <gpxtpx:TrackPointExtension>
					
				  </gpxtpx:TrackPointExtension>
				</extensions>
			  </trkpt>
<trkpt lat="55.754278" lon="48.739874">
				<ele>187.4</ele>
				
				<extensions>
				  <gpxtpx:TrackPointExtension>
					
				  </gpxtpx:TrackPointExtension>
				</extensions>
			  </trkpt>
<trkpt lat="55.754511" lon="48.739986">
				<ele>187.8</ele>
				
				<extensions>
				  <gpxtpx:TrackPointExtension>
					
				  </gpxtpx:TrackPointExtension>
				</extensions>
			  </trkpt>
<trkpt lat="55.754437" lon="48.740496">
				<ele>188.3</ele>
				
				<extensions>
				  <gpxtpx:TrackPointExtension>
					
				  </gpxtpx:TrackPointExtension>
				</extensions>
			  </trkpt>
<trkpt lat="55.754408" lon="48.74056">
				<ele>188.3</ele>
				
				<extensions>
				  <gpxtpx:TrackPointExtension>
					
				  </gpxtpx:TrackPointExtension>
				</extensions>
			  </trkpt>
<trkpt lat="55.754037" lon="48.740381">
				<ele>187.7</ele>
				
				<extensions>
				  <gpxtpx:TrackPointExtension>
					
				  </gpxtpx:TrackPointExtension>
				</extensions>
			  </trkpt>
<trkpt lat="55.753855" lon="48.740322">
				<ele>187.5</ele>
				
				<extensions>
				  <gpxtpx:TrackPointExtension>
					
				  </gpxtpx:TrackPointExtension>
				</extensions>
			  </trkpt>
<trkpt lat="55.753425" lon="48.74011">
				<ele>186.8</ele>
				
				<extensions>
				  <gpxtpx:TrackPointExtension>
					
				  </gpxtpx:TrackPointExtension>
				</extensions>
			  </trkpt>
<trkpt lat="55.75327" lon="48.740053">
				<ele>186.9</ele>
				
				<extensions>
				  <gpxtpx:TrackPointExtension>
					
				  </gpxtpx:TrackPointExtension>
				</extensions>
			  </trkpt>
<trkpt lat="55.753187" lon="48.740389">
				<ele>187.3</ele>
				
				<extensions>
				  <gpxtpx:TrackPointExtension>
					
				  </gpxtpx:TrackPointExtension>
				</extensions>
			  </trkpt>
<trkpt lat="55.753161" lon="48.740625">
				<ele>187.7</ele>
				
				<extensions>
				  <gpxtpx:TrackPointExtension>
					
				  </gpxtpx:TrackPointExtension>
				</extensions>
			  </trkpt>
<trkpt lat="55.753433" lon="48.740791">
				<ele>187.6</ele>
				
				<extensions>
				  <gpxtpx:TrackPointExtension>
					
				  </gpxtpx:TrackPointExtension>
				</extensions>
			  </trkpt>
<trkpt lat="55.753658" lon="48.740858">
				<ele>187.9</ele>
				
				<extensions>
				  <gpxtpx:TrackPointExtension>
					
				  </gpxtpx:TrackPointExtension>
				</extensions>
			  </trkpt>
<trkpt lat="55.753949" lon="48.740984">
				<ele>188.5</ele>
				
				<extensions>
				  <gpxtpx:TrackPointExtension>
					
				  </gpxtpx:TrackPointExtension>
				</extensions>
			  </trkpt>
<trkpt lat="55.75412" lon="48.741083">
				<ele>188.9</ele>
				
				<extensions>
				  <gpxtpx:TrackPointExtension>
					
				  </gpxtpx:TrackPointExtension>
				</extensions>
			  </trkpt>
<trkpt lat="55.754307" lon="48.741191">
				<ele>189.4</ele>
				
				<extensions>
				  <gpxtpx:TrackPointExtension>
					
				  </gpxtpx:TrackPointExtension>
				</extensions>
			  </trkpt>
<trkpt lat="55.75424" lon="48.741716">
				<ele>190.6</ele>
				
				<extensions>
				  <gpxtpx:TrackPointExtension>
					
				  </gpxtpx:TrackPointExtension>
				</extensions>
			  </trkpt>
<trkpt lat="55.753621" lon="48.741472">
				<ele>189.5</ele>
				
				<extensions>
				  <gpxtpx:TrackPointExtension>
					
				  </gpxtpx:TrackPointExtension>
				</extensions>
			  </trkpt>
</trkseg></trk>
</gpx>
