alt,dst,tdiff,tsdiff,aldiff,dsdiff,phb,hb
81.8,0.0,1,1,0.0,0.0,135,135
81.8,0.0,1,2,0.0,0.0,135,135
81.8,0.0,1,3,0.0,0.0,135,135
81.8,0.0,1,4,0.0,0.0,135,134
81.8,0.2,1,5,0.0,0.2,134,132
81.8,0.3,1,6,0.0,0.09999999999999998,132,132
81.8,0.6,1,7,0.0,0.3,132,134
81.8,0.8,1,8,0.0,0.20000000000000007,134,133
81.8,2.3,1,9,0.0,1.4999999999999998,133,134
81.8,3.9,1,10,0.0,1.6,134,134
81.8,5.8,1,11,0.0,1.9,134,134
81.9,8.0,1,12,0.10000000000000853,2.2,134,133
82.2,10.1,1,13,0.29999999999999716,2.0999999999999996,133,134
82.5,10.1,1,14,0.29999999999999716,0.0,134,132
82.7,10.1,1,15,0.20000000000000284,0.0,132,133
82.5,10.1,1,16,-0.20000000000000284,0.0,133,133
82.1,10.1,1,17,-0.4000000000000057,0.0,133,134
81.8,10.1,1,18,-0.29999999999999716,0.0,134,134
81.3,13.4,1,19,-0.5,3.3000000000000007,134,134
81.4,22.9,1,20,0.10000000000000853,9.499999999999998,134,133
81.5,24.4,1,21,0.09999999999999432,1.5,133,133
81.7,24.4,1,22,0.20000000000000284,0.0,133,132
81.7,27.1,1,23,0.0,2.700000000000003,132,131
81.8,29.7,1,24,0.09999999999999432,2.599999999999998,131,130
81.9,36.5,1,25,0.10000000000000853,6.800000000000001,130,130
82.0,37.1,1,26,0.09999999999999432,0.6000000000000014,130,130
82.1,37.1,1,27,0.09999999999999432,0.0,130,130
82.2,37.1,1,28,0.10000000000000853,0.0,130,130
82.3,37.1,1,29,0.09999999999999432,0.0,130,130
82.4,37.3,1,30,0.10000000000000853,0.19999999999999574,130,130
82.5,38.7,1,31,0.09999999999999432,1.4000000000000057,130,130
82.5,39.5,1,32,0.0,0.7999999999999972,130,130
82.6,40.4,1,33,0.09999999999999432,0.8999999999999986,130,131
82.7,41.1,1,34,0.10000000000000853,0.7000000000000028,131,131
82.7,42.2,1,35,0.0,1.1000000000000014,131,131
82.8,43.6,1,36,0.09999999999999432,1.3999999999999986,131,131
82.9,44.4,1,37,0.10000000000000853,0.7999999999999972,131,131
83.9,45.2,1,38,1.0,0.8000000000000043,131,130
84.2,46.3,1,39,0.29999999999999716,1.0999999999999943,130,129
84.4,47.3,1,40,0.20000000000000284,1.0,129,129
84.6,47.8,1,41,0.19999999999998863,0.5,129,129
84.9,48.4,1,42,0.30000000000001137,0.6000000000000014,129,129
85.1,49.8,1,43,0.19999999999998863,1.3999999999999986,129,130
85.2,50.6,1,44,0.10000000000000853,0.8000000000000043,130,130
85.4,51.3,1,45,0.20000000000000284,0.6999999999999957,130,130
85.5,51.7,1,46,0.09999999999999432,0.4000000000000057,130,130
85.6,52.5,1,47,0.09999999999999432,0.7999999999999972,130,129
85.8,53.1,1,48,0.20000000000000284,0.6000000000000014,129,129
86.0,53.5,1,49,0.20000000000000284,0.3999999999999986,129,130
86.3,53.9,1,50,0.29999999999999716,0.3999999999999986,130,130
86.5,54.2,1,51,0.20000000000000284,0.30000000000000426,130,130
86.6,54.7,1,52,0.09999999999999432,0.5,130,130
86.8,55.2,1,53,0.20000000000000284,0.5,130,130
87.0,55.7,1,54,0.20000000000000284,0.5,130,128
87.1,56.2,1,55,0.09999999999999432,0.5,128,129
87.2,56.8,1,56,0.10000000000000853,0.5999999999999943,129,129
87.6,57.4,1,57,0.3999999999999915,0.6000000000000014,129,129
87.8,58.0,1,58,0.20000000000000284,0.6000000000000014,129,129
88.1,58.7,1,59,0.29999999999999716,0.7000000000000028,129,129
88.5,59.5,1,60,0.4000000000000057,0.7999999999999972,129,130
88.7,60.3,1,61,0.20000000000000284,0.7999999999999972,130,130
88.9,61.2,1,62,0.20000000000000284,0.9000000000000057,130,130
89.1,62.2,1,63,0.19999999999998863,1.0,130,130
89.3,63.0,1,64,0.20000000000000284,0.7999999999999972,130,133
89.6,64.0,1,65,0.29999999999999716,1.0,133,134
89.9,65.1,1,66,0.30000000000001137,1.0999999999999943,134,134
90.1,66.2,1,67,0.19999999999998863,1.1000000000000085,134,135
90.3,67.2,1,68,0.20000000000000284,1.0,135,136
90.5,68.1,1,69,0.20000000000000284,0.8999999999999915,136,136
90.8,69.0,1,70,0.29999999999999716,0.9000000000000057,136,136
91.1,69.6,1,71,0.29999999999999716,0.5999999999999943,136,136
91.3,70.3,1,72,0.20000000000000284,0.7000000000000028,136,137
91.4,71.3,1,73,0.10000000000000853,1.0,137,137
91.5,72.2,1,74,0.09999999999999432,0.9000000000000057,137,138
91.8,73.2,1,75,0.29999999999999716,1.0,138,139
92.0,73.7,1,76,0.20000000000000284,0.5,139,139
92.2,74.3,1,77,0.20000000000000284,0.5999999999999943,139,139
92.4,74.9,1,78,0.20000000000000284,0.6000000000000085,139,139
92.7,75.7,1,79,0.29999999999999716,0.7999999999999972,139,140
92.8,76.5,1,80,0.09999999999999432,0.7999999999999972,140,140
93.1,77.3,1,81,0.29999999999999716,0.7999999999999972,140,140
93.3,78.1,1,82,0.20000000000000284,0.7999999999999972,140,140
93.6,78.8,1,83,0.29999999999999716,0.7000000000000028,140,140
93.8,79.8,1,84,0.20000000000000284,1.0,140,140
94.0,81.0,1,85,0.20000000000000284,1.2000000000000028,140,140
94.2,82.2,1,86,0.20000000000000284,1.2000000000000028,140,140
94.4,83.1,1,87,0.20000000000000284,0.8999999999999915,140,140
94.6,84.0,1,88,0.19999999999998863,0.9000000000000057,140,140
94.8,84.9,1,89,0.20000000000000284,0.9000000000000057,140,140
95.0,85.8,1,90,0.20000000000000284,0.8999999999999915,140,140
95.1,86.6,1,91,0.09999999999999432,0.7999999999999972,140,140
95.2,87.6,1,92,0.10000000000000853,1.0,140,140
95.3,88.3,1,93,0.09999999999999432,0.7000000000000028,140,140
95.4,89.0,1,94,0.10000000000000853,0.7000000000000028,140,140
95.5,89.4,1,95,0.09999999999999432,0.4000000000000057,140,140
96.7,89.9,1,96,1.2000000000000028,0.5,140,140
96.9,90.4,1,97,0.20000000000000284,0.5,140,140
97.2,90.7,1,98,0.29999999999999716,0.29999999999999716,140,140
97.6,91.3,1,99,0.3999999999999915,0.5999999999999943,140,140
97.8,91.9,1,100,0.20000000000000284,0.6000000000000085,140,140
98.1,92.7,1,101,0.29999999999999716,0.7999999999999972,140,140
98.5,93.6,1,102,0.4000000000000057,0.8999999999999915,140,140
98.9,94.4,1,103,0.4000000000000057,0.8000000000000114,140,140
99.4,95.5,1,104,0.5,1.0999999999999943,140,140
99.8,96.7,1,105,0.3999999999999915,1.2000000000000028,140,140
100.1,98.2,1,106,0.29999999999999716,1.5,140,140
100.5,99.8,1,107,0.4000000000000057,1.5999999999999943,140,140
100.9,101.1,1,108,0.4000000000000057,1.2999999999999972,140,140
101.2,102.5,1,109,0.29999999999999716,1.4000000000000057,140,139
101.5,103.7,1,110,0.29999999999999716,1.2000000000000028,139,139
102.0,105.0,1,111,0.5,1.2999999999999972,139,139
102.4,106.2,1,112,0.4000000000000057,1.2000000000000028,139,139
102.7,107.5,1,113,0.29999999999999716,1.2999999999999972,139,139
103.1,108.7,1,114,0.3999999999999915,1.2000000000000028,139,138
103.5,109.9,1,115,0.4000000000000057,1.2000000000000028,138,138
104.0,111.0,1,116,0.5,1.0999999999999943,138,138
104.4,112.4,1,117,0.4000000000000057,1.4000000000000057,138,138
105.0,113.8,1,118,0.5999999999999943,1.3999999999999915,138,138
105.3,115.4,1,119,0.29999999999999716,1.6000000000000085,138,138
105.7,117.1,1,120,0.4000000000000057,1.6999999999999886,138,138
105.9,118.8,1,121,0.20000000000000284,1.7000000000000028,138,137
106.3,120.3,1,122,0.3999999999999915,1.5,137,137
107.0,121.5,1,123,0.7000000000000028,1.2000000000000028,137,137
107.4,122.6,1,124,0.4000000000000057,1.0999999999999943,137,137
107.7,123.5,1,125,0.29999999999999716,0.9000000000000057,137,137
107.9,125.0,1,126,0.20000000000000284,1.5,137,136
108.2,126.7,1,127,0.29999999999999716,1.7000000000000028,136,136
108.4,128.2,1,128,0.20000000000000284,1.4999999999999858,136,136
108.6,128.8,1,129,0.19999999999998863,0.6000000000000227,136,135
108.7,129.6,1,130,0.10000000000000853,0.799999999999983,135,135
108.9,130.8,1,131,0.20000000000000284,1.200000000000017,135,135
109.1,132.4,1,132,0.19999999999998863,1.5999999999999943,135,135
109.4,133.6,1,133,0.30000000000001137,1.1999999999999886,135,134
109.6,134.2,1,134,0.19999999999998863,0.5999999999999943,134,134
109.9,135.0,1,135,0.30000000000001137,0.8000000000000114,134,133
110.1,136.1,1,136,0.19999999999998863,1.0999999999999943,133,133
110.3,137.1,1,137,0.20000000000000284,1.0,133,133
110.6,138.4,1,138,0.29999999999999716,1.3000000000000114,133,133
110.9,139.6,1,139,0.30000000000001137,1.1999999999999886,133,132
111.1,141.2,1,140,0.19999999999998863,1.5999999999999943,132,132
111.3,142.8,1,141,0.20000000000000284,1.6000000000000227,132,131
111.4,144.6,1,142,0.10000000000000853,1.799999999999983,131,131
111.7,146.0,1,143,0.29999999999999716,1.4000000000000057,131,131
111.9,147.3,1,144,0.20000000000000284,1.3000000000000114,131,130
112.1,148.5,1,145,0.19999999999998863,1.1999999999999886,130,130
112.3,149.7,1,146,0.20000000000000284,1.1999999999999886,130,130
112.5,150.9,1,147,0.20000000000000284,1.200000000000017,130,130
112.8,152.0,1,148,0.29999999999999716,1.0999999999999943,130,129
113.0,153.2,1,149,0.20000000000000284,1.1999999999999886,129,128
113.1,154.4,1,150,0.09999999999999432,1.200000000000017,128,128
113.2,155.7,1,151,0.10000000000000853,1.299999999999983,128,127
113.3,157.3,1,152,0.09999999999999432,1.6000000000000227,127,127
113.5,159.3,1,153,0.20000000000000284,2.0,127,127
113.6,161.0,1,154,0.09999999999999432,1.6999999999999886,127,126
113.7,162.5,1,155,0.10000000000000853,1.5,126,126
113.9,164.2,1,156,0.20000000000000284,1.6999999999999886,126,126
114.0,166.3,1,157,0.09999999999999432,2.1000000000000227,126,126
114.1,168.4,1,158,0.09999999999999432,2.0999999999999943,126,126
114.3,170.2,1,159,0.20000000000000284,1.799999999999983,126,127
114.4,171.8,1,160,0.10000000000000853,1.6000000000000227,127,127
114.5,173.1,1,161,0.09999999999999432,1.299999999999983,127,127
114.7,174.5,1,162,0.20000000000000284,1.4000000000000057,127,127
114.8,175.8,1,163,0.09999999999999432,1.3000000000000114,127,127
114.9,177.0,1,164,0.10000000000000853,1.1999999999999886,127,127
115.0,178.3,1,165,0.09999999999999432,1.3000000000000114,127,127
115.3,179.2,1,166,0.29999999999999716,0.8999999999999773,127,127
115.6,179.9,1,167,0.29999999999999716,0.700000000000017,127,127
115.8,180.7,1,168,0.20000000000000284,0.799999999999983,127,127
116.0,182.6,1,169,0.20000000000000284,1.9000000000000057,127,127
116.2,184.8,1,170,0.20000000000000284,2.200000000000017,127,127
116.5,186.5,1,171,0.29999999999999716,1.6999999999999886,127,127
116.6,188.3,1,172,0.09999999999999432,1.8000000000000114,127,127
116.8,190.3,1,173,0.20000000000000284,2.0,127,127
117.0,192.4,1,174,0.20000000000000284,2.0999999999999943,127,127
117.2,194.4,1,175,0.20000000000000284,2.0,127,126
117.5,196.0,1,176,0.29999999999999716,1.5999999999999943,126,126
117.6,197.6,1,177,0.09999999999999432,1.5999999999999943,126,126
117.8,198.6,1,178,0.20000000000000284,1.0,126,126
118.0,199.9,1,179,0.20000000000000284,1.3000000000000114,126,126
118.1,201.1,1,180,0.09999999999999432,1.1999999999999886,126,126
118.4,201.9,1,181,0.30000000000001137,0.8000000000000114,126,126
118.7,202.8,1,182,0.29999999999999716,0.9000000000000057,126,126
118.8,203.3,1,183,0.09999999999999432,0.5,126,127
118.9,204.7,1,184,0.10000000000000853,1.3999999999999773,127,127
119.1,205.9,1,185,0.19999999999998863,1.200000000000017,127,128
119.5,206.3,1,186,0.4000000000000057,0.4000000000000057,128,128
119.9,207.0,1,187,0.4000000000000057,0.6999999999999886,128,128
120.1,208.0,1,188,0.19999999999998863,1.0,128,128
120.4,209.5,1,189,0.30000000000001137,1.5,128,128
120.7,211.0,1,190,0.29999999999999716,1.5,128,128
120.9,212.8,1,191,0.20000000000000284,1.8000000000000114,128,128
121.1,214.6,1,192,0.19999999999998863,1.799999999999983,128,128
121.4,215.8,1,193,0.30000000000001137,1.200000000000017,128,128
121.6,216.6,1,194,0.19999999999998863,0.799999999999983,128,128
121.9,218.4,1,195,0.30000000000001137,1.8000000000000114,128,128
122.2,220.0,1,196,0.29999999999999716,1.5999999999999943,128,128
122.4,221.2,1,197,0.20000000000000284,1.1999999999999886,128,128
122.6,221.8,1,198,0.19999999999998863,0.6000000000000227,128,128
122.8,222.6,1,199,0.20000000000000284,0.799999999999983,128,129
123.0,223.7,1,200,0.20000000000000284,1.0999999999999943,129,129
123.3,224.6,1,201,0.29999999999999716,0.9000000000000057,129,129
123.5,225.2,1,202,0.20000000000000284,0.5999999999999943,129,129
123.8,226.0,1,203,0.29999999999999716,0.8000000000000114,129,129
124.0,227.0,1,204,0.20000000000000284,1.0,129,130
124.2,228.2,1,205,0.20000000000000284,1.1999999999999886,130,131
124.4,229.5,1,206,0.20000000000000284,1.3000000000000114,131,131
124.6,230.2,1,207,0.19999999999998863,0.6999999999999886,131,131
125.0,230.9,1,208,0.4000000000000057,0.700000000000017,131,132
125.2,231.8,1,209,0.20000000000000284,0.9000000000000057,132,133
125.3,232.9,1,210,0.09999999999999432,1.0999999999999943,133,133
125.3,234.2,1,211,0.0,1.299999999999983,133,133
125.4,235.4,1,212,0.10000000000000853,1.200000000000017,133,133
125.5,235.9,1,213,0.09999999999999432,0.5,133,134
125.5,235.9,1,214,0.0,0.0,134,134
125.7,235.9,1,215,0.20000000000000284,0.0,134,134
125.9,235.9,1,216,0.20000000000000284,0.0,134,134
125.9,235.9,1,217,0.0,0.0,134,134
126.0,236.4,1,218,0.09999999999999432,0.5,134,134
126.1,236.6,1,219,0.09999999999999432,0.19999999999998863,134,134
126.2,236.8,1,220,0.10000000000000853,0.20000000000001705,134,134
126.6,236.8,1,221,0.3999999999999915,0.0,134,134
126.9,237.2,1,222,0.30000000000001137,0.39999999999997726,134,134
127.2,237.8,1,223,0.29999999999999716,0.6000000000000227,134,134
127.4,239.5,1,224,0.20000000000000284,1.6999999999999886,134,135
127.7,241.3,1,225,0.29999999999999716,1.8000000000000114,135,135
127.9,243.1,1,226,0.20000000000000284,1.799999999999983,135,135
128.1,244.6,1,227,0.19999999999998863,1.5,135,135
128.2,246.4,1,228,0.09999999999999432,1.8000000000000114,135,136
128.4,248.9,1,229,0.20000000000001705,2.5,136,136
128.5,251.4,1,230,0.09999999999999432,2.5,136,137
128.6,253.3,1,231,0.09999999999999432,1.9000000000000057,137,137
128.6,255.1,1,232,0.0,1.799999999999983,137,137
128.7,256.3,1,233,0.09999999999999432,1.200000000000017,137,138
128.8,257.7,1,234,0.10000000000002274,1.3999999999999773,138,139
128.8,259.4,1,235,0.0,1.6999999999999886,139,139
128.9,260.5,1,236,0.09999999999999432,1.1000000000000227,139,139
128.9,261.7,1,237,0.0,1.1999999999999886,139,139
129.0,262.7,1,238,0.09999999999999432,1.0,139,140
129.0,263.9,1,239,0.0,1.1999999999999886,140,139
129.0,265.2,1,240,0.0,1.3000000000000114,139,139
120.1,266.5,1,241,-8.900000000000006,1.3000000000000114,139,139
120.2,267.9,1,242,0.10000000000000853,1.3999999999999773,139,139
120.3,269.3,1,243,0.09999999999999432,1.400000000000034,139,139
120.4,271.2,1,244,0.10000000000000853,1.8999999999999773,139,139
120.6,273.0,1,245,0.19999999999998863,1.8000000000000114,139,139
120.7,274.7,1,246,0.10000000000000853,1.6999999999999886,139,139
120.8,276.6,1,247,0.09999999999999432,1.900000000000034,139,139
120.9,278.5,1,248,0.10000000000000853,1.8999999999999773,139,138
121.0,280.3,1,249,0.09999999999999432,1.8000000000000114,138,138
121.1,282.1,1,250,0.09999999999999432,1.8000000000000114,138,137
121.3,283.8,1,251,0.20000000000000284,1.6999999999999886,137,137
121.4,285.4,1,252,0.10000000000000853,1.599999999999966,137,137
121.6,286.9,1,253,0.19999999999998863,1.5,137,136
121.7,288.4,1,254,0.10000000000000853,1.5,136,135
121.8,290.1,1,255,0.09999999999999432,1.7000000000000455,135,135
121.9,291.3,1,256,0.10000000000000853,1.1999999999999886,135,134
122.0,292.4,1,257,0.09999999999999432,1.099999999999966,134,134
122.2,293.6,1,258,0.20000000000000284,1.2000000000000455,134,134
122.4,294.7,1,259,0.20000000000000284,1.099999999999966,134,133
122.5,295.8,1,260,0.09999999999999432,1.1000000000000227,133,132
122.7,297.0,1,261,0.20000000000000284,1.1999999999999886,132,132
122.9,298.2,1,262,0.20000000000000284,1.1999999999999886,132,132
123.0,299.1,1,263,0.09999999999999432,0.9000000000000341,132,131
123.1,300.2,1,264,0.09999999999999432,1.099999999999966,131,130
123.2,301.2,1,265,0.10000000000000853,1.0,130,130
123.4,302.2,1,266,0.20000000000000284,1.0,130,130
123.6,303.2,1,267,0.19999999999998863,1.0,130,130
123.8,303.9,1,268,0.20000000000000284,0.6999999999999886,130,130
123.9,305.0,1,269,0.10000000000000853,1.1000000000000227,130,130
124.2,305.9,1,270,0.29999999999999716,0.8999999999999773,130,130
124.5,306.8,1,271,0.29999999999999716,0.9000000000000341,130,130
124.7,307.8,1,272,0.20000000000000284,1.0,130,130
125.0,309.0,1,273,0.29999999999999716,1.1999999999999886,130,129
125.3,310.4,1,274,0.29999999999999716,1.3999999999999773,129,129
125.6,311.9,1,275,0.29999999999999716,1.5,129,129
125.9,313.8,1,276,0.30000000000001137,1.900000000000034,129,129
126.2,315.6,1,277,0.29999999999999716,1.8000000000000114,129,129
126.4,317.2,1,278,0.20000000000000284,1.599999999999966,129,128
126.8,318.9,1,279,0.3999999999999915,1.6999999999999886,128,128
127.0,320.7,1,280,0.20000000000000284,1.8000000000000114,128,128
127.2,322.3,1,281,0.20000000000000284,1.6000000000000227,128,128
127.4,323.9,1,282,0.20000000000000284,1.599999999999966,128,128
127.5,325.1,1,283,0.09999999999999432,1.2000000000000455,128,128
127.6,326.3,1,284,0.09999999999999432,1.1999999999999886,128,128
127.8,327.3,1,285,0.20000000000000284,1.0,128,128
128.1,327.8,1,286,0.29999999999999716,0.5,128,128
128.4,328.3,1,287,0.30000000000001137,0.5,128,128
128.7,328.7,1,288,0.29999999999998295,0.39999999999997726,128,128
129.1,329.7,1,289,0.4000000000000057,1.0,128,130
129.3,330.6,1,290,0.20000000000001705,0.9000000000000341,130,130
129.6,331.5,1,291,0.29999999999998295,0.8999999999999773,130,130
129.9,332.9,1,292,0.30000000000001137,1.3999999999999773,130,130
130.3,334.1,1,293,0.4000000000000057,1.2000000000000455,130,130
130.5,335.4,1,294,0.19999999999998863,1.2999999999999545,130,130
130.9,337.1,1,295,0.4000000000000057,1.7000000000000455,130,131
131.2,339.3,1,296,0.29999999999998295,2.1999999999999886,131,131
131.4,340.8,1,297,0.20000000000001705,1.5,131,131
131.6,342.3,1,298,0.19999999999998863,1.5,131,131
131.8,343.6,1,299,0.20000000000001705,1.3000000000000114,131,132
132.0,344.7,1,300,0.19999999999998863,1.099999999999966,132,132
132.2,345.8,1,301,0.19999999999998863,1.1000000000000227,132,133
132.3,346.9,1,302,0.10000000000002274,1.099999999999966,133,133
132.5,348.1,1,303,0.19999999999998863,1.2000000000000455,133,133
132.7,348.9,1,304,0.19999999999998863,0.7999999999999545,133,134
132.9,349.4,1,305,0.20000000000001705,0.5,134,134
133.1,350.3,1,306,0.19999999999998863,0.9000000000000341,134,134
133.3,350.7,1,307,0.20000000000001705,0.39999999999997726,134,134
133.4,351.4,1,308,0.09999999999999432,0.6999999999999886,134,134
133.5,352.5,1,309,0.09999999999999432,1.1000000000000227,134,134
133.7,353.4,1,310,0.19999999999998863,0.8999999999999773,134,134
133.8,354.1,1,311,0.10000000000002274,0.7000000000000455,134,134
134.0,354.7,1,312,0.19999999999998863,0.5999999999999659,134,134
134.1,355.5,1,313,0.09999999999999432,0.8000000000000114,134,134
134.3,356.4,1,314,0.20000000000001705,0.8999999999999773,134,134
134.4,357.0,1,315,0.09999999999999432,0.6000000000000227,134,135
134.6,357.7,1,316,0.19999999999998863,0.6999999999999886,135,135
134.8,358.4,1,317,0.20000000000001705,0.6999999999999886,135,135
135.0,359.2,1,318,0.19999999999998863,0.8000000000000114,135,135
135.1,360.2,1,319,0.09999999999999432,1.0,135,135
135.3,361.2,1,320,0.20000000000001705,1.0,135,135
135.4,362.4,1,321,0.09999999999999432,1.1999999999999886,135,135
135.6,363.4,1,322,0.19999999999998863,1.0,135,135
135.8,364.4,1,323,0.20000000000001705,1.0,135,135
135.9,365.4,1,324,0.09999999999999432,1.0,135,135
136.1,366.4,1,325,0.19999999999998863,1.0,135,135
136.3,367.4,1,326,0.20000000000001705,1.0,135,135
136.4,368.3,1,327,0.09999999999999432,0.9000000000000341,135,135
136.7,369.2,1,328,0.29999999999998295,0.8999999999999773,135,136
136.8,370.2,1,329,0.10000000000002274,1.0,136,136
137.0,371.1,1,330,0.19999999999998863,0.9000000000000341,136,137
137.2,372.3,1,331,0.19999999999998863,1.1999999999999886,137,137
137.3,373.4,1,332,0.10000000000002274,1.099999999999966,137,137
137.5,374.8,1,333,0.19999999999998863,1.400000000000034,137,137
137.7,375.9,1,334,0.19999999999998863,1.099999999999966,137,138
137.8,376.9,1,335,0.10000000000002274,1.0,138,138
137.9,378.1,1,336,0.09999999999999432,1.2000000000000455,138,138
138.2,379.1,1,337,0.29999999999998295,1.0,138,138
138.4,380.0,1,338,0.20000000000001705,0.8999999999999773,138,138
138.6,381.0,1,339,0.19999999999998863,1.0,138,139
138.8,382.1,1,340,0.20000000000001705,1.1000000000000227,139,139
138.9,383.3,1,341,0.09999999999999432,1.1999999999999886,139,139
139.1,384.5,1,342,0.19999999999998863,1.1999999999999886,139,139
139.2,385.7,1,343,0.09999999999999432,1.1999999999999886,139,139
140.0,386.9,1,344,0.8000000000000114,1.1999999999999886,139,139
140.1,387.7,1,345,0.09999999999999432,0.8000000000000114,139,139
140.2,388.6,1,346,0.09999999999999432,0.9000000000000341,139,139
140.4,389.2,1,347,0.20000000000001705,0.5999999999999659,139,139
140.6,389.7,1,348,0.19999999999998863,0.5,139,139
140.8,389.9,1,349,0.20000000000001705,0.19999999999998863,139,139
141.0,390.4,1,350,0.19999999999998863,0.5,139,138
141.1,390.9,1,351,0.09999999999999432,0.5,138,138
141.4,391.5,1,352,0.30000000000001137,0.6000000000000227,138,138
141.6,392.1,1,353,0.19999999999998863,0.6000000000000227,138,138
141.8,393.0,1,354,0.20000000000001705,0.8999999999999773,138,138
142.0,394.2,1,355,0.19999999999998863,1.1999999999999886,138,137
142.1,395.5,1,356,0.09999999999999432,1.3000000000000114,137,137
142.3,396.8,1,357,0.20000000000001705,1.3000000000000114,137,137
142.4,397.9,1,358,0.09999999999999432,1.099999999999966,137,138
142.5,398.8,1,359,0.09999999999999432,0.9000000000000341,138,138
142.7,399.5,1,360,0.19999999999998863,0.6999999999999886,138,138
142.9,400.0,1,361,0.20000000000001705,0.5,138,138
143.1,400.8,1,362,0.19999999999998863,0.8000000000000114,138,138
143.3,401.7,1,363,0.20000000000001705,0.8999999999999773,138,138
143.5,402.4,1,364,0.19999999999998863,0.6999999999999886,138,138
143.7,402.9,1,365,0.19999999999998863,0.5,138,138
144.0,403.7,1,366,0.30000000000001137,0.8000000000000114,138,138
144.2,404.7,1,367,0.19999999999998863,1.0,138,138
144.3,405.5,1,368,0.10000000000002274,0.8000000000000114,138,138
144.4,406.8,1,369,0.09999999999999432,1.3000000000000114,138,138
144.6,408.0,1,370,0.19999999999998863,1.1999999999999886,138,138
144.7,408.9,1,371,0.09999999999999432,0.8999999999999773,138,138
144.8,409.6,1,372,0.10000000000002274,0.7000000000000455,138,138
145.1,410.1,1,373,0.29999999999998295,0.5,138,138
145.2,410.7,1,374,0.09999999999999432,0.5999999999999659,138,138
145.4,411.2,1,375,0.20000000000001705,0.5,138,138
145.6,411.6,1,376,0.19999999999998863,0.4000000000000341,138,138
145.7,412.1,1,377,0.09999999999999432,0.5,138,138
145.9,412.5,1,378,0.20000000000001705,0.39999999999997726,138,139
146.0,412.9,1,379,0.09999999999999432,0.39999999999997726,139,139
146.3,413.5,1,380,0.30000000000001137,0.6000000000000227,139,140
146.6,414.3,1,381,0.29999999999998295,0.8000000000000114,140,140
146.8,415.2,1,382,0.20000000000001705,0.8999999999999773,140,140
147.0,416.2,1,383,0.19999999999998863,1.0,140,140
147.2,417.2,1,384,0.19999999999998863,1.0,140,140
147.4,418.0,1,385,0.20000000000001705,0.8000000000000114,140,140
147.6,419.0,1,386,0.19999999999998863,1.0,140,139
147.8,419.8,1,387,0.20000000000001705,0.8000000000000114,139,139
147.9,420.7,1,388,0.09999999999999432,0.8999999999999773,139,139
148.1,421.6,1,389,0.19999999999998863,0.9000000000000341,139,139
148.2,422.5,1,390,0.09999999999999432,0.8999999999999773,139,139
148.4,423.3,1,391,0.20000000000001705,0.8000000000000114,139,140
148.5,423.9,1,392,0.09999999999999432,0.5999999999999659,140,140
148.7,424.5,1,393,0.19999999999998863,0.6000000000000227,140,140
148.8,425.1,1,394,0.10000000000002274,0.6000000000000227,140,140
149.0,425.5,1,395,0.19999999999998863,0.39999999999997726,140,140
149.1,426.1,1,396,0.09999999999999432,0.6000000000000227,140,140
149.3,426.7,1,397,0.20000000000001705,0.5999999999999659,140,140
149.5,427.2,1,398,0.19999999999998863,0.5,140,140
149.7,427.7,1,399,0.19999999999998863,0.5,140,141
149.9,428.3,1,400,0.20000000000001705,0.6000000000000227,141,141
150.0,429.1,1,401,0.09999999999999432,0.8000000000000114,141,141
150.2,429.9,1,402,0.19999999999998863,0.7999999999999545,141,141
150.3,430.7,1,403,0.10000000000002274,0.8000000000000114,141,141
150.5,431.5,1,404,0.19999999999998863,0.8000000000000114,141,140
150.7,432.1,1,405,0.19999999999998863,0.6000000000000227,140,140
150.8,432.8,1,406,0.10000000000002274,0.6999999999999886,140,141
150.9,433.4,1,407,0.09999999999999432,0.5999999999999659,141,141
151.0,434.4,1,408,0.09999999999999432,1.0,141,141
151.2,435.2,1,409,0.19999999999998863,0.8000000000000114,141,141
151.3,435.8,1,410,0.10000000000002274,0.6000000000000227,141,141
151.4,436.1,1,411,0.09999999999999432,0.30000000000001137,141,141
151.5,436.7,1,412,0.09999999999999432,0.5999999999999659,141,141
151.6,437.5,1,413,0.09999999999999432,0.8000000000000114,141,141
151.7,438.1,1,414,0.09999999999999432,0.6000000000000227,141,141
151.8,438.7,1,415,0.10000000000002274,0.5999999999999659,141,141
152.0,439.3,1,416,0.19999999999998863,0.6000000000000227,141,141
152.1,439.7,1,417,0.09999999999999432,0.39999999999997726,141,141
152.2,440.2,1,418,0.09999999999999432,0.5,141,141
152.3,440.8,1,419,0.10000000000002274,0.6000000000000227,141,141
152.5,441.5,1,420,0.19999999999998863,0.6999999999999886,141,141
152.6,442.1,1,421,0.09999999999999432,0.6000000000000227,141,141
152.8,442.8,1,422,0.20000000000001705,0.6999999999999886,141,141
152.9,443.7,1,423,0.09999999999999432,0.8999999999999773,141,141
153.0,444.9,1,424,0.09999999999999432,1.1999999999999886,141,142
153.1,446.0,1,425,0.09999999999999432,1.1000000000000227,142,142
153.2,446.8,1,426,0.09999999999999432,0.8000000000000114,142,142
153.3,448.0,1,427,0.10000000000002274,1.1999999999999886,142,142
153.4,449.1,1,428,0.09999999999999432,1.1000000000000227,142,142
153.5,450.1,1,429,0.09999999999999432,1.0,142,143
153.6,451.6,1,430,0.09999999999999432,1.5,143,143
153.7,452.7,1,431,0.09999999999999432,1.099999999999966,143,143
153.9,453.7,1,432,0.20000000000001705,1.0,143,143
153.9,454.9,1,433,0.0,1.1999999999999886,143,143
154.0,456.3,1,434,0.09999999999999432,1.400000000000034,143,143
154.0,458.6,1,435,0.0,2.3000000000000114,143,143
154.8,460.8,1,436,0.8000000000000114,2.1999999999999886,143,143
155.3,463.3,1,437,0.5,2.5,143,143
155.8,465.2,1,438,0.5,1.8999999999999773,143,143
156.1,467.0,1,439,0.29999999999998295,1.8000000000000114,143,144
156.4,469.1,1,440,0.30000000000001137,2.1000000000000227,144,144
156.8,470.8,1,441,0.4000000000000057,1.6999999999999886,144,144
157.0,472.2,1,442,0.19999999999998863,1.3999999999999773,144,144
157.2,473.3,1,443,0.19999999999998863,1.1000000000000227,144,145
157.4,473.9,1,444,0.20000000000001705,0.5999999999999659,145,145
157.6,474.3,1,445,0.19999999999998863,0.4000000000000341,145,145
157.9,474.3,1,446,0.30000000000001137,0.0,145,145
158.1,474.7,1,447,0.19999999999998863,0.39999999999997726,145,145
158.3,475.1,1,448,0.20000000000001705,0.4000000000000341,145,145
158.4,475.5,1,449,0.09999999999999432,0.39999999999997726,145,145
158.6,475.6,1,450,0.19999999999998863,0.10000000000002274,145,144
158.8,475.8,1,451,0.20000000000001705,0.19999999999998863,144,144
158.9,476.2,1,452,0.09999999999999432,0.39999999999997726,144,144
159.0,476.6,1,453,0.09999999999999432,0.4000000000000341,144,144
159.2,477.0,1,454,0.19999999999998863,0.39999999999997726,144,144
159.4,477.3,1,455,0.20000000000001705,0.30000000000001137,144,144
159.6,477.6,1,456,0.19999999999998863,0.30000000000001137,144,144
159.8,477.8,1,457,0.20000000000001705,0.19999999999998863,144,144
159.9,478.2,1,458,0.09999999999999432,0.39999999999997726,144,144
160.1,478.6,1,459,0.19999999999998863,0.4000000000000341,144,143
160.4,479.1,1,460,0.30000000000001137,0.5,143,143
160.6,479.5,1,461,0.19999999999998863,0.39999999999997726,143,142
160.8,479.9,1,462,0.20000000000001705,0.39999999999997726,142,142
161.1,480.7,1,463,0.29999999999998295,0.8000000000000114,142,142
161.3,481.6,1,464,0.20000000000001705,0.9000000000000341,142,141
161.4,482.4,1,465,0.09999999999999432,0.7999999999999545,141,141
161.5,483.2,1,466,0.09999999999999432,0.8000000000000114,141,141
161.7,483.8,1,467,0.19999999999998863,0.6000000000000227,141,141
161.8,484.3,1,468,0.10000000000002274,0.5,141,141
162.0,484.7,1,469,0.19999999999998863,0.39999999999997726,141,141
162.2,485.1,1,470,0.19999999999998863,0.4000000000000341,141,141
162.5,485.5,1,471,0.30000000000001137,0.39999999999997726,141,141
162.6,486.1,1,472,0.09999999999999432,0.6000000000000227,141,141
162.8,486.4,1,473,0.20000000000001705,0.2999999999999545,141,141
162.9,486.9,1,474,0.09999999999999432,0.5,141,141
163.1,487.3,1,475,0.19999999999998863,0.4000000000000341,141,141
163.3,487.8,1,476,0.20000000000001705,0.5,141,142
163.5,488.2,1,477,0.19999999999998863,0.39999999999997726,142,142
163.8,488.8,1,478,0.30000000000001137,0.6000000000000227,142,142
164.0,489.2,1,479,0.19999999999998863,0.39999999999997726,142,142
164.3,489.9,1,480,0.30000000000001137,0.6999999999999886,142,142
164.5,490.5,1,481,0.19999999999998863,0.6000000000000227,142,142
164.7,491.3,1,482,0.19999999999998863,0.8000000000000114,142,142
165.1,491.9,1,483,0.4000000000000057,0.5999999999999659,142,142
165.4,492.6,1,484,0.30000000000001137,0.7000000000000455,142,143
165.7,493.4,1,485,0.29999999999998295,0.7999999999999545,143,143
166.0,494.6,1,486,0.30000000000001137,1.2000000000000455,143,144
166.3,495.6,1,487,0.30000000000001137,1.0,144,144
166.7,496.6,1,488,0.39999999999997726,1.0,144,144
167.1,497.6,1,489,0.4000000000000057,1.0,144,144
167.4,498.5,1,490,0.30000000000001137,0.8999999999999773,144,144
167.7,499.8,1,491,0.29999999999998295,1.3000000000000114,144,144
168.2,501.0,1,492,0.5,1.1999999999999886,144,144
168.7,502.3,1,493,0.5,1.3000000000000114,144,145
169.3,503.4,1,494,0.6000000000000227,1.099999999999966,145,145
169.8,504.8,1,495,0.5,1.400000000000034,145,145
170.1,506.3,1,496,0.29999999999998295,1.5,145,145
170.5,508.4,1,497,0.4000000000000057,2.099999999999966,145,145
170.9,510.0,1,498,0.4000000000000057,1.6000000000000227,145,145
171.2,511.3,1,499,0.29999999999998295,1.3000000000000114,145,145
171.5,512.6,1,500,0.30000000000001137,1.3000000000000114,145,145
171.9,513.7,1,501,0.4000000000000057,1.1000000000000227,145,145
172.3,515.0,1,502,0.4000000000000057,1.2999999999999545,145,145
172.7,516.1,1,503,0.39999999999997726,1.1000000000000227,145,145
173.0,517.1,1,504,0.30000000000001137,1.0,145,145
173.3,518.0,1,505,0.30000000000001137,0.8999999999999773,145,145
173.6,518.8,1,506,0.29999999999998295,0.7999999999999545,145,144
174.0,519.5,1,507,0.4000000000000057,0.7000000000000455,144,144
174.4,520.5,1,508,0.4000000000000057,1.0,144,144
174.8,521.5,1,509,0.4000000000000057,1.0,144,144
175.2,522.5,1,510,0.39999999999997726,1.0,144,144
175.8,523.7,1,511,0.6000000000000227,1.2000000000000455,144,143
176.3,524.9,1,512,0.5,1.1999999999999318,143,143
176.8,526.0,1,513,0.5,1.1000000000000227,143,143
177.3,527.5,1,514,0.5,1.5,143,143
177.7,528.9,1,515,0.39999999999997726,1.3999999999999773,143,143
178.3,530.5,1,516,0.6000000000000227,1.6000000000000227,143,142
179.0,532.3,1,517,0.6999999999999886,1.7999999999999545,142,142
179.2,533.9,1,518,0.19999999999998863,1.6000000000000227,142,142
179.2,535.6,1,519,0.0,1.7000000000000455,142,142
179.2,537.5,1,520,0.0,1.8999999999999773,142,142
179.2,539.5,1,521,0.0,2.0,142,142
179.1,541.5,1,522,-0.09999999999999432,2.0,142,142
179.1,542.9,1,523,0.0,1.3999999999999773,142,142
179.1,544.7,1,524,0.0,1.8000000000000682,142,141
179.1,546.9,1,525,0.0,2.199999999999932,141,141
179.1,548.8,1,526,0.0,1.8999999999999773,141,141
179.1,550.6,1,527,0.0,1.8000000000000682,141,141
179.1,552.3,1,528,0.0,1.6999999999999318,141,141
179.0,553.8,1,529,-0.09999999999999432,1.5,141,141
179.0,555.5,1,530,0.0,1.7000000000000455,141,141
179.0,557.0,1,531,0.0,1.5,141,140
179.0,558.8,1,532,0.0,1.7999999999999545,140,140
179.0,560.1,1,533,0.0,1.3000000000000682,140,140
179.0,561.2,1,534,0.0,1.1000000000000227,140,140
179.0,562.5,1,535,0.0,1.2999999999999545,140,140
178.9,564.1,1,536,-0.09999999999999432,1.6000000000000227,140,139
178.9,565.3,1,537,0.0,1.1999999999999318,139,139
178.9,566.5,1,538,0.0,1.2000000000000455,139,139
178.9,567.8,1,539,0.0,1.2999999999999545,139,138
178.9,569.1,1,540,0.0,1.3000000000000682,138,138
178.9,570.6,1,541,0.0,1.5,138,137
178.8,572.2,1,542,-0.09999999999999432,1.6000000000000227,137,137
178.8,573.7,1,543,0.0,1.5,137,137
178.8,575.3,1,544,0.0,1.599999999999909,137,136
178.8,576.9,1,545,0.0,1.6000000000000227,136,136
178.8,578.5,1,546,0.0,1.6000000000000227,136,135
178.7,580.2,1,547,-0.10000000000002274,1.7000000000000455,135,135
178.7,581.5,1,548,0.0,1.2999999999999545,135,135
178.7,583.3,1,549,0.0,1.7999999999999545,135,134
178.7,584.9,1,550,0.0,1.6000000000000227,134,133
178.7,586.6,1,551,0.0,1.7000000000000455,133,133
178.7,588.4,1,552,0.0,1.7999999999999545,133,133
178.7,589.9,1,553,0.0,1.5,133,133
178.6,591.9,1,554,-0.09999999999999432,2.0,133,132
178.6,593.9,1,555,0.0,2.0,132,131
178.6,595.7,1,556,0.0,1.8000000000000682,131,131
178.6,597.5,1,557,0.0,1.7999999999999545,131,131
178.6,598.9,1,558,0.0,1.3999999999999773,131,130
178.6,600.9,1,559,0.0,2.0,130,128
178.6,602.6,1,560,0.0,1.7000000000000455,128,127
178.6,604.3,1,561,0.0,1.6999999999999318,127,127
178.6,606.0,1,562,0.0,1.7000000000000455,127,127
178.6,607.4,1,563,0.0,1.3999999999999773,127,126
178.6,608.9,1,564,0.0,1.5,126,124
178.6,610.6,1,565,0.0,1.7000000000000455,124,124
178.6,612.5,1,566,0.0,1.8999999999999773,124,123
178.6,614.0,1,567,0.0,1.5,123,123
178.6,615.3,1,568,0.0,1.2999999999999545,123,123
178.6,616.7,1,569,0.0,1.400000000000091,123,122
178.6,618.0,1,570,0.0,1.2999999999999545,122,121
178.6,619.4,1,571,0.0,1.3999999999999773,121,121
178.6,620.4,1,572,0.0,1.0,121,121
178.6,621.9,1,573,0.0,1.5,121,121
178.7,623.4,1,574,0.09999999999999432,1.5,121,120
178.7,624.8,1,575,0.0,1.3999999999999773,120,120
178.7,626.4,1,576,0.0,1.6000000000000227,120,121
178.8,628.0,1,577,0.10000000000002274,1.6000000000000227,121,121
178.8,629.8,1,578,0.0,1.7999999999999545,121,121
178.8,631.9,1,579,0.0,2.1000000000000227,121,120
178.8,633.6,1,580,0.0,1.7000000000000455,120,120
178.9,635.4,1,581,0.09999999999999432,1.7999999999999545,120,120
178.9,636.9,1,582,0.0,1.5,120,120
178.9,638.2,1,583,0.0,1.3000000000000682,120,120
179.0,639.6,1,584,0.09999999999999432,1.3999999999999773,120,120
179.0,640.9,1,585,0.0,1.2999999999999545,120,120
179.0,642.6,1,586,0.0,1.7000000000000455,120,120
179.1,644.5,1,587,0.09999999999999432,1.8999999999999773,120,120
179.1,645.8,1,588,0.0,1.2999999999999545,120,120
179.1,647.4,1,589,0.0,1.6000000000000227,120,120
179.2,649.2,1,590,0.09999999999999432,1.8000000000000682,120,120
179.2,650.5,1,591,0.0,1.2999999999999545,120,120
179.3,652.0,1,592,0.10000000000002274,1.5,120,120
179.3,653.6,1,593,0.0,1.6000000000000227,120,120
179.3,655.1,1,594,0.0,1.5,120,119
179.4,656.4,1,595,0.09999999999999432,1.2999999999999545,119,119
179.4,657.3,1,596,0.0,0.8999999999999773,119,119
179.4,658.5,1,597,0.0,1.2000000000000455,119,119
179.5,659.9,1,598,0.09999999999999432,1.3999999999999773,119,118
179.5,661.5,1,599,0.0,1.6000000000000227,118,118
179.6,663.2,1,600,0.09999999999999432,1.7000000000000455,118,118
179.6,665.0,1,601,0.0,1.7999999999999545,118,118
179.7,666.9,1,602,0.09999999999999432,1.8999999999999773,118,118
179.7,669.0,1,603,0.0,2.1000000000000227,118,117
179.8,670.9,1,604,0.10000000000002274,1.8999999999999773,117,117
179.8,672.8,1,605,0.0,1.8999999999999773,117,117
179.8,674.6,1,606,0.0,1.8000000000000682,117,117
179.9,676.3,1,607,0.09999999999999432,1.6999999999999318,117,117
179.9,677.9,1,608,0.0,1.6000000000000227,117,117
180.0,679.6,1,609,0.09999999999999432,1.7000000000000455,117,117
180.0,681.1,1,610,0.0,1.5,117,117
180.1,682.3,1,611,0.09999999999999432,1.1999999999999318,117,116
180.1,683.7,1,612,0.0,1.400000000000091,116,116
180.1,685.0,1,613,0.0,1.2999999999999545,116,116
180.2,686.5,1,614,0.09999999999999432,1.5,116,116
180.3,687.7,1,615,0.10000000000002274,1.2000000000000455,116,117
180.3,689.0,1,616,0.0,1.2999999999999545,117,118
180.4,690.7,1,617,0.09999999999999432,1.7000000000000455,118,118
180.4,692.1,1,618,0.0,1.3999999999999773,118,119
180.5,693.7,1,619,0.09999999999999432,1.6000000000000227,119,119
180.6,695.2,1,620,0.09999999999999432,1.5,119,120
180.6,696.9,1,621,0.0,1.6999999999999318,120,120
180.7,698.9,1,622,0.09999999999999432,2.0,120,120
180.8,700.9,1,623,0.10000000000002274,2.0,120,122
180.9,702.8,1,624,0.09999999999999432,1.8999999999999773,122,121
181.0,704.8,1,625,0.09999999999999432,2.0,121,120
181.1,707.0,1,626,0.09999999999999432,2.2000000000000455,120,119
181.1,709.2,1,627,0.0,2.2000000000000455,119,119
181.3,711.3,1,628,0.20000000000001705,2.099999999999909,119,119
181.4,713.5,1,629,0.09999999999999432,2.2000000000000455,119,118
181.6,715.3,1,630,0.19999999999998863,1.7999999999999545,118,118
181.7,717.3,1,631,0.09999999999999432,2.0,118,118
181.7,719.4,1,632,0.0,2.1000000000000227,118,118
181.8,721.7,1,633,0.10000000000002274,2.300000000000068,118,118
181.8,724.3,1,634,0.0,2.599999999999909,118,118
181.8,726.4,1,635,0.0,2.1000000000000227,118,118
181.9,728.1,1,636,0.09999999999999432,1.7000000000000455,118,118
181.9,729.9,1,637,0.0,1.7999999999999545,118,118
181.9,731.9,1,638,0.0,2.0,118,118
181.9,734.1,1,639,0.0,2.2000000000000455,118,118
181.9,735.6,1,640,0.0,1.5,118,118
181.9,737.0,1,641,0.0,1.3999999999999773,118,119
181.9,738.1,1,642,0.0,1.1000000000000227,119,119
181.9,739.2,1,643,0.0,1.1000000000000227,119,119
181.9,740.7,1,644,0.0,1.5,119,120
181.9,742.6,1,645,0.0,1.8999999999999773,120,121
181.9,744.4,1,646,0.0,1.7999999999999545,121,121
181.9,745.8,1,647,0.0,1.3999999999999773,121,120
181.9,747.4,1,648,0.0,1.6000000000000227,120,120
181.9,749.3,1,649,0.0,1.8999999999999773,120,120
181.9,751.0,1,650,0.0,1.7000000000000455,120,120
181.9,752.7,1,651,0.0,1.7000000000000455,120,120
181.9,754.2,1,652,0.0,1.5,120,120
181.9,755.6,1,653,0.0,1.3999999999999773,120,120
181.8,756.8,1,654,-0.09999999999999432,1.1999999999999318,120,120
181.8,758.1,1,655,0.0,1.3000000000000682,120,120
181.8,759.5,1,656,0.0,1.3999999999999773,120,120
181.6,761.0,1,657,-0.20000000000001705,1.5,120,120
181.5,762.0,1,658,-0.09999999999999432,1.0,120,120
181.5,763.4,1,659,0.0,1.3999999999999773,120,120
181.5,765.0,1,660,0.0,1.6000000000000227,120,120
181.5,766.4,1,661,0.0,1.3999999999999773,120,120
181.5,767.9,1,662,0.0,1.5,120,120
181.5,769.7,1,663,0.0,1.8000000000000682,120,120
181.5,771.6,1,664,0.0,1.8999999999999773,120,120
181.5,773.1,1,665,0.0,1.5,120,120
181.4,775.0,1,666,-0.09999999999999432,1.8999999999999773,120,121
181.4,776.6,1,667,0.0,1.6000000000000227,121,121
181.5,778.5,1,668,0.09999999999999432,1.8999999999999773,121,121
181.5,780.3,1,669,0.0,1.7999999999999545,121,121
181.4,781.9,1,670,-0.09999999999999432,1.6000000000000227,121,121
181.5,783.6,1,671,0.09999999999999432,1.7000000000000455,121,121
181.5,785.1,1,672,0.0,1.5,121,121
181.4,786.3,1,673,-0.09999999999999432,1.1999999999999318,121,121
181.4,788.1,1,674,0.0,1.8000000000000682,121,121
181.4,789.1,1,675,0.0,1.0,121,120
181.4,790.6,1,676,0.0,1.5,120,120
181.6,791.6,1,677,0.19999999999998863,1.0,120,120
181.5,792.5,1,678,-0.09999999999999432,0.8999999999999773,120,120
181.8,794.0,1,679,0.30000000000001137,1.5,120,120
182.0,795.4,1,680,0.19999999999998863,1.3999999999999773,120,120
182.0,797.3,1,681,0.0,1.8999999999999773,120,120
182.2,799.4,1,682,0.19999999999998863,2.1000000000000227,120,120
182.2,801.6,1,683,0.0,2.2000000000000455,120,120
182.2,803.7,1,684,0.0,2.1000000000000227,120,120
182.2,805.7,1,685,0.0,2.0,120,121
182.2,808.0,1,686,0.0,2.2999999999999545,121,121
182.1,810.5,1,687,-0.09999999999999432,2.5,121,121
182.1,812.9,1,688,0.0,2.3999999999999773,121,121
182.1,815.0,1,689,0.0,2.1000000000000227,121,121
182.3,816.7,1,690,0.20000000000001705,1.7000000000000455,121,121
182.3,818.7,1,691,0.0,2.0,121,121
182.3,820.3,1,692,0.0,1.599999999999909,121,121
182.5,822.3,1,693,0.19999999999998863,2.0,121,120
182.5,824.2,1,694,0.0,1.900000000000091,120,120
182.5,826.2,1,695,0.0,2.0,120,120
182.7,827.8,1,696,0.19999999999998863,1.599999999999909,120,120
182.7,829.5,1,697,0.0,1.7000000000000455,120,120
182.9,831.3,1,698,0.20000000000001705,1.7999999999999545,120,119
183.1,833.3,1,699,0.19999999999998863,2.0,119,119
183.1,834.9,1,700,0.0,1.6000000000000227,119,119
183.6,837.1,1,701,0.5,2.2000000000000455,119,119
183.6,839.2,1,702,0.0,2.1000000000000227,119,119
183.8,841.2,1,703,0.20000000000001705,2.0,119,119
184.3,843.1,1,704,0.5,1.8999999999999773,119,119
184.3,845.1,1,705,0.0,2.0,119,119
184.5,847.0,1,706,0.19999999999998863,1.8999999999999773,119,119
184.7,849.0,1,707,0.19999999999998863,2.0,119,119
185.2,851.0,1,708,0.5,2.0,119,119
185.2,852.8,1,709,0.0,1.7999999999999545,119,119
185.4,854.4,1,710,0.20000000000001705,1.6000000000000227,119,119
185.7,856.1,1,711,0.29999999999998295,1.7000000000000455,119,119
185.9,857.7,1,712,0.20000000000001705,1.6000000000000227,119,119
185.9,859.5,1,713,0.0,1.7999999999999545,119,119
186.0,861.3,1,714,0.09999999999999432,1.7999999999999545,119,119
186.2,863.3,1,715,0.19999999999998863,2.0,119,119
186.2,864.7,1,716,0.0,1.400000000000091,119,119
186.5,866.3,1,717,0.30000000000001137,1.599999999999909,119,118
186.4,867.8,1,718,-0.09999999999999432,1.5,118,118
186.4,869.6,1,719,0.0,1.8000000000000682,118,118
186.7,871.4,1,720,0.29999999999998295,1.7999999999999545,118,118
186.8,873.1,1,721,0.10000000000002274,1.7000000000000455,118,117
187.1,874.7,1,722,0.29999999999998295,1.6000000000000227,117,117
187.3,876.5,1,723,0.20000000000001705,1.7999999999999545,117,116
187.3,878.0,1,724,0.0,1.5,116,116
187.5,880.2,1,725,0.19999999999998863,2.2000000000000455,116,116
187.7,881.7,1,726,0.19999999999998863,1.5,116,116
188.0,883.4,1,727,0.30000000000001137,1.6999999999999318,116,115
188.0,884.9,1,728,0.0,1.5,115,115
188.5,886.4,1,729,0.5,1.5,115,115
188.4,888.1,1,730,-0.09999999999999432,1.7000000000000455,115,115
188.7,889.7,1,731,0.29999999999998295,1.6000000000000227,115,115
188.7,891.2,1,732,0.0,1.5,115,115
188.9,892.8,1,733,0.20000000000001705,1.599999999999909,115,115
189.1,894.0,1,734,0.19999999999998863,1.2000000000000455,115,115
189.4,895.6,1,735,0.30000000000001137,1.6000000000000227,115,116
189.8,897.3,1,736,0.4000000000000057,1.6999999999999318,116,116
190.0,898.9,1,737,0.19999999999998863,1.6000000000000227,116,116
190.0,900.2,1,738,0.0,1.3000000000000682,116,117
190.2,901.4,1,739,0.19999999999998863,1.1999999999999318,117,118
190.5,902.8,1,740,0.30000000000001137,1.3999999999999773,118,118
190.5,904.3,1,741,0.0,1.5,118,118
191.0,905.3,1,742,0.5,1.0,118,118
191.0,906.6,1,743,0.0,1.3000000000000682,118,119
191.0,908.2,1,744,0.0,1.6000000000000227,119,120
191.0,909.7,1,745,0.0,1.5,120,120
191.0,910.8,1,746,0.0,1.099999999999909,120,120
191.2,911.7,1,747,0.19999999999998863,0.900000000000091,120,120
191.2,912.7,1,748,0.0,1.0,120,121
191.7,914.0,1,749,0.5,1.2999999999999545,121,121
191.7,915.1,1,750,0.0,1.1000000000000227,121,121
191.9,916.5,1,751,0.20000000000001705,1.3999999999999773,121,120
191.7,917.7,1,752,-0.20000000000001705,1.2000000000000455,120,120
191.9,919.0,1,753,0.20000000000001705,1.2999999999999545,120,119
192.1,920.3,1,754,0.19999999999998863,1.2999999999999545,119,119
192.4,922.0,1,755,0.30000000000001137,1.7000000000000455,119,119
192.3,923.6,1,756,-0.09999999999999432,1.6000000000000227,119,119
192.6,925.0,1,757,0.29999999999998295,1.3999999999999773,119,119
192.4,926.4,1,758,-0.19999999999998863,1.3999999999999773,119,119
192.3,928.0,1,759,-0.09999999999999432,1.6000000000000227,119,118
192.5,929.7,1,760,0.19999999999998863,1.7000000000000455,118,118
192.5,931.3,1,761,0.0,1.599999999999909,118,118
192.6,932.6,1,762,0.09999999999999432,1.3000000000000682,118,118
192.6,934.3,1,763,0.0,1.6999999999999318,118,118
192.6,936.1,1,764,0.0,1.8000000000000682,118,118
192.7,938.1,1,765,0.09999999999999432,2.0,118,118
192.8,939.8,1,766,0.10000000000002274,1.6999999999999318,118,118
192.8,941.6,1,767,0.0,1.8000000000000682,118,118
192.8,943.2,1,768,0.0,1.6000000000000227,118,118
192.8,944.9,1,769,0.0,1.6999999999999318,118,117
192.5,946.7,1,770,-0.30000000000001137,1.8000000000000682,117,117
192.5,948.7,1,771,0.0,2.0,117,117
192.2,951.2,1,772,-0.30000000000001137,2.5,117,116
192.2,954.0,1,773,0.0,2.7999999999999545,116,116
192.2,956.0,1,774,0.0,2.0,116,115
192.2,958.5,1,775,0.0,2.5,115,115
192.2,961.0,1,776,0.0,2.5,115,114
192.2,963.1,1,777,0.0,2.1000000000000227,114,114
192.2,965.6,1,778,0.0,2.5,114,114
191.9,967.5,1,779,-0.29999999999998295,1.8999999999999773,114,113
191.9,969.6,1,780,0.0,2.1000000000000227,113,112
191.9,971.3,1,781,0.0,1.6999999999999318,112,112
191.9,972.6,1,782,0.0,1.3000000000000682,112,112
191.9,974.8,1,783,0.0,2.199999999999932,112,112
192.0,976.8,1,784,0.09999999999999432,2.0,112,111
192.3,978.6,1,785,0.30000000000001137,1.8000000000000682,111,111
192.2,980.7,1,786,-0.10000000000002274,2.1000000000000227,111,111
192.5,982.4,1,787,0.30000000000001137,1.6999999999999318,111,111
192.5,984.3,1,788,0.0,1.8999999999999773,111,110
192.7,985.7,1,789,0.19999999999998863,1.400000000000091,110,109
192.4,987.2,1,790,-0.29999999999998295,1.5,109,109
192.5,988.6,1,791,0.09999999999999432,1.3999999999999773,109,109
192.7,989.7,1,792,0.19999999999998863,1.1000000000000227,109,109
192.7,991.1,1,793,0.0,1.3999999999999773,109,108
192.7,992.5,1,794,0.0,1.3999999999999773,108,107
192.7,993.6,1,795,0.0,1.1000000000000227,107,107
192.7,994.9,1,796,0.0,1.2999999999999545,107,107
192.7,996.2,1,797,0.0,1.3000000000000682,107,107
192.9,998.5,1,798,0.20000000000001705,2.2999999999999545,107,107
192.9,1000.2,1,799,0.0,1.7000000000000455,107,107
193.1,1002.0,1,800,0.19999999999998863,1.7999999999999545,107,107
193.1,1003.7,1,801,0.0,1.7000000000000455,107,107
193.1,1005.7,1,802,0.0,2.0,107,107
193.4,1007.0,1,803,0.30000000000001137,1.2999999999999545,107,108
193.3,1008.4,1,804,-0.09999999999999432,1.3999999999999773,108,108
193.3,1008.9,1,805,0.0,0.5,108,108
193.6,1009.8,1,806,0.29999999999998295,0.8999999999999773,108,108
193.8,1010.4,1,807,0.20000000000001705,0.6000000000000227,108,108
194.0,1011.8,1,808,0.19999999999998863,1.3999999999999773,108,108
194.3,1012.6,1,809,0.30000000000001137,0.8000000000000682,108,108
194.3,1014.3,1,810,0.0,1.6999999999999318,108,108
194.3,1016.6,1,811,0.0,2.300000000000068,108,108
194.2,1018.6,1,812,-0.10000000000002274,2.0,108,108
194.5,1020.3,1,813,0.30000000000001137,1.6999999999999318,108,108
194.5,1021.5,1,814,0.0,1.2000000000000455,108,107
194.6,1022.9,1,815,0.09999999999999432,1.3999999999999773,107,107
194.6,1024.0,1,816,0.0,1.1000000000000227,107,107
194.5,1024.9,1,817,-0.09999999999999432,0.900000000000091,107,107
194.5,1025.7,1,818,0.0,0.7999999999999545,107,107
194.5,1025.9,1,819,0.0,0.20000000000004547,107,107
194.5,1026.4,1,820,0.0,0.5,107,107
194.5,1026.9,1,821,0.0,0.5,107,106
194.5,1027.9,1,822,0.0,1.0,106,106
194.5,1029.2,1,823,0.0,1.2999999999999545,106,106
194.5,1031.1,1,824,0.0,1.8999999999998636,106,105
194.6,1034.3,1,825,0.09999999999999432,3.2000000000000455,105,105
194.5,1037.6,1,826,-0.09999999999999432,3.2999999999999545,105,105
194.6,1040.8,1,827,0.09999999999999432,3.2000000000000455,105,105
194.5,1044.3,1,828,-0.09999999999999432,3.5,105,105
194.6,1048.1,1,829,0.09999999999999432,3.7999999999999545,105,106
194.6,1051.5,1,830,0.0,3.400000000000091,106,107
194.4,1055.0,1,831,-0.19999999999998863,3.5,107,107
194.4,1057.5,1,832,0.0,2.5,107,107
194.4,1059.5,1,833,0.0,2.0,107,108
194.4,1061.1,1,834,0.0,1.599999999999909,108,108
194.5,1061.7,1,835,0.09999999999999432,0.6000000000001364,108,108
194.4,1062.1,1,836,-0.09999999999999432,0.3999999999998636,108,108
194.7,1062.8,1,837,0.29999999999998295,0.7000000000000455,108,108
194.7,1063.0,1,838,0.0,0.20000000000004547,108,108
194.9,1063.9,1,839,0.20000000000001705,0.900000000000091,108,109
195.1,1064.6,1,840,0.19999999999998863,0.6999999999998181,109,109
195.1,1066.0,1,841,0.0,1.400000000000091,109,109
195.2,1067.5,1,842,0.09999999999999432,1.5,109,110
195.2,1069.1,1,843,0.0,1.599999999999909,110,111
195.2,1071.1,1,844,0.0,2.0,111,113
195.1,1072.8,1,845,-0.09999999999999432,1.7000000000000455,113,113
195.1,1073.8,1,846,0.0,1.0,113,113
195.2,1074.5,1,847,0.09999999999999432,0.7000000000000455,113,114
195.2,1074.6,1,848,0.0,0.09999999999990905,114,114
195.0,1075.0,1,849,-0.19999999999998863,0.40000000000009095,114,114
195.0,1075.6,1,850,0.0,0.599999999999909,114,114
194.8,1076.1,1,851,-0.19999999999998863,0.5,114,114
194.9,1077.0,1,852,0.09999999999999432,0.900000000000091,114,114
194.7,1078.1,1,853,-0.20000000000001705,1.099999999999909,114,114
194.7,1079.1,1,854,0.0,1.0,114,114
194.7,1081.0,1,855,0.0,1.900000000000091,114,115
194.7,1083.0,1,856,0.0,2.0,115,115
194.9,1085.6,1,857,0.20000000000001705,2.599999999999909,115,116
194.8,1087.7,1,858,-0.09999999999999432,2.1000000000001364,116,117
194.6,1089.3,1,859,-0.20000000000001705,1.599999999999909,117,118
194.6,1091.2,1,860,0.0,1.900000000000091,118,118
194.3,1092.7,1,861,-0.29999999999998295,1.5,118,118
194.1,1094.8,1,862,-0.20000000000001705,2.099999999999909,118,118
194.1,1097.1,1,863,0.0,2.2999999999999545,118,117
194.0,1099.5,1,864,-0.09999999999999432,2.400000000000091,117,116
193.9,1102.2,1,865,-0.09999999999999432,2.7000000000000455,116,116
193.9,1104.7,1,866,0.0,2.5,116,115
193.9,1106.8,1,867,0.0,2.099999999999909,115,114
193.9,1108.8,1,868,0.0,2.0,114,113
193.9,1110.8,1,869,0.0,2.0,113,112
193.9,1112.9,1,870,0.0,2.1000000000001364,112,112
193.9,1114.3,1,871,0.0,1.3999999999998636,112,111
193.9,1116.0,1,872,0.0,1.7000000000000455,111,111
193.8,1117.9,1,873,-0.09999999999999432,1.900000000000091,111,110
193.8,1119.3,1,874,0.0,1.3999999999998636,110,111
193.8,1120.2,1,875,0.0,0.900000000000091,111,111
193.8,1121.6,1,876,0.0,1.3999999999998636,111,111
193.8,1123.2,1,877,0.0,1.6000000000001364,111,112
193.8,1124.6,1,878,0.0,1.3999999999998636,112,112
193.8,1126.4,1,879,0.0,1.800000000000182,112,112
193.8,1127.8,1,880,0.0,1.3999999999998636,112,112
193.8,1129.2,1,881,0.0,1.400000000000091,112,112
193.7,1130.3,1,882,-0.10000000000002274,1.099999999999909,112,112
193.7,1131.5,1,883,0.0,1.2000000000000455,112,112
193.7,1132.9,1,884,0.0,1.400000000000091,112,113
193.7,1134.5,1,885,0.0,1.599999999999909,113,114
193.7,1135.9,1,886,0.0,1.400000000000091,114,114
193.7,1137.3,1,887,0.0,1.3999999999998636,114,114
193.7,1138.4,1,888,0.0,1.1000000000001364,114,114
193.7,1139.8,1,889,0.0,1.3999999999998636,114,115
193.6,1141.3,1,890,-0.09999999999999432,1.5,115,115
193.6,1142.9,1,891,0.0,1.6000000000001364,115,115
193.6,1144.6,1,892,0.0,1.699999999999818,115,115
193.6,1146.1,1,893,0.0,1.5,115,115
193.6,1147.7,1,894,0.0,1.6000000000001364,115,115
193.6,1149.4,1,895,0.0,1.7000000000000455,115,115
193.6,1150.9,1,896,0.0,1.5,115,115
193.6,1152.2,1,897,0.0,1.2999999999999545,115,115
193.5,1153.3,1,898,-0.09999999999999432,1.099999999999909,115,115
193.5,1154.4,1,899,0.0,1.1000000000001364,115,115
193.5,1155.4,1,900,0.0,1.0,115,116
193.5,1156.9,1,901,0.0,1.5,116,116
193.5,1157.6,1,902,0.0,0.6999999999998181,116,116
193.5,1158.4,1,903,0.0,0.8000000000001819,116,115
193.5,1158.8,1,904,0.0,0.3999999999998636,115,115
193.5,1160.0,1,905,0.0,1.2000000000000455,115,115
193.4,1161.1,1,906,-0.09999999999999432,1.099999999999909,115,115
193.4,1162.4,1,907,0.0,1.300000000000182,115,115
193.4,1163.0,1,908,0.0,0.599999999999909,115,115
193.5,1163.8,1,909,0.09999999999999432,0.7999999999999545,115,115
193.4,1164.2,1,910,-0.09999999999999432,0.40000000000009095,115,115
193.5,1165.4,1,911,0.09999999999999432,1.2000000000000455,115,115
193.5,1166.4,1,912,0.0,1.0,115,114
193.5,1167.4,1,913,0.0,1.0,114,114
193.6,1168.0,1,914,0.09999999999999432,0.599999999999909,114,114
193.6,1168.9,1,915,0.0,0.900000000000091,114,114
193.6,1169.9,1,916,0.0,1.0,114,114
193.6,1171.7,1,917,0.0,1.7999999999999545,114,114
193.6,1173.6,1,918,0.0,1.8999999999998636,114,114
193.6,1176.0,1,919,0.0,2.400000000000091,114,114
193.6,1178.9,1,920,0.0,2.900000000000091,114,115
193.6,1181.8,1,921,0.0,2.8999999999998636,115,115
193.6,1185.1,1,922,0.0,3.2999999999999545,115,113
193.5,1188.1,1,923,-0.09999999999999432,3.0,113,112
193.5,1191.2,1,924,0.0,3.1000000000001364,112,112
193.5,1194.6,1,925,0.0,3.3999999999998636,112,113
193.5,1197.4,1,926,0.0,2.800000000000182,113,113
193.5,1200.4,1,927,0.0,3.0,113,113
193.5,1202.7,1,928,0.0,2.2999999999999545,113,114
193.5,1205.2,1,929,0.0,2.5,114,114
193.5,1208.0,1,930,0.0,2.7999999999999545,114,114
193.5,1210.3,1,931,0.0,2.2999999999999545,114,114
193.5,1212.9,1,932,0.0,2.6000000000001364,114,114
193.5,1215.1,1,933,0.0,2.199999999999818,114,113
193.5,1217.0,1,934,0.0,1.900000000000091,113,113
193.5,1219.5,1,935,0.0,2.5,113,113
193.5,1221.2,1,936,0.0,1.7000000000000455,113,113
193.5,1222.7,1,937,0.0,1.5,113,113
193.5,1223.7,1,938,0.0,1.0,113,113
193.5,1224.6,1,939,0.0,0.8999999999998636,113,113
193.5,1225.9,1,940,0.0,1.300000000000182,113,113
193.5,1227.1,1,941,0.0,1.199999999999818,113,113
193.5,1228.8,1,942,0.0,1.7000000000000455,113,113
193.5,1230.0,1,943,0.0,1.2000000000000455,113,113
193.5,1231.4,1,944,0.0,1.400000000000091,113,113
193.5,1232.8,1,945,0.0,1.3999999999998636,113,113
193.5,1234.5,1,946,0.0,1.7000000000000455,113,113
193.5,1236.2,1,947,0.0,1.7000000000000455,113,113
193.5,1238.1,1,948,0.0,1.8999999999998636,113,113
193.4,1240.4,1,949,-0.09999999999999432,2.300000000000182,113,113
193.4,1242.2,1,950,0.0,1.7999999999999545,113,112
193.4,1243.8,1,951,0.0,1.599999999999909,112,109
193.4,1246.2,1,952,0.0,2.400000000000091,109,109
193.4,1248.0,1,953,0.0,1.7999999999999545,109,108
193.4,1250.1,1,954,0.0,2.099999999999909,108,109
193.4,1252.1,1,955,0.0,2.0,109,110
193.4,1253.9,1,956,0.0,1.800000000000182,110,110
193.4,1255.5,1,957,0.0,1.599999999999909,110,110
193.4,1257.0,1,958,0.0,1.5,110,111
193.4,1258.6,1,959,0.0,1.599999999999909,111,110
193.4,1260.4,1,960,0.0,1.800000000000182,110,109
193.4,1262.1,1,961,0.0,1.699999999999818,109,109
193.4,1263.7,1,962,0.0,1.6000000000001364,109,109
193.4,1265.6,1,963,0.0,1.8999999999998636,109,108
193.4,1267.2,1,964,0.0,1.6000000000001364,108,106
193.4,1269.3,1,965,0.0,2.099999999999909,106,106
193.4,1271.7,1,966,0.0,2.400000000000091,106,105
193.4,1273.6,1,967,0.0,1.8999999999998636,105,105
193.4,1275.5,1,968,0.0,1.900000000000091,105,105
193.4,1277.4,1,969,0.0,1.900000000000091,105,105
193.4,1278.7,1,970,0.0,1.2999999999999545,105,105
193.4,1280.2,1,971,0.0,1.5,105,105
193.4,1282.1,1,972,0.0,1.8999999999998636,105,105
193.4,1284.6,1,973,0.0,2.5,105,105
193.4,1285.9,1,974,0.0,1.300000000000182,105,106
193.4,1287.2,1,975,0.0,1.2999999999999545,106,106
193.4,1289.0,1,976,0.0,1.7999999999999545,106,106
193.3,1291.2,1,977,-0.09999999999999432,2.2000000000000455,106,106
193.3,1292.7,1,978,0.0,1.5,106,106
193.3,1294.4,1,979,0.0,1.7000000000000455,106,106
193.3,1296.1,1,980,0.0,1.699999999999818,106,106
193.3,1298.7,1,981,0.0,2.6000000000001364,106,106
193.3,1300.0,1,982,0.0,1.2999999999999545,106,106
193.3,1301.9,1,983,0.0,1.900000000000091,106,106
193.3,1303.5,1,984,0.0,1.599999999999909,106,106
193.3,1305.4,1,985,0.0,1.900000000000091,106,106
193.3,1307.0,1,986,0.0,1.599999999999909,106,106
193.3,1309.2,1,987,0.0,2.2000000000000455,106,106
193.3,1311.5,1,988,0.0,2.2999999999999545,106,107
193.3,1313.4,1,989,0.0,1.900000000000091,107,107
193.3,1314.7,1,990,0.0,1.2999999999999545,107,107
193.3,1316.2,1,991,0.0,1.5,107,107
193.3,1317.9,1,992,0.0,1.7000000000000455,107,107
193.2,1320.3,1,993,-0.10000000000002274,2.3999999999998636,107,107
193.2,1323.4,1,994,0.0,3.1000000000001364,107,107
193.2,1325.4,1,995,0.0,2.0,107,107
193.2,1327.5,1,996,0.0,2.099999999999909,107,108
193.2,1329.9,1,997,0.0,2.400000000000091,108,108
193.2,1331.7,1,998,0.0,1.7999999999999545,108,109
193.1,1333.1,1,999,-0.09999999999999432,1.3999999999998636,109,109
193.1,1335.2,1,1000,0.0,2.1000000000001364,109,108
193.1,1337.1,1,1001,0.0,1.8999999999998636,108,108
193.1,1338.0,1,1002,0.0,0.900000000000091,108,108
193.1,1338.0,1,1003,0.0,0.0,108,107
193.1,1339.0,1,1004,0.0,1.0,107,107
193.1,1340.2,1,1005,0.0,1.2000000000000455,107,107
193.1,1340.9,1,1006,0.0,0.7000000000000455,107,107
193.1,1341.5,1,1007,0.0,0.599999999999909,107,107
193.0,1342.3,1,1008,-0.09999999999999432,0.7999999999999545,107,108
193.0,1343.2,1,1009,0.0,0.900000000000091,108,108
193.0,1344.3,1,1010,0.0,1.099999999999909,108,109
193.0,1345.7,1,1011,0.0,1.400000000000091,109,109
193.0,1347.2,1,1012,0.0,1.5,109,109
192.9,1348.8,1,1013,-0.09999999999999432,1.599999999999909,109,109
192.9,1350.3,1,1014,0.0,1.5,109,109
192.9,1352.4,1,1015,0.0,2.1000000000001364,109,109
192.9,1354.3,1,1016,0.0,1.8999999999998636,109,109
192.9,1356.4,1,1017,0.0,2.1000000000001364,109,109
192.9,1358.6,1,1018,0.0,2.199999999999818,109,109
192.8,1360.3,1,1019,-0.09999999999999432,1.7000000000000455,109,109
192.8,1362.0,1,1020,0.0,1.7000000000000455,109,109
192.8,1363.5,1,1021,0.0,1.5,109,109
192.8,1364.9,1,1022,0.0,1.400000000000091,109,109
192.8,1366.9,1,1023,0.0,2.0,109,110
192.7,1369.0,1,1024,-0.10000000000002274,2.099999999999909,110,110
192.7,1371.3,1,1025,0.0,2.2999999999999545,110,110
192.7,1373.0,1,1026,0.0,1.7000000000000455,110,110
192.7,1374.8,1,1027,0.0,1.7999999999999545,110,110
192.7,1377.4,1,1028,0.0,2.6000000000001364,110,110
192.6,1379.2,1,1029,-0.09999999999999432,1.7999999999999545,110,109
192.6,1381.2,1,1030,0.0,2.0,109,109
192.6,1383.4,1,1031,0.0,2.2000000000000455,109,109
192.6,1384.7,1,1032,0.0,1.2999999999999545,109,109
192.6,1385.7,1,1033,0.0,1.0,109,109
192.6,1386.9,1,1034,0.0,1.2000000000000455,109,109
192.6,1388.5,1,1035,0.0,1.599999999999909,109,109
192.6,1389.9,1,1036,0.0,1.400000000000091,109,109
192.6,1390.3,1,1037,0.0,0.3999999999998636,109,110
192.5,1391.3,1,1038,-0.09999999999999432,1.0,110,110
192.5,1391.9,1,1039,0.0,0.6000000000001364,110,109
192.5,1391.9,1,1040,0.0,0.0,109,108
192.5,1391.9,1,1041,0.0,0.0,108,107
192.5,1391.9,1,1042,0.0,0.0,107,107
192.5,1391.9,1,1043,0.0,0.0,107,108
192.5,1392.0,1,1044,0.0,0.09999999999990905,108,108
192.4,1392.6,1,1045,-0.09999999999999432,0.599999999999909,108,109
192.4,1392.8,1,1046,0.0,0.20000000000004547,109,110
192.4,1393.7,1,1047,0.0,0.900000000000091,110,110
192.4,1394.9,1,1048,0.0,1.2000000000000455,110,111
192.4,1396.2,1,1049,0.0,1.2999999999999545,111,112
192.4,1397.6,1,1050,0.0,1.3999999999998636,112,112
192.4,1398.3,1,1051,0.0,0.7000000000000455,112,113
192.4,1398.6,1,1052,0.0,0.2999999999999545,113,112
