alt,dst,tdiff,tsdiff,aldiff,dsdiff,phb,hb
188.0,3.4,1,1,0.0,2.9,103,103
188.0,6.2,1,2,0.0,2.8000000000000003,103,103
188.0,14.6,1,3,0.0,8.399999999999999,103,103
188.0,22.3,1,4,0.0,7.700000000000001,103,103
188.0,33.9,1,5,0.0,11.599999999999998,103,103
188.0,36.3,1,6,0.0,2.3999999999999986,103,103
188.0,41.8,1,7,0.0,5.5,103,104
188.0,45.7,1,8,0.0,3.9000000000000057,104,105
187.9,45.8,1,9,-0.09999999999999432,0.09999999999999432,105,105
187.9,45.9,1,10,0.0,0.10000000000000142,105,106
187.9,45.9,1,11,0.0,0.0,106,107
187.9,46.0,1,12,0.0,0.10000000000000142,107,109
187.9,46.0,1,13,0.0,0.0,109,109
187.9,46.0,1,14,0.0,0.0,109,110
187.9,49.1,1,15,0.0,3.1000000000000014,110,110
187.9,51.4,1,16,0.0,2.299999999999997,110,111
187.9,51.8,1,17,0.0,0.3999999999999986,111,112
187.9,54.8,1,18,0.0,3.0,112,112
187.9,56.1,1,19,0.0,1.3000000000000043,112,112
187.9,57.1,1,20,0.0,1.0,112,112
187.9,58.4,1,21,0.0,1.2999999999999972,112,112
187.9,58.8,1,22,0.0,0.3999999999999986,112,114
187.9,59.0,1,23,0.0,0.20000000000000284,114,116
187.9,59.7,1,24,0.0,0.7000000000000028,116,119
187.9,61.3,1,25,0.0,1.5999999999999943,119,123
187.9,63.9,1,26,0.0,2.6000000000000014,123,125
187.9,66.4,1,27,0.0,2.500000000000007,125,126
187.9,69.2,1,28,0.0,2.799999999999997,126,126
187.9,73.4,1,29,0.0,4.200000000000003,126,129
187.9,77.2,1,30,0.0,3.799999999999997,129,132
187.9,81.2,1,31,0.0,4.0,132,135
187.9,85.6,1,32,0.0,4.3999999999999915,135,137
187.9,89.3,1,33,0.0,3.700000000000003,137,142
187.9,92.5,1,34,0.0,3.200000000000003,142,142
187.9,95.9,1,35,0.0,3.4000000000000057,142,144
187.9,99.2,1,36,0.0,3.299999999999997,144,146
187.9,102.5,1,37,0.0,3.299999999999997,146,146
187.9,105.8,1,38,0.0,3.299999999999997,146,146
187.9,109.0,1,39,0.0,3.200000000000003,146,145
187.9,112.2,1,40,0.0,3.200000000000003,145,146
187.9,115.1,1,41,0.0,2.8999999999999915,146,147
187.9,118.0,1,42,0.0,2.9000000000000057,147,149
187.9,121.2,1,43,0.0,3.200000000000003,149,150
187.9,124.7,1,44,0.0,3.5,150,152
188.0,128.1,1,45,0.09999999999999432,3.3999999999999915,152,153
188.0,131.8,1,46,0.0,3.700000000000017,153,154
188.0,135.6,1,47,0.0,3.799999999999983,154,155
188.0,138.7,1,48,0.0,3.0999999999999943,155,155
188.0,141.8,1,49,0.0,3.1000000000000227,155,155
188.0,145.4,1,50,0.0,3.5999999999999943,155,154
188.0,148.8,1,51,0.0,3.4000000000000057,154,155
188.0,152.3,1,52,0.0,3.5,155,155
188.0,154.8,1,53,0.0,2.5,155,155
188.0,157.5,1,54,0.0,2.6999999999999886,155,154
188.0,159.7,1,55,0.0,2.1999999999999886,154,153
188.0,161.8,1,56,0.0,2.1000000000000227,153,152
188.0,164.5,1,57,0.0,2.6999999999999886,152,151
188.0,167.0,1,58,0.0,2.5,151,150
188.0,169.4,1,59,0.0,2.4000000000000057,150,150
188.0,172.0,1,60,0.0,2.5999999999999943,150,151
188.0,174.2,1,61,0.0,2.1999999999999886,151,151
188.0,177.2,1,62,0.0,3.0,151,153
188.0,180.3,1,63,0.0,3.1000000000000227,153,153
188.0,183.4,1,64,0.0,3.0999999999999943,153,154
188.0,186.3,1,65,0.0,2.9000000000000057,154,154
188.0,189.4,1,66,0.0,3.0999999999999943,154,155
188.0,192.4,1,67,0.0,3.0,155,155
188.0,195.5,1,68,0.0,3.0999999999999943,155,155
188.0,198.4,1,69,0.0,2.9000000000000057,155,155
188.0,201.3,1,70,0.0,2.9000000000000057,155,156
188.0,203.9,1,71,0.0,2.5999999999999943,156,156
188.0,206.5,1,72,0.0,2.5999999999999943,156,156
188.0,209.2,1,73,0.0,2.6999999999999886,156,156
188.0,212.2,1,74,0.0,3.0,156,157
188.0,215.5,1,75,0.0,3.3000000000000114,157,157
188.0,218.8,1,76,0.0,3.3000000000000114,157,158
188.0,221.8,1,77,0.0,3.0,158,158
188.0,224.8,1,78,0.0,3.0,158,158
188.0,228.2,1,79,0.0,3.3999999999999773,158,158
188.0,232.0,1,80,0.0,3.8000000000000114,158,158
188.0,235.8,1,81,0.0,3.8000000000000114,158,157
188.0,239.2,1,82,0.0,3.3999999999999773,157,157
188.0,242.5,1,83,0.0,3.3000000000000114,157,157
188.0,245.3,1,84,0.0,2.8000000000000114,157,157
188.0,248.4,1,85,0.0,3.0999999999999943,157,157
188.0,251.4,1,86,0.0,3.0,157,158
188.0,254.4,1,87,0.0,3.0,158,158
188.0,257.4,1,88,0.0,2.9999999999999716,158,158
188.0,259.8,1,89,0.0,2.400000000000034,158,158
188.0,262.7,1,90,0.0,2.8999999999999773,158,158
188.0,265.8,1,91,0.0,3.1000000000000227,158,158
188.0,269.0,1,92,0.0,3.1999999999999886,158,158
188.0,272.2,1,93,0.0,3.1999999999999886,158,158
188.0,275.4,1,94,0.0,3.1999999999999886,158,158
188.0,278.6,1,95,0.0,3.2000000000000455,158,158
188.0,281.9,1,96,0.0,3.2999999999999545,158,158
188.0,285.3,1,97,0.0,3.400000000000034,158,158
188.0,288.6,1,98,0.0,3.3000000000000114,158,158
188.0,291.8,1,99,0.0,3.1999999999999886,158,158
188.0,294.7,1,100,0.0,2.8999999999999773,158,158
188.0,298.3,1,101,0.0,3.6000000000000227,158,158
188.0,301.5,1,102,0.0,3.1999999999999886,158,158
188.0,304.7,1,103,0.0,3.1999999999999886,158,158
188.0,308.0,1,104,0.0,3.3000000000000114,158,158
188.0,311.5,1,105,0.0,3.5,158,158
188.0,314.6,1,106,0.0,3.1000000000000227,158,158
188.0,317.8,1,107,0.0,3.1999999999999886,158,158
188.0,320.9,1,108,0.0,3.099999999999966,158,158
188.0,324.3,1,109,0.0,3.400000000000034,158,158
188.0,327.6,1,110,0.0,3.3000000000000114,158,158
188.0,330.6,1,111,0.0,3.0,158,158
188.0,333.8,1,112,0.0,3.1999999999999886,158,158
188.0,337.1,1,113,0.0,3.3000000000000114,158,158
188.0,339.9,1,114,0.0,2.7999999999999545,158,158
188.0,342.8,1,115,0.0,2.900000000000034,158,158
188.0,346.1,1,116,0.0,3.3000000000000114,158,158
188.0,349.3,1,117,0.0,3.1999999999999886,158,159
188.0,352.7,1,118,0.0,3.3999999999999773,159,159
188.0,355.6,1,119,0.0,2.900000000000034,159,159
188.0,359.0,1,120,0.0,3.3999999999999773,159,159
188.0,362.3,1,121,0.0,3.3000000000000114,159,159
188.0,365.7,1,122,0.0,3.3999999999999773,159,159
188.0,368.9,1,123,0.0,3.1999999999999886,159,159
188.0,372.3,1,124,0.0,3.400000000000034,159,159
188.0,375.1,1,125,0.0,2.8000000000000114,159,159
188.0,378.2,1,126,0.0,3.099999999999966,159,159
188.0,380.5,1,127,0.0,2.3000000000000114,159,159
188.0,383.3,1,128,0.0,2.8000000000000114,159,159
188.0,386.4,1,129,0.0,3.099999999999966,159,159
188.0,388.9,1,130,0.0,2.5,159,159
188.0,391.7,1,131,0.0,2.8000000000000114,159,159
188.0,394.4,1,132,0.0,2.6999999999999886,159,159
188.0,397.1,1,133,0.0,2.7000000000000455,159,159
188.0,400.0,1,134,0.0,2.8999999999999773,159,159
188.0,402.7,1,135,0.0,2.6999999999999886,159,159
188.0,406.1,1,136,0.0,3.400000000000034,159,159
188.0,408.7,1,137,0.0,2.599999999999966,159,159
188.0,411.3,1,138,0.0,2.6000000000000227,159,159
188.0,414.3,1,139,0.0,3.0,159,159
188.0,417.7,1,140,0.0,3.3999999999999773,159,159
188.0,420.8,1,141,0.0,3.1000000000000227,159,159
188.0,424.3,1,142,0.0,3.5,159,159
188.0,427.6,1,143,0.0,3.3000000000000114,159,159
188.0,431.2,1,144,0.0,3.599999999999966,159,159
188.0,434.1,1,145,0.0,2.900000000000034,159,159
188.0,437.3,1,146,0.0,3.1999999999999886,159,159
188.0,440.5,1,147,0.0,3.1999999999999886,159,159
188.0,443.4,1,148,0.0,2.8999999999999773,159,159
188.0,446.1,1,149,0.0,2.7000000000000455,159,160
187.9,449.0,1,150,-0.09999999999999432,2.8999999999999773,160,160
187.9,451.5,1,151,0.0,2.5,160,160
187.9,454.9,1,152,0.0,3.3999999999999773,160,160
187.9,458.1,1,153,0.0,3.2000000000000455,160,161
187.9,461.3,1,154,0.0,3.1999999999999886,161,161
187.9,464.0,1,155,0.0,2.6999999999999886,161,162
187.9,467.7,1,156,0.0,3.6999999999999886,162,163
187.9,470.8,1,157,0.0,3.1000000000000227,163,165
187.9,474.0,1,158,0.0,3.1999999999999886,165,166
187.9,477.3,1,159,0.0,3.3000000000000114,166,166
187.9,480.7,1,160,0.0,3.3999999999999773,166,166
187.9,483.5,1,161,0.0,2.8000000000000114,166,167
187.9,486.2,1,162,0.0,2.6999999999999886,167,167
187.9,488.5,1,163,0.0,2.3000000000000114,167,167
187.9,491.5,1,164,0.0,3.0,167,167
187.9,493.9,1,165,0.0,2.3999999999999773,167,167
187.9,496.6,1,166,0.0,2.7000000000000455,167,167
187.9,499.4,1,167,0.0,2.7999999999999545,167,167
187.9,502.4,1,168,0.0,3.0,167,167
187.9,505.6,1,169,0.0,3.2000000000000455,167,166
187.9,508.8,1,170,0.0,3.1999999999999886,166,166
187.9,512.2,1,171,0.0,3.400000000000034,166,166
187.9,515.8,1,172,0.0,3.599999999999909,166,165
187.9,519.2,1,173,0.0,3.400000000000091,165,165
187.9,522.6,1,174,0.0,3.3999999999999773,165,165
187.9,526.3,1,175,0.0,3.699999999999932,165,165
187.9,529.7,1,176,0.0,3.400000000000091,165,165
187.9,532.8,1,177,0.0,3.099999999999909,165,165
187.9,536.2,1,178,0.0,3.400000000000091,165,166
187.9,539.6,1,179,0.0,3.3999999999999773,166,166
187.9,542.7,1,180,0.0,3.1000000000000227,166,166
187.9,546.2,1,181,0.0,3.5,166,166
188.0,549.2,1,182,0.09999999999999432,3.0,166,166
188.0,552.2,1,183,0.0,3.0,166,167
188.0,555.0,1,184,0.0,2.7999999999999545,167,167
188.0,557.9,1,185,0.0,2.8999999999999773,167,166
188.0,560.8,1,186,0.0,2.8999999999999773,166,166
188.0,563.2,1,187,0.0,2.400000000000091,166,164
188.0,566.0,1,188,0.0,2.7999999999999545,164,164
188.0,569.0,1,189,0.0,3.0,164,164
188.0,571.6,1,190,0.0,2.6000000000000227,164,164
188.0,574.4,1,191,0.0,2.7999999999999545,164,164
188.0,577.4,1,192,0.0,3.0,164,163
188.0,580.3,1,193,0.0,2.8999999999999773,163,163
188.0,583.1,1,194,0.0,2.800000000000068,163,162
188.0,585.9,1,195,0.0,2.7999999999999545,162,162
188.0,588.6,1,196,0.0,2.7000000000000455,162,161
188.0,591.3,1,197,0.0,2.699999999999932,161,161
188.0,593.9,1,198,0.0,2.6000000000000227,161,160
188.0,596.7,1,199,0.0,2.800000000000068,160,160
188.0,599.3,1,200,0.0,2.599999999999909,160,160
188.0,602.0,1,201,0.0,2.7000000000000455,160,160
188.0,604.7,1,202,0.0,2.7000000000000455,160,159
188.0,607.6,1,203,0.0,2.8999999999999773,159,159
188.0,610.1,1,204,0.0,2.5,159,159
188.0,613.2,1,205,0.0,3.1000000000000227,159,159
188.0,616.2,1,206,0.0,3.0,159,159
188.0,618.6,1,207,0.0,2.3999999999999773,159,159
188.0,621.8,1,208,0.0,3.199999999999932,159,158
188.0,624.7,1,209,0.0,2.900000000000091,158,158
188.0,627.5,1,210,0.0,2.7999999999999545,158,158
188.0,630.2,1,211,0.0,2.7000000000000455,158,158
188.0,632.9,1,212,0.0,2.699999999999932,158,158
188.0,636.1,1,213,0.0,3.2000000000000455,158,158
188.0,638.5,1,214,0.0,2.3999999999999773,158,158
188.0,640.9,1,215,0.0,2.3999999999999773,158,158
188.0,644.3,1,216,0.0,3.3999999999999773,158,158
188.0,647.2,1,217,0.0,2.900000000000091,158,158
188.0,650.0,1,218,0.0,2.7999999999999545,158,157
188.0,653.1,1,219,0.0,3.1000000000000227,157,157
188.0,656.4,1,220,0.0,3.2999999999999545,157,157
188.0,659.5,1,221,0.0,3.1000000000000227,157,157
188.0,662.8,1,222,0.0,3.2999999999999545,157,157
188.0,665.6,1,223,0.0,2.800000000000068,157,158
188.0,669.0,1,224,0.0,3.3999999999999773,158,158
188.0,671.6,1,225,0.0,2.6000000000000227,158,158
188.0,674.5,1,226,0.0,2.8999999999999773,158,158
188.0,677.8,1,227,0.0,3.2999999999999545,158,158
188.0,681.0,1,228,0.0,3.2000000000000455,158,158
188.0,684.1,1,229,0.0,3.1000000000000227,158,158
188.0,687.4,1,230,0.0,3.2999999999999545,158,158
188.0,690.6,1,231,0.0,3.2000000000000455,158,158
188.0,693.9,1,232,0.0,3.2999999999999545,158,159
188.0,697.3,1,233,0.0,3.3999999999999773,159,159
188.0,701.0,1,234,0.0,3.7000000000000455,159,159
188.0,704.2,1,235,0.0,3.2000000000000455,159,159
188.0,707.1,1,236,0.0,2.8999999999999773,159,159
188.0,710.4,1,237,0.0,3.2999999999999545,159,159
188.0,713.6,1,238,0.0,3.2000000000000455,159,159
188.0,716.8,1,239,0.0,3.199999999999932,159,159
188.0,719.6,1,240,0.0,2.800000000000068,159,159
188.0,723.2,1,241,0.0,3.6000000000000227,159,159
188.0,726.3,1,242,0.0,3.099999999999909,159,159
188.0,729.0,1,243,0.0,2.7000000000000455,159,159
188.0,731.6,1,244,0.0,2.6000000000000227,159,159
188.0,734.9,1,245,0.0,3.2999999999999545,159,158
188.0,737.3,1,246,0.0,2.3999999999999773,158,158
188.0,739.9,1,247,0.0,2.6000000000000227,158,157
188.0,742.5,1,248,0.0,2.6000000000000227,157,155
188.0,745.5,1,249,0.0,3.0,155,155
188.0,748.3,1,250,0.0,2.7999999999999545,155,155
188.0,751.3,1,251,0.0,3.0,155,154
188.0,754.4,1,252,0.0,3.1000000000000227,154,153
188.0,758.1,1,253,0.0,3.7000000000000455,153,152
188.0,760.9,1,254,0.0,2.7999999999999545,152,152
188.0,764.5,1,255,0.0,3.6000000000000227,152,152
188.0,767.8,1,256,0.0,3.2999999999999545,152,151
188.0,771.1,1,257,0.0,3.300000000000068,151,149
188.0,774.3,1,258,0.0,3.199999999999932,149,148
188.0,777.0,1,259,0.0,2.7000000000000455,148,148
188.0,779.9,1,260,0.0,2.8999999999999773,148,147
188.0,782.7,1,261,0.0,2.800000000000068,147,145
188.0,785.4,1,262,0.0,2.699999999999932,145,143
188.0,788.5,1,263,0.0,3.1000000000000227,143,143
188.0,791.4,1,264,0.0,2.8999999999999773,143,143
188.0,794.4,1,265,0.0,3.0,143,143
188.0,797.4,1,266,0.0,3.0,143,143
188.0,800.4,1,267,0.0,3.0,143,142
188.0,803.4,1,268,0.0,3.0,142,142
188.0,806.6,1,269,0.0,3.2000000000000455,142,141
188.0,809.6,1,270,0.0,3.0,141,140
188.0,812.6,1,271,0.0,3.0,140,139
188.0,815.4,1,272,0.0,2.7999999999999545,139,138
188.0,818.0,1,273,0.0,2.6000000000000227,138,137
188.0,821.2,1,274,0.0,3.2000000000000455,137,137
188.0,824.1,1,275,0.0,2.8999999999999773,137,136
188.0,826.6,1,276,0.0,2.5,136,136
188.0,829.4,1,277,0.0,2.7999999999999545,136,135
188.0,832.8,1,278,0.0,3.3999999999999773,135,135
188.0,836.1,1,279,0.0,3.300000000000068,135,135
188.0,839.1,1,280,0.0,3.0,135,134
188.0,842.0,1,281,0.0,2.8999999999999773,134,134
188.0,845.5,1,282,0.0,3.5,134,132
188.0,848.3,1,283,0.0,2.7999999999999545,132,132
188.0,851.2,1,284,0.0,2.900000000000091,132,132
188.0,854.6,1,285,0.0,3.3999999999999773,132,132
188.0,857.5,1,286,0.0,2.8999999999999773,132,131
188.0,860.1,1,287,0.0,2.6000000000000227,131,132
188.0,862.8,1,288,0.0,2.699999999999932,132,132
188.0,865.8,1,289,0.0,3.0,132,132
187.9,868.5,1,290,-0.09999999999999432,2.7000000000000455,132,132
187.9,871.6,1,291,0.0,3.1000000000000227,132,132
187.9,874.8,1,292,0.0,3.199999999999932,132,132
187.9,878.0,1,293,0.0,3.2000000000000455,132,131
187.9,881.1,1,294,0.0,3.1000000000000227,131,131
187.9,884.6,1,295,0.0,3.5,131,131
187.9,887.8,1,296,0.0,3.199999999999932,131,131
187.9,890.9,1,297,0.0,3.1000000000000227,131,131
187.9,893.7,1,298,0.0,2.800000000000068,131,131
187.9,897.1,1,299,0.0,3.3999999999999773,131,131
187.9,900.4,1,300,0.0,3.2999999999999545,131,131
187.9,903.2,1,301,0.0,2.800000000000068,131,131
187.9,906.4,1,302,0.0,3.199999999999932,131,131
187.9,909.9,1,303,0.0,3.5,131,132
187.9,912.9,1,304,0.0,3.0,132,132
187.9,915.8,1,305,0.0,2.8999999999999773,132,132
187.9,918.9,1,306,0.0,3.1000000000000227,132,133
187.9,922.5,1,307,0.0,3.6000000000000227,133,131
187.9,925.3,1,308,0.0,2.7999999999999545,131,131
187.9,928.0,1,309,0.0,2.7000000000000455,131,132
187.9,931.3,1,310,0.0,3.2999999999999545,132,132
187.9,934.2,1,311,0.0,2.900000000000091,132,132
187.9,936.7,1,312,0.0,2.5,132,132
187.9,939.1,1,313,0.0,2.3999999999999773,132,132
187.9,942.3,1,314,0.0,3.199999999999932,132,132
187.9,945.6,1,315,0.0,3.300000000000068,132,132
187.9,948.2,1,316,0.0,2.6000000000000227,132,132
187.9,951.1,1,317,0.0,2.8999999999999773,132,132
187.9,954.0,1,318,0.0,2.8999999999999773,132,133
187.9,956.4,1,319,0.0,2.3999999999999773,133,133
187.9,959.2,1,320,0.0,2.800000000000068,133,133
187.9,962.4,1,321,0.0,3.199999999999932,133,133
187.9,965.7,1,322,0.0,3.300000000000068,133,133
188.0,968.8,1,323,0.09999999999999432,3.099999999999909,133,133
188.0,971.2,1,324,0.0,2.400000000000091,133,133
188.0,974.5,1,325,0.0,3.2999999999999545,133,133
188.0,977.5,1,326,0.0,3.0,133,133
188.0,980.5,1,327,0.0,3.0,133,133
188.0,983.8,1,328,0.0,3.2999999999999545,133,133
188.0,986.7,1,329,0.0,2.900000000000091,133,133
188.0,989.1,1,330,0.0,2.3999999999999773,133,133
188.0,992.0,1,331,0.0,2.8999999999999773,133,133
188.0,994.5,1,332,0.0,2.5,133,133
188.0,997.8,1,333,0.0,3.2999999999999545,133,133
188.0,1000.7,1,334,0.0,2.900000000000091,133,133
188.0,1003.7,1,335,0.0,3.0,133,133
188.0,1006.8,1,336,0.0,3.099999999999909,133,133
188.0,1009.6,1,337,0.0,2.800000000000068,133,133
188.0,1012.1,1,338,0.0,2.5,133,133
188.0,1015.3,1,339,0.0,3.199999999999932,133,133
188.0,1018.3,1,340,0.0,3.0,133,133
188.0,1021.2,1,341,0.0,2.900000000000091,133,133
188.0,1023.9,1,342,0.0,2.699999999999932,133,133
188.0,1026.7,1,343,0.0,2.800000000000068,133,133
188.0,1029.4,1,344,0.0,2.7000000000000455,133,133
188.0,1032.5,1,345,0.0,3.099999999999909,133,133
188.0,1035.3,1,346,0.0,2.7999999999999545,133,133
188.0,1039.1,1,347,0.0,3.7999999999999545,133,134
188.0,1042.1,1,348,0.0,3.0,134,134
188.0,1044.7,1,349,0.0,2.6000000000001364,134,134
188.0,1048.3,1,350,0.0,3.599999999999909,134,134
188.0,1051.1,1,351,0.0,2.7999999999999545,134,134
188.0,1053.7,1,352,0.0,2.6000000000001364,134,134
188.0,1057.1,1,353,0.0,3.3999999999998636,134,134
188.0,1059.5,1,354,0.0,2.400000000000091,134,134
188.0,1062.6,1,355,0.0,3.099999999999909,134,134
188.0,1065.5,1,356,0.0,2.900000000000091,134,134
188.0,1068.4,1,357,0.0,2.900000000000091,134,134
188.0,1071.7,1,358,0.0,3.2999999999999545,134,134
188.0,1074.6,1,359,0.0,2.8999999999998636,134,134
188.0,1077.7,1,360,0.0,3.1000000000001364,134,134
188.0,1081.3,1,361,0.0,3.599999999999909,134,134
188.0,1084.2,1,362,0.0,2.900000000000091,134,134
188.0,1087.5,1,363,0.0,3.2999999999999545,134,134
188.0,1090.5,1,364,0.0,3.0,134,135
188.0,1093.0,1,365,0.0,2.5,135,135
188.0,1096.0,1,366,0.0,3.0,135,135
188.0,1099.0,1,367,0.0,3.0,135,135
188.0,1102.1,1,368,0.0,3.099999999999909,135,135
188.0,1105.6,1,369,0.0,3.5,135,135
188.0,1108.3,1,370,0.0,2.7000000000000455,135,136
188.0,1111.6,1,371,0.0,3.2999999999999545,136,136
188.0,1114.7,1,372,0.0,3.1000000000001364,136,135
188.0,1118.0,1,373,0.0,3.2999999999999545,135,135
188.0,1121.0,1,374,0.0,3.0,135,135
188.0,1124.4,1,375,0.0,3.400000000000091,135,134
188.0,1127.2,1,376,0.0,2.7999999999999545,134,134
188.0,1130.1,1,377,0.0,2.8999999999998636,134,133
188.0,1132.6,1,378,0.0,2.5,133,133
188.0,1135.2,1,379,0.0,2.6000000000001364,133,133
188.0,1138.4,1,380,0.0,3.2000000000000455,133,133
188.0,1141.2,1,381,0.0,2.7999999999999545,133,133
188.0,1144.3,1,382,0.0,3.099999999999909,133,133
188.0,1147.5,1,383,0.0,3.2000000000000455,133,133
188.0,1150.3,1,384,0.0,2.7999999999999545,133,133
188.0,1153.3,1,385,0.0,3.0,133,133
188.0,1156.3,1,386,0.0,3.0,133,133
188.0,1158.9,1,387,0.0,2.6000000000001364,133,132
188.0,1161.9,1,388,0.0,3.0,132,132
188.0,1164.3,1,389,0.0,2.3999999999998636,132,132
188.0,1166.9,1,390,0.0,2.6000000000001364,132,131
188.0,1169.0,1,391,0.0,2.099999999999909,131,130
188.0,1171.3,1,392,0.0,2.2999999999999545,130,130
188.0,1173.8,1,393,0.0,2.5,130,129
188.0,1176.1,1,394,0.0,2.2999999999999545,129,129
188.0,1178.2,1,395,0.0,2.1000000000001364,129,128
188.0,1180.8,1,396,0.0,2.599999999999909,128,128
188.0,1182.5,1,397,0.0,1.7000000000000455,128,129
188.0,1184.3,1,398,0.0,1.7999999999999545,129,128
188.0,1186.5,1,399,0.0,2.2000000000000455,128,128
188.0,1189.4,1,400,0.0,2.900000000000091,128,128
188.0,1191.7,1,401,0.0,2.2999999999999545,128,128
188.0,1193.8,1,402,0.0,2.099999999999909,128,129
188.0,1196.5,1,403,0.0,2.7000000000000455,129,129
188.0,1200.3,1,404,0.0,3.7999999999999545,129,129
188.0,1203.5,1,405,0.0,3.2000000000000455,129,129
188.0,1207.2,1,406,0.0,3.7000000000000455,129,129
188.0,1210.2,1,407,0.0,3.0,129,129
188.0,1213.7,1,408,0.0,3.5,129,129
188.0,1216.7,1,409,0.0,3.0,129,129
188.0,1219.7,1,410,0.0,3.0,129,130
188.0,1222.7,1,411,0.0,3.0,130,130
188.0,1225.3,1,412,0.0,2.599999999999909,130,130
188.0,1227.5,1,413,0.0,2.2000000000000455,130,131
188.0,1230.4,1,414,0.0,2.900000000000091,131,131
188.0,1232.8,1,415,0.0,2.3999999999998636,131,131
188.0,1235.5,1,416,0.0,2.7000000000000455,131,131
188.0,1237.6,1,417,0.0,2.099999999999909,131,132
188.0,1240.0,1,418,0.0,2.400000000000091,132,132
188.0,1242.4,1,419,0.0,2.400000000000091,132,132
188.0,1244.8,1,420,0.0,2.3999999999998636,132,132
188.0,1247.3,1,421,0.0,2.5,132,132
188.0,1250.1,1,422,0.0,2.7999999999999545,132,131
188.0,1252.9,1,423,0.0,2.800000000000182,131,131
188.0,1255.4,1,424,0.0,2.5,131,131
188.0,1258.6,1,425,0.0,3.199999999999818,131,131
188.0,1261.3,1,426,0.0,2.7000000000000455,131,131
188.0,1264.1,1,427,0.0,2.7999999999999545,131,131
188.0,1266.9,1,428,0.0,2.800000000000182,131,130
188.0,1269.6,1,429,0.0,2.699999999999818,130,130
188.0,1272.3,1,430,0.0,2.7000000000000455,130,130
188.0,1275.0,1,431,0.0,2.7000000000000455,130,130
188.0,1277.5,1,432,0.0,2.5,130,129
188.0,1280.5,1,433,0.0,3.0,129,129
188.0,1282.8,1,434,0.0,2.2999999999999545,129,129
188.0,1285.3,1,435,0.0,2.5,129,129
188.0,1287.7,1,436,0.0,2.400000000000091,129,128
188.0,1290.6,1,437,0.0,2.8999999999998636,128,128
188.0,1293.2,1,438,0.0,2.6000000000001364,128,128
187.9,1295.9,1,439,-0.09999999999999432,2.7000000000000455,128,128
187.9,1298.3,1,440,0.0,2.3999999999998636,128,128
187.9,1301.0,1,441,0.0,2.7000000000000455,128,128
187.9,1304.0,1,442,0.0,3.0,128,128
187.9,1306.9,1,443,0.0,2.900000000000091,128,128
187.9,1309.6,1,444,0.0,2.699999999999818,128,128
187.9,1312.7,1,445,0.0,3.1000000000001364,128,128
187.9,1315.4,1,446,0.0,2.7000000000000455,128,128
187.9,1318.1,1,447,0.0,2.699999999999818,128,128
187.9,1320.8,1,448,0.0,2.7000000000000455,128,128
187.9,1323.8,1,449,0.0,3.0,128,128
187.9,1326.5,1,450,0.0,2.7000000000000455,128,128
187.9,1328.5,1,451,0.0,2.0,128,128
187.9,1330.9,1,452,0.0,2.400000000000091,128,128
187.9,1333.6,1,453,0.0,2.699999999999818,128,128
187.9,1336.5,1,454,0.0,2.900000000000091,128,128
187.9,1339.1,1,455,0.0,2.599999999999909,128,128
187.9,1341.7,1,456,0.0,2.6000000000001364,128,127
187.9,1344.3,1,457,0.0,2.599999999999909,127,127
187.9,1347.1,1,458,0.0,2.7999999999999545,127,127
187.9,1349.8,1,459,0.0,2.7000000000000455,127,127
187.9,1352.5,1,460,0.0,2.7000000000000455,127,127
187.9,1355.0,1,461,0.0,2.5,127,126
187.9,1357.7,1,462,0.0,2.7000000000000455,126,126
187.9,1360.0,1,463,0.0,2.2999999999999545,126,126
187.9,1362.5,1,464,0.0,2.5,126,126
187.9,1365.5,1,465,0.0,3.0,126,125
187.9,1368.1,1,466,0.0,2.599999999999909,125,125
187.9,1370.4,1,467,0.0,2.300000000000182,125,125
187.9,1373.2,1,468,0.0,2.7999999999999545,125,124
187.9,1376.0,1,469,0.0,2.7999999999999545,124,124
187.9,1378.7,1,470,0.0,2.7000000000000455,124,124
187.9,1381.3,1,471,0.0,2.599999999999909,124,123
187.9,1383.8,1,472,0.0,2.5,123,124
187.9,1386.4,1,473,0.0,2.6000000000001364,124,124
187.9,1388.8,1,474,0.0,2.3999999999998636,124,124
187.9,1391.6,1,475,0.0,2.7999999999999545,124,125
188.0,1394.4,1,476,0.09999999999999432,2.800000000000182,125,126
188.0,1397.0,1,477,0.0,2.599999999999909,126,126
188.0,1399.9,1,478,0.0,2.900000000000091,126,126
188.0,1402.7,1,479,0.0,2.7999999999999545,126,126
188.0,1405.6,1,480,0.0,2.8999999999998636,126,126
188.0,1408.2,1,481,0.0,2.6000000000001364,126,126
188.0,1411.0,1,482,0.0,2.7999999999999545,126,127
188.0,1413.7,1,483,0.0,2.7000000000000455,127,127
188.0,1416.3,1,484,0.0,2.599999999999909,127,127
188.0,1418.7,1,485,0.0,2.400000000000091,127,127
188.0,1421.4,1,486,0.0,2.7000000000000455,127,127
188.0,1424.0,1,487,0.0,2.599999999999909,127,127
188.0,1426.5,1,488,0.0,2.5,127,128
188.0,1428.8,1,489,0.0,2.2999999999999545,128,128
188.0,1431.6,1,490,0.0,2.7999999999999545,128,128
188.0,1434.0,1,491,0.0,2.400000000000091,128,128
188.0,1436.4,1,492,0.0,2.400000000000091,128,128
188.0,1438.9,1,493,0.0,2.5,128,128
188.0,1441.5,1,494,0.0,2.599999999999909,128,128
188.0,1444.0,1,495,0.0,2.5,128,128
188.0,1446.6,1,496,0.0,2.599999999999909,128,128
188.0,1449.2,1,497,0.0,2.6000000000001364,128,128
188.0,1452.0,1,498,0.0,2.7999999999999545,128,129
188.0,1454.5,1,499,0.0,2.5,129,129
188.0,1457.3,1,500,0.0,2.7999999999999545,129,128
188.0,1460.2,1,501,0.0,2.900000000000091,128,128
188.0,1462.6,1,502,0.0,2.3999999999998636,128,127
188.0,1465.2,1,503,0.0,2.6000000000001364,127,127
188.0,1468.1,1,504,0.0,2.8999999999998636,127,127
188.0,1470.8,1,505,0.0,2.7000000000000455,127,127
188.0,1473.7,1,506,0.0,2.900000000000091,127,127
188.0,1476.3,1,507,0.0,2.599999999999909,127,127
188.0,1479.4,1,508,0.0,3.1000000000001364,127,127
188.0,1482.2,1,509,0.0,2.7999999999999545,127,127
188.0,1484.7,1,510,0.0,2.5,127,127
188.0,1487.3,1,511,0.0,2.599999999999909,127,127
188.0,1490.2,1,512,0.0,2.900000000000091,127,127
188.0,1492.4,1,513,0.0,2.2000000000000455,127,128
188.0,1495.0,1,514,0.0,2.599999999999909,128,128
188.0,1497.6,1,515,0.0,2.599999999999909,128,129
188.0,1500.0,1,516,0.0,2.400000000000091,129,129
188.0,1502.7,1,517,0.0,2.7000000000000455,129,129
188.0,1505.4,1,518,0.0,2.7000000000000455,129,129
188.0,1508.2,1,519,0.0,2.7999999999999545,129,129
188.0,1511.1,1,520,0.0,2.8999999999998636,129,129
188.0,1513.9,1,521,0.0,2.800000000000182,129,129
188.0,1516.9,1,522,0.0,3.0,129,130
188.0,1519.6,1,523,0.0,2.699999999999818,130,130
188.0,1522.1,1,524,0.0,2.5,130,130
188.0,1524.9,1,525,0.0,2.800000000000182,130,130
188.0,1527.7,1,526,0.0,2.7999999999999545,130,129
188.0,1530.4,1,527,0.0,2.7000000000000455,129,129
188.0,1533.3,1,528,0.0,2.8999999999998636,129,129
188.0,1536.6,1,529,0.0,3.2999999999999545,129,130
188.0,1539.1,1,530,0.0,2.5,130,130
188.0,1541.9,1,531,0.0,2.800000000000182,130,130
188.0,1544.8,1,532,0.0,2.8999999999998636,130,130
188.0,1547.6,1,533,0.0,2.7999999999999545,130,130
188.0,1550.2,1,534,0.0,2.6000000000001364,130,130
188.0,1552.8,1,535,0.0,2.599999999999909,130,129
188.0,1555.4,1,536,0.0,2.6000000000001364,129,129
188.0,1558.5,1,537,0.0,3.099999999999909,129,129
188.0,1560.8,1,538,0.0,2.2999999999999545,129,129
188.0,1563.4,1,539,0.0,2.6000000000001364,129,129
188.0,1566.1,1,540,0.0,2.699999999999818,129,129
188.0,1568.8,1,541,0.0,2.7000000000000455,129,129
188.0,1571.7,1,542,0.0,2.900000000000091,129,128
188.0,1574.4,1,543,0.0,2.7000000000000455,128,128
188.0,1576.9,1,544,0.0,2.5,128,128
188.0,1579.5,1,545,0.0,2.599999999999909,128,128
188.0,1581.9,1,546,0.0,2.400000000000091,128,128
188.0,1584.6,1,547,0.0,2.699999999999818,128,128
188.0,1587.2,1,548,0.0,2.6000000000001364,128,128
188.0,1590.1,1,549,0.0,2.8999999999998636,128,128
188.0,1592.7,1,550,0.0,2.6000000000001364,128,128
188.0,1595.3,1,551,0.0,2.599999999999909,128,128
188.0,1598.2,1,552,0.0,2.900000000000091,128,128
188.0,1600.9,1,553,0.0,2.7000000000000455,128,128
188.0,1604.3,1,554,0.0,3.3999999999998636,128,128
188.0,1607.4,1,555,0.0,3.1000000000001364,128,128
188.0,1610.6,1,556,0.0,3.199999999999818,128,128
188.0,1613.9,1,557,0.0,3.300000000000182,128,128
188.0,1616.6,1,558,0.0,2.699999999999818,128,128
188.0,1620.0,1,559,0.0,3.400000000000091,128,128
188.0,1622.9,1,560,0.0,2.900000000000091,128,128
188.0,1625.9,1,561,0.0,3.0,128,128
188.0,1629.0,1,562,0.0,3.099999999999909,128,129
188.0,1631.3,1,563,0.0,2.2999999999999545,129,129
188.0,1634.1,1,564,0.0,2.7999999999999545,129,129
188.0,1636.7,1,565,0.0,2.6000000000001364,129,129
188.0,1639.2,1,566,0.0,2.5,129,128
188.0,1641.8,1,567,0.0,2.599999999999909,128,128
188.0,1644.0,1,568,0.0,2.2000000000000455,128,128
188.0,1646.9,1,569,0.0,2.900000000000091,128,128
188.0,1649.0,1,570,0.0,2.099999999999909,128,128
188.0,1651.4,1,571,0.0,2.400000000000091,128,128
188.0,1654.1,1,572,0.0,2.699999999999818,128,128
188.0,1656.8,1,573,0.0,2.7000000000000455,128,128
188.0,1659.4,1,574,0.0,2.6000000000001364,128,128
188.0,1662.1,1,575,0.0,2.699999999999818,128,128
188.0,1665.2,1,576,0.0,3.1000000000001364,128,128
188.0,1667.8,1,577,0.0,2.599999999999909,128,128
188.0,1670.4,1,578,0.0,2.6000000000001364,128,128
188.0,1673.4,1,579,0.0,3.0,128,128
188.0,1676.1,1,580,0.0,2.699999999999818,128,128
188.0,1678.7,1,581,0.0,2.6000000000001364,128,128
188.0,1681.1,1,582,0.0,2.3999999999998636,128,128
188.0,1683.8,1,583,0.0,2.7000000000000455,128,129
188.0,1686.4,1,584,0.0,2.6000000000001364,129,129
188.0,1689.2,1,585,0.0,2.7999999999999545,129,129
188.0,1692.2,1,586,0.0,3.0,129,129
188.0,1694.9,1,587,0.0,2.7000000000000455,129,129
188.0,1697.6,1,588,0.0,2.699999999999818,129,128
188.0,1700.3,1,589,0.0,2.7000000000000455,128,128
188.0,1702.9,1,590,0.0,2.6000000000001364,128,128
188.0,1705.7,1,591,0.0,2.7999999999999545,128,128
188.0,1708.4,1,592,0.0,2.7000000000000455,128,127
187.9,1711.2,1,593,-0.09999999999999432,2.7999999999999545,127,127
187.9,1713.9,1,594,0.0,2.7000000000000455,127,127
187.9,1716.7,1,595,0.0,2.7999999999999545,127,127
187.9,1719.6,1,596,0.0,2.8999999999998636,127,127
187.9,1722.4,1,597,0.0,2.800000000000182,127,127
187.9,1725.4,1,598,0.0,3.0,127,127
187.9,1728.6,1,599,0.0,3.199999999999818,127,127
187.9,1732.0,1,600,0.0,3.400000000000091,127,127
187.9,1735.3,1,601,0.0,3.2999999999999545,127,127
187.9,1738.7,1,602,0.0,3.400000000000091,127,128
187.9,1742.5,1,603,0.0,3.7999999999999545,128,128
187.9,1745.9,1,604,0.0,3.400000000000091,128,128
187.9,1749.2,1,605,0.0,3.2999999999999545,128,129
187.9,1752.5,1,606,0.0,3.2999999999999545,129,129
187.9,1755.5,1,607,0.0,3.0,129,129
187.9,1758.5,1,608,0.0,3.0,129,129
187.9,1761.1,1,609,0.0,2.599999999999909,129,129
187.9,1764.0,1,610,0.0,2.900000000000091,129,129
187.9,1766.5,1,611,0.0,2.5,129,130
187.9,1769.1,1,612,0.0,2.599999999999909,130,130
187.9,1772.0,1,613,0.0,2.900000000000091,130,130
187.9,1775.0,1,614,0.0,3.0,130,130
187.9,1778.1,1,615,0.0,3.099999999999909,130,130
187.9,1781.3,1,616,0.0,3.2000000000000455,130,130
187.9,1784.4,1,617,0.0,3.1000000000001364,130,130
187.9,1787.5,1,618,0.0,3.099999999999909,130,130
187.9,1790.4,1,619,0.0,2.900000000000091,130,130
187.9,1793.4,1,620,0.0,3.0,130,131
187.9,1796.6,1,621,0.0,3.199999999999818,131,131
187.9,1799.8,1,622,0.0,3.2000000000000455,131,131
187.9,1802.8,1,623,0.0,3.0,131,131
187.9,1805.7,1,624,0.0,2.900000000000091,131,131
187.9,1808.5,1,625,0.0,2.7999999999999545,131,131
188.0,1811.5,1,626,0.09999999999999432,3.0,131,131
188.0,1814.3,1,627,0.0,2.7999999999999545,131,132
188.0,1817.3,1,628,0.0,3.0,132,132
188.0,1820.0,1,629,0.0,2.7000000000000455,132,132
188.0,1822.7,1,630,0.0,2.7000000000000455,132,132
188.0,1825.4,1,631,0.0,2.7000000000000455,132,132
188.0,1828.4,1,632,0.0,3.0,132,132
188.0,1831.2,1,633,0.0,2.7999999999999545,132,133
188.0,1834.0,1,634,0.0,2.7999999999999545,133,133
188.0,1836.9,1,635,0.0,2.900000000000091,133,133
188.0,1839.7,1,636,0.0,2.7999999999999545,133,133
188.0,1842.4,1,637,0.0,2.7000000000000455,133,133
188.0,1845.1,1,638,0.0,2.699999999999818,133,133
188.0,1847.9,1,639,0.0,2.800000000000182,133,133
188.0,1850.6,1,640,0.0,2.699999999999818,133,133
188.0,1853.3,1,641,0.0,2.7000000000000455,133,133
188.0,1856.2,1,642,0.0,2.900000000000091,133,133
188.0,1858.9,1,643,0.0,2.7000000000000455,133,133
188.0,1861.7,1,644,0.0,2.7999999999999545,133,133
188.0,1864.4,1,645,0.0,2.7000000000000455,133,133
188.0,1867.1,1,646,0.0,2.699999999999818,133,133
188.0,1869.9,1,647,0.0,2.800000000000182,133,133
188.0,1872.6,1,648,0.0,2.699999999999818,133,133
188.0,1875.5,1,649,0.0,2.900000000000091,133,133
188.0,1878.2,1,650,0.0,2.7000000000000455,133,133
188.0,1881.1,1,651,0.0,2.8999999999998636,133,133
188.0,1883.9,1,652,0.0,2.800000000000182,133,133
188.0,1887.0,1,653,0.0,3.099999999999909,133,132
188.0,1890.1,1,654,0.0,3.099999999999909,132,132
188.0,1893.3,1,655,0.0,3.2000000000000455,132,132
188.0,1896.4,1,656,0.0,3.1000000000001364,132,131
188.0,1899.4,1,657,0.0,3.0,131,131
188.0,1902.5,1,658,0.0,3.099999999999909,131,131
188.0,1905.7,1,659,0.0,3.2000000000000455,131,131
188.0,1908.5,1,660,0.0,2.7999999999999545,131,131
188.0,1911.6,1,661,0.0,3.099999999999909,131,130
188.0,1914.5,1,662,0.0,2.900000000000091,130,131
188.0,1917.5,1,663,0.0,3.0,131,131
188.0,1920.1,1,664,0.0,2.599999999999909,131,131
188.0,1922.8,1,665,0.0,2.7000000000000455,131,131
188.0,1925.5,1,666,0.0,2.7000000000000455,131,131
188.0,1928.3,1,667,0.0,2.7999999999999545,131,132
188.0,1931.4,1,668,0.0,3.1000000000001364,132,132
188.0,1934.4,1,669,0.0,3.0,132,132
188.0,1937.3,1,670,0.0,2.8999999999998636,132,132
188.0,1939.8,1,671,0.0,2.5,132,132
188.0,1943.0,1,672,0.0,3.2000000000000455,132,132
188.0,1946.1,1,673,0.0,3.099999999999909,132,132
188.0,1949.1,1,674,0.0,3.0,132,132
188.0,1952.2,1,675,0.0,3.1000000000001364,132,132
188.0,1955.1,1,676,0.0,2.8999999999998636,132,132
188.0,1958.1,1,677,0.0,3.0,132,132
188.0,1961.3,1,678,0.0,3.2000000000000455,132,132
188.0,1964.2,1,679,0.0,2.900000000000091,132,132
188.0,1967.3,1,680,0.0,3.099999999999909,132,132
188.0,1970.3,1,681,0.0,3.0,132,132
188.0,1973.0,1,682,0.0,2.7000000000000455,132,132
188.0,1976.0,1,683,0.0,3.0,132,132
188.0,1979.2,1,684,0.0,3.2000000000000455,132,132
188.0,1982.0,1,685,0.0,2.7999999999999545,132,132
188.0,1984.8,1,686,0.0,2.7999999999999545,132,132
188.0,1987.6,1,687,0.0,2.7999999999999545,132,133
188.0,1990.4,1,688,0.0,2.800000000000182,133,133
188.0,1993.5,1,689,0.0,3.099999999999909,133,133
188.0,1996.0,1,690,0.0,2.5,133,133
188.0,1999.2,1,691,0.0,3.2000000000000455,133,133
188.0,2002.0,1,692,0.0,2.7999999999999545,133,133
188.0,2004.4,1,693,0.0,2.400000000000091,133,133
188.0,2007.5,1,694,0.0,3.099999999999909,133,133
188.0,2010.0,1,695,0.0,2.5,133,133
188.0,2012.9,1,696,0.0,2.900000000000091,133,134
188.0,2016.1,1,697,0.0,3.199999999999818,134,134
188.0,2018.6,1,698,0.0,2.5,134,134
188.0,2021.7,1,699,0.0,3.1000000000001364,134,134
188.0,2024.7,1,700,0.0,3.0,134,134
188.0,2027.5,1,701,0.0,2.7999999999999545,134,134
188.0,2030.4,1,702,0.0,2.900000000000091,134,134
188.0,2033.4,1,703,0.0,3.0,134,134
188.0,2036.6,1,704,0.0,3.199999999999818,134,134
188.0,2039.6,1,705,0.0,3.0,134,134
188.0,2042.4,1,706,0.0,2.800000000000182,134,134
188.0,2045.5,1,707,0.0,3.099999999999909,134,134
188.0,2048.1,1,708,0.0,2.599999999999909,134,134
188.0,2051.1,1,709,0.0,3.0,134,134
188.0,2054.1,1,710,0.0,3.0,134,134
188.0,2057.1,1,711,0.0,3.0,134,134
188.0,2059.5,1,712,0.0,2.400000000000091,134,133
188.0,2062.2,1,713,0.0,2.699999999999818,133,133
188.0,2064.9,1,714,0.0,2.700000000000273,133,132
188.0,2067.4,1,715,0.0,2.5,132,132
188.0,2070.1,1,716,0.0,2.699999999999818,132,131
188.0,2072.8,1,717,0.0,2.700000000000273,131,131
188.0,2075.3,1,718,0.0,2.5,131,130
188.0,2077.9,1,719,0.0,2.599999999999909,130,130
188.0,2080.4,1,720,0.0,2.5,130,130
188.0,2082.9,1,721,0.0,2.5,130,129
188.0,2085.3,1,722,0.0,2.400000000000091,129,129
188.0,2087.7,1,723,0.0,2.399999999999636,129,128
188.0,2090.2,1,724,0.0,2.5,128,127
188.0,2093.2,1,725,0.0,3.0,127,127
188.0,2095.8,1,726,0.0,2.600000000000364,127,126
188.0,2098.6,1,727,0.0,2.799999999999727,126,126
188.0,2101.2,1,728,0.0,2.599999999999909,126,126
188.0,2103.9,1,729,0.0,2.700000000000273,126,126
188.0,2107.0,1,730,0.0,3.099999999999909,126,125
188.0,2109.4,1,731,0.0,2.400000000000091,125,125
188.0,2112.5,1,732,0.0,3.099999999999909,125,125
188.0,2115.3,1,733,0.0,2.800000000000182,125,125
188.0,2117.8,1,734,0.0,2.5,125,124
188.0,2120.3,1,735,0.0,2.5,124,124
188.0,2122.8,1,736,0.0,2.5,124,124
188.0,2125.8,1,737,0.0,3.0,124,124
188.0,2128.8,1,738,0.0,3.0,124,124
187.9,2131.3,1,739,-0.09999999999999432,2.5,124,124
187.9,2134.0,1,740,0.0,2.699999999999818,124,124
187.9,2136.9,1,741,0.0,2.900000000000091,124,125
187.9,2139.7,1,742,0.0,2.799999999999727,125,125
187.9,2142.5,1,743,0.0,2.800000000000182,125,125
187.9,2145.3,1,744,0.0,2.800000000000182,125,126
187.9,2148.4,1,745,0.0,3.099999999999909,126,126
187.9,2150.7,1,746,0.0,2.299999999999727,126,127
187.9,2153.4,1,747,0.0,2.700000000000273,127,128
187.9,2156.2,1,748,0.0,2.799999999999727,128,128
187.9,2159.2,1,749,0.0,3.0,128,129
187.9,2161.7,1,750,0.0,2.5,129,129
187.9,2164.5,1,751,0.0,2.800000000000182,129,130
187.9,2167.5,1,752,0.0,3.0,130,130
187.9,2170.3,1,753,0.0,2.800000000000182,130,130
187.9,2173.2,1,754,0.0,2.899999999999636,130,131
187.9,2176.2,1,755,0.0,3.0,131,131
187.9,2179.1,1,756,0.0,2.900000000000091,131,131
187.9,2181.5,1,757,0.0,2.400000000000091,131,131
187.9,2184.6,1,758,0.0,3.099999999999909,131,131
187.9,2187.5,1,759,0.0,2.900000000000091,131,131
187.9,2190.6,1,760,0.0,3.099999999999909,131,131
187.9,2193.3,1,761,0.0,2.700000000000273,131,131
187.9,2196.2,1,762,0.0,2.899999999999636,131,131
187.9,2198.9,1,763,0.0,2.700000000000273,131,131
187.9,2202.1,1,764,0.0,3.199999999999818,131,131
187.9,2205.0,1,765,0.0,2.900000000000091,131,132
187.9,2208.0,1,766,0.0,3.0,132,132
187.9,2210.4,1,767,0.0,2.400000000000091,132,133
187.9,2213.2,1,768,0.0,2.799999999999727,133,133
187.9,2215.9,1,769,0.0,2.700000000000273,133,134
187.9,2218.7,1,770,0.0,2.799999999999727,134,134
187.9,2221.5,1,771,0.0,2.800000000000182,134,134
187.9,2224.3,1,772,0.0,2.800000000000182,134,134
187.9,2226.9,1,773,0.0,2.599999999999909,134,133
188.0,2229.9,1,774,0.09999999999999432,3.0,133,133
188.0,2233.0,1,775,0.0,3.099999999999909,133,133
188.0,2235.4,1,776,0.0,2.400000000000091,133,133
188.0,2238.0,1,777,0.0,2.599999999999909,133,133
188.0,2240.6,1,778,0.0,2.599999999999909,133,134
188.0,2243.2,1,779,0.0,2.599999999999909,134,134
188.0,2246.0,1,780,0.0,2.800000000000182,134,134
188.0,2248.4,1,781,0.0,2.400000000000091,134,134
188.0,2251.2,1,782,0.0,2.799999999999727,134,134
188.0,2253.6,1,783,0.0,2.400000000000091,134,134
188.0,2256.2,1,784,0.0,2.599999999999909,134,134
188.0,2259.2,1,785,0.0,3.0,134,134
188.0,2261.7,1,786,0.0,2.5,134,133
188.0,2264.0,1,787,0.0,2.300000000000182,133,134
188.0,2266.5,1,788,0.0,2.5,134,134
188.0,2269.0,1,789,0.0,2.5,134,133
188.0,2270.6,1,790,0.0,1.599999999999909,133,133
188.0,2271.9,1,791,0.0,1.300000000000182,133,132
188.0,2272.7,1,792,0.0,0.7999999999997272,132,131
188.0,2273.3,1,793,0.0,0.6000000000003638,131,130
188.0,2273.8,1,794,0.0,0.5,130,130
188.0,2274.0,1,795,0.0,0.1999999999998181,130,129
188.0,2274.2,1,796,0.0,0.1999999999998181,129,128
188.0,2274.2,1,797,0.0,0.0,128,127
188.0,2274.2,1,798,0.0,0.0,127,126
188.0,2274.7,1,799,0.0,0.5,126,125
188.0,2275.2,1,800,0.0,0.5,125,126
188.0,2275.5,7,807,0.0,0.3000000000001819,126,126
188.0,2275.5,1,808,0.0,0.0,126,124
188.0,2275.5,1,809,0.0,0.0,124,125
188.0,2275.5,1,810,0.0,0.0,125,125
188.0,2275.6,1,811,0.0,0.09999999999990905,125,126
188.0,2276.4,1,812,0.0,0.8000000000001819,126,126
188.0,2278.4,1,813,0.0,2.0,126,127
188.0,2280.6,1,814,0.0,2.199999999999818,127,127
188.0,2283.4,1,815,0.0,2.800000000000182,127,128
188.0,2286.7,1,816,0.0,3.299999999999727,128,129
188.0,2290.2,1,817,0.0,3.5,129,129
188.0,2293.8,1,818,0.0,3.600000000000364,129,130
188.0,2297.5,1,819,0.0,3.699999999999818,130,130
188.0,2301.1,1,820,0.0,3.599999999999909,130,130
188.0,2304.8,1,821,0.0,3.700000000000273,130,130
188.0,2308.2,1,822,0.0,3.399999999999636,130,129
188.0,2311.9,1,823,0.0,3.700000000000273,129,129
188.0,2315.1,1,824,0.0,3.199999999999818,129,128
188.0,2318.1,1,825,0.0,3.0,128,128
188.0,2320.9,1,826,0.0,2.800000000000182,128,128
188.0,2323.8,1,827,0.0,2.900000000000091,128,127
188.0,2326.7,1,828,0.0,2.899999999999636,127,127
188.0,2329.6,1,829,0.0,2.900000000000091,127,127
188.0,2332.7,1,830,0.0,3.099999999999909,127,126
188.0,2335.5,1,831,0.0,2.800000000000182,126,126
188.0,2338.0,1,832,0.0,2.5,126,126
188.0,2340.6,1,833,0.0,2.599999999999909,126,125
188.0,2343.4,1,834,0.0,2.800000000000182,125,125
188.0,2346.1,1,835,0.0,2.699999999999818,125,124
188.0,2348.9,1,836,0.0,2.800000000000182,124,124
188.0,2351.8,1,837,0.0,2.900000000000091,124,123
188.0,2354.8,1,838,0.0,3.0,123,123
188.0,2357.7,1,839,0.0,2.899999999999636,123,123
188.0,2360.9,1,840,0.0,3.200000000000273,123,123
188.0,2364.0,1,841,0.0,3.099999999999909,123,122
188.0,2367.0,1,842,0.0,3.0,122,122
188.0,2370.4,1,843,0.0,3.400000000000091,122,122
188.0,2373.3,1,844,0.0,2.900000000000091,122,123
188.0,2376.1,1,845,0.0,2.799999999999727,123,123
188.0,2378.7,1,846,0.0,2.599999999999909,123,123
188.0,2381.5,1,847,0.0,2.800000000000182,123,122
188.0,2384.2,1,848,0.0,2.699999999999818,122,122
188.0,2386.8,1,849,0.0,2.600000000000364,122,122
188.0,2389.5,1,850,0.0,2.699999999999818,122,122
188.0,2392.1,1,851,0.0,2.599999999999909,122,122
188.0,2394.2,1,852,0.0,2.099999999999909,122,122
188.0,2395.8,354,1206,0.0,1.6000000000003638,122,133
188.0,2398.4,1,1207,0.0,2.599999999999909,133,131
188.0,2401.0,1,1208,0.0,2.599999999999909,131,130
188.0,2403.6,1,1209,0.0,2.599999999999909,130,129
188.0,2406.0,1,1210,0.0,2.400000000000091,129,129
188.0,2408.4,1,1211,0.0,2.400000000000091,129,128
188.0,2410.8,1,1212,0.0,2.400000000000091,128,128
188.0,2413.4,1,1213,0.0,2.599999999999909,128,128
188.0,2416.0,1,1214,0.0,2.599999999999909,128,128
188.0,2418.7,1,1215,0.0,2.699999999999818,128,129
188.0,2421.5,1,1216,0.0,2.800000000000182,129,129
188.0,2424.3,1,1217,0.0,2.800000000000182,129,129
188.0,2427.0,1,1218,0.0,2.699999999999818,129,129
188.0,2429.9,1,1219,0.0,2.900000000000091,129,130
188.0,2432.6,1,1220,0.0,2.699999999999818,130,130
188.0,2435.0,1,1221,0.0,2.400000000000091,130,130
188.0,2438.0,1,1222,0.0,3.0,130,130
188.0,2440.6,1,1223,0.0,2.599999999999909,130,130
188.0,2443.4,1,1224,0.0,2.800000000000182,130,130
188.0,2445.9,1,1225,0.0,2.5,130,130
188.0,2448.5,1,1226,0.0,2.599999999999909,130,129
188.0,2451.0,1,1227,0.0,2.5,129,129
188.0,2453.7,1,1228,0.0,2.699999999999818,129,129
188.0,2456.4,1,1229,0.0,2.700000000000273,129,129
188.0,2459.3,1,1230,0.0,2.900000000000091,129,129
188.0,2461.7,1,1231,0.0,2.399999999999636,129,130
188.0,2464.2,1,1232,0.0,2.5,130,129
188.0,2466.9,1,1233,0.0,2.700000000000273,129,129
188.0,2469.4,1,1234,0.0,2.5,129,128
188.0,2472.3,1,1235,0.0,2.900000000000091,128,128
188.0,2475.3,1,1236,0.0,3.0,128,127
188.0,2477.8,1,1237,0.0,2.5,127,127
188.0,2480.5,1,1238,0.0,2.699999999999818,127,126
188.0,2483.2,1,1239,0.0,2.699999999999818,126,126
188.0,2485.7,1,1240,0.0,2.5,126,126
188.0,2488.4,1,1241,0.0,2.700000000000273,126,127
188.0,2491.2,1,1242,0.0,2.799999999999727,127,127
188.0,2493.7,1,1243,0.0,2.5,127,127
188.0,2496.4,1,1244,0.0,2.700000000000273,127,127
188.0,2499.0,1,1245,0.0,2.599999999999909,127,128
188.0,2501.8,1,1246,0.0,2.800000000000182,128,128
188.0,2504.5,1,1247,0.0,2.699999999999818,128,129
188.0,2507.1,1,1248,0.0,2.599999999999909,129,129
188.0,2509.8,1,1249,0.0,2.700000000000273,129,130
188.0,2512.5,1,1250,0.0,2.699999999999818,130,130
188.0,2515.1,1,1251,0.0,2.599999999999909,130,130
188.0,2517.7,1,1252,0.0,2.599999999999909,130,131
188.0,2520.1,1,1253,0.0,2.400000000000091,131,131
188.0,2522.7,1,1254,0.0,2.599999999999909,131,132
188.0,2525.2,1,1255,0.0,2.5,132,132
188.0,2527.7,1,1256,0.0,2.5,132,133
188.0,2530.3,1,1257,0.0,2.600000000000364,133,133
188.0,2532.8,1,1258,0.0,2.5,133,134
188.0,2535.3,1,1259,0.0,2.5,134,134
188.0,2538.0,1,1260,0.0,2.699999999999818,134,134
188.0,2540.6,1,1261,0.0,2.599999999999909,134,134
188.0,2543.1,1,1262,0.0,2.5,134,134
188.0,2545.8,1,1263,0.0,2.700000000000273,134,134
188.0,2548.6,1,1264,0.0,2.799999999999727,134,135
188.0,2551.6,1,1265,0.0,3.0,135,135
188.0,2554.4,1,1266,0.0,2.800000000000182,135,135
188.0,2557.4,1,1267,0.0,3.0,135,136
188.0,2560.4,1,1268,0.0,3.0,136,136
188.0,2563.2,1,1269,0.0,2.799999999999727,136,137
188.0,2566.0,1,1270,0.0,2.800000000000182,137,138
188.0,2568.8,1,1271,0.0,2.800000000000182,138,139
188.0,2571.4,1,1272,0.0,2.599999999999909,139,138
188.0,2573.6,1,1273,0.0,2.199999999999818,138,139
188.0,2575.6,1,1274,0.0,2.0,139,139
