<?xml version="1.0" encoding="UTF-8"?>
<gpx xmlns:xsi="http://www.w3.org/2001/XMLSchema-instance" xmlns="http://www.topografix.com/GPX/1/1" xsi:schemaLocation="http://www.topografix.com/GPX/1/1 http://www.topografix.com/GPX/1/1/gpx.xsd http://www.garmin.com/xmlschemas/GpxExtensions/v3 http://www.garmin.com/xmlschemas/GpxExtensionsv3.xsd http://www.garmin.com/xmlschemas/TrackPointExtension/v1 http://www.garmin.com/xmlschemas/TrackPointExtensionv1.xsd" xmlns:gpxtpx="http://www.garmin.com/xmlschemas/TrackPointExtension/v1" xmlns:gpxx="http://www.garmin.com/xmlschemas/GpxExtensions/v3" version="1.1" creator="https://gpxstudio.github.io">
<metadata>
    <name>new</name>
    <author>gpx.studio</author>
    <type>Running</type>
    <link>https://gpxstudio.github.io</link>
</metadata>
<trk>
    <trkseg>
    <trkpt lat="55.745912" lon="48.736773">
        <ele>197.6</ele>
        <extensions>
        <gpxtpx:TrackPointExtension>
        </gpxtpx:TrackPointExtension>
        </extensions>
    </trkpt>
    <trkpt lat="55.745402" lon="48.735883">
        <ele>198.4</ele>
        <extensions>
        <gpxtpx:TrackPointExtension>
        </gpxtpx:TrackPointExtension>
        </extensions>
    </trkpt>
    <trkpt lat="55.745320" lon="48.735740">
        <ele>198.5</ele>
        <extensions>
        <gpxtpx:TrackPointExtension>
        </gpxtpx:TrackPointExtension>
        </extensions>
    </trkpt>
    <trkpt lat="55.744953" lon="48.735086">
        <ele>198.7</ele>
        <extensions>
        <gpxtpx:TrackPointExtension>
        </gpxtpx:TrackPointExtension>
        </extensions>
    </trkpt>
    <trkpt lat="55.744653" lon="48.734533">
        <ele>198.9</ele>
        <extensions>
        <gpxtpx:TrackPointExtension>
        </gpxtpx:TrackPointExtension>
        </extensions>
    </trkpt>
    <trkpt lat="55.744235" lon="48.733702">
        <ele>198.9</ele>
        <extensions>
        <gpxtpx:TrackPointExtension>
        </gpxtpx:TrackPointExtension>
        </extensions>
    </trkpt>
    <trkpt lat="55.743898" lon="48.732975">
        <ele>198.9</ele>
        <extensions>
        <gpxtpx:TrackPointExtension>
        </gpxtpx:TrackPointExtension>
        </extensions>
    </trkpt>
    <trkpt lat="55.743537" lon="48.732184">
        <ele>198.9</ele>
        <extensions>
        <gpxtpx:TrackPointExtension>
        </gpxtpx:TrackPointExtension>
        </extensions>
    </trkpt>
    <trkpt lat="55.743208" lon="48.731414">
        <ele>198.3</ele>
        <extensions>
        <gpxtpx:TrackPointExtension>
        </gpxtpx:TrackPointExtension>
        </extensions>
    </trkpt>
    <trkpt lat="55.743006" lon="48.730902">
        <ele>197.8</ele>
        <extensions>
        <gpxtpx:TrackPointExtension>
        </gpxtpx:TrackPointExtension>
        </extensions>
    </trkpt>
    <trkpt lat="55.742912" lon="48.730660">
        <ele>197.5</ele>
        <extensions>
        <gpxtpx:TrackPointExtension>
        </gpxtpx:TrackPointExtension>
        </extensions>
    </trkpt>
    <trkpt lat="55.743000" lon="48.730717">
        <ele>197.5</ele>
        <extensions>
        <gpxtpx:TrackPointExtension>
        </gpxtpx:TrackPointExtension>
        </extensions>
    </trkpt>
    <trkpt lat="55.743261" lon="48.731441">
        <ele>198.3</ele>
        <extensions>
        <gpxtpx:TrackPointExtension>
        </gpxtpx:TrackPointExtension>
        </extensions>
    </trkpt>
    <trkpt lat="55.743673" lon="48.732420">
        <ele>198.9</ele>
        <extensions>
        <gpxtpx:TrackPointExtension>
        </gpxtpx:TrackPointExtension>
        </extensions>
    </trkpt>
    <trkpt lat="55.743898" lon="48.732919">
        <ele>198.9</ele>
        <extensions>
        <gpxtpx:TrackPointExtension>
        </gpxtpx:TrackPointExtension>
        </extensions>
    </trkpt>
    <trkpt lat="55.744112" lon="48.733412">
        <ele>198.8</ele>
        <extensions>
        <gpxtpx:TrackPointExtension>
        </gpxtpx:TrackPointExtension>
        </extensions>
    </trkpt>
    <trkpt lat="55.744595" lon="48.734350">
        <ele>198.8</ele>
        <extensions>
        <gpxtpx:TrackPointExtension>
        </gpxtpx:TrackPointExtension>
        </extensions>
    </trkpt>
    <trkpt lat="55.744647" lon="48.734450">
        <ele>198.8</ele>
        <extensions>
        <gpxtpx:TrackPointExtension>
        </gpxtpx:TrackPointExtension>
        </extensions>
    </trkpt>
    <trkpt lat="55.744870" lon="48.734874">
        <ele>198.7</ele>
        <extensions>
        <gpxtpx:TrackPointExtension>
        </gpxtpx:TrackPointExtension>
        </extensions>
    </trkpt>
    <trkpt lat="55.745357" lon="48.735751">
        <ele>198.4</ele>
        <extensions>
        <gpxtpx:TrackPointExtension>
        </gpxtpx:TrackPointExtension>
        </extensions>
    </trkpt>
    <trkpt lat="55.745761" lon="48.736446">
        <ele>197.9</ele>
        <extensions>
        <gpxtpx:TrackPointExtension>
        </gpxtpx:TrackPointExtension>
        </extensions>
    </trkpt>
    <trkpt lat="55.746051" lon="48.736977">
        <ele>197.4</ele>
        <extensions>
        <gpxtpx:TrackPointExtension>
        </gpxtpx:TrackPointExtension>
        </extensions>
    </trkpt>
    <trkpt lat="55.746371" lon="48.737508">
        <ele>196.9</ele>
        <extensions>
        <gpxtpx:TrackPointExtension>
        </gpxtpx:TrackPointExtension>
        </extensions>
    </trkpt>
    <trkpt lat="55.746709" lon="48.737996">
        <ele>196.4</ele>
        <extensions>
        <gpxtpx:TrackPointExtension>
        </gpxtpx:TrackPointExtension>
        </extensions>
    </trkpt>
    <trkpt lat="55.747007" lon="48.738447">
        <ele>196.1</ele>
        <extensions>
        <gpxtpx:TrackPointExtension>
        </gpxtpx:TrackPointExtension>
        </extensions>
    </trkpt>
    <trkpt lat="55.747358" lon="48.738986">
        <ele>196.0</ele>
        <extensions>
        <gpxtpx:TrackPointExtension>
        </gpxtpx:TrackPointExtension>
        </extensions>
    </trkpt>
    <trkpt lat="55.747645" lon="48.739367">
        <ele>195.8</ele>
        <extensions>
        <gpxtpx:TrackPointExtension>
        </gpxtpx:TrackPointExtension>
        </extensions>
    </trkpt>
    <trkpt lat="55.747834" lon="48.739632">
        <ele>195.8</ele>
        <extensions>
        <gpxtpx:TrackPointExtension>
        </gpxtpx:TrackPointExtension>
        </extensions>
    </trkpt>
    <trkpt lat="55.748104" lon="48.739992">
        <ele>195.9</ele>
        <extensions>
        <gpxtpx:TrackPointExtension>
        </gpxtpx:TrackPointExtension>
        </extensions>
    </trkpt>
    <trkpt lat="55.748373" lon="48.740340">
        <ele>196.1</ele>
        <extensions>
        <gpxtpx:TrackPointExtension>
        </gpxtpx:TrackPointExtension>
        </extensions>
    </trkpt>
    <trkpt lat="55.748738" lon="48.740770">
        <ele>196.5</ele>
        <extensions>
        <gpxtpx:TrackPointExtension>
        </gpxtpx:TrackPointExtension>
        </extensions>
    </trkpt>
    <trkpt lat="55.748974" lon="48.741006">
        <ele>196.2</ele>
        <extensions>
        <gpxtpx:TrackPointExtension>
        </gpxtpx:TrackPointExtension>
        </extensions>
    </trkpt>
    <trkpt lat="55.749264" lon="48.741378">
        <ele>195.9</ele>
        <extensions>
        <gpxtpx:TrackPointExtension>
        </gpxtpx:TrackPointExtension>
        </extensions>
    </trkpt>
    <trkpt lat="55.749472" lon="48.741608">
        <ele>195.8</ele>
        <extensions>
        <gpxtpx:TrackPointExtension>
        </gpxtpx:TrackPointExtension>
        </extensions>
    </trkpt>
    </trkseg>
    </trk>
</gpx>