<?xml version="1.0" encoding="UTF-8"?>
<gpx xmlns:xsi="http://www.w3.org/2001/XMLSchema-instance" xmlns="http://www.topografix.com/GPX/1/1" xsi:schemaLocation="http://www.topografix.com/GPX/1/1 http://www.topografix.com/GPX/1/1/gpx.xsd http://www.garmin.com/xmlschemas/GpxExtensions/v3 http://www.garmin.com/xmlschemas/GpxExtensionsv3.xsd http://www.garmin.com/xmlschemas/TrackPointExtension/v1 http://www.garmin.com/xmlschemas/TrackPointExtensionv1.xsd" xmlns:gpxtpx="http://www.garmin.com/xmlschemas/TrackPointExtension/v1" xmlns:gpxx="http://www.garmin.com/xmlschemas/GpxExtensions/v3" version="1.1" creator="https://gpxstudio.github.io">
<metadata>
    <name>new</name>
    <author>gpx.studio</author>
    <type>Running</type>
    <link>https://gpxstudio.github.io</link>
</metadata>
<trk>
    <trkseg>
    <trkpt lat="55.752542" lon="48.741413">
        <ele>190.2</ele>
        <extensions>
        <gpxtpx:TrackPointExtension>
        </gpxtpx:TrackPointExtension>
        </extensions>
    </trkpt>
    <trkpt lat="55.752731" lon="48.740188">
        <ele>187.6</ele>
        <extensions>
        <gpxtpx:TrackPointExtension>
        </gpxtpx:TrackPointExtension>
        </extensions>
    </trkpt>
    <trkpt lat="55.752779" lon="48.739879">
        <ele>187.0</ele>
        <extensions>
        <gpxtpx:TrackPointExtension>
        </gpxtpx:TrackPointExtension>
        </extensions>
    </trkpt>
    <trkpt lat="55.752861" lon="48.739431">
        <ele>186.3</ele>
        <extensions>
        <gpxtpx:TrackPointExtension>
        </gpxtpx:TrackPointExtension>
        </extensions>
    </trkpt>
    <trkpt lat="55.752935" lon="48.738855">
        <ele>185.5</ele>
        <extensions>
        <gpxtpx:TrackPointExtension>
        </gpxtpx:TrackPointExtension>
        </extensions>
    </trkpt>
    <trkpt lat="55.753152" lon="48.738989">
        <ele>185.6</ele>
        <extensions>
        <gpxtpx:TrackPointExtension>
        </gpxtpx:TrackPointExtension>
        </extensions>
    </trkpt>
    <trkpt lat="55.753342" lon="48.739069">
        <ele>185.7</ele>
        <extensions>
        <gpxtpx:TrackPointExtension>
        </gpxtpx:TrackPointExtension>
        </extensions>
    </trkpt>
    <trkpt lat="55.753314" lon="48.739415">
        <ele>186.1</ele>
        <extensions>
        <gpxtpx:TrackPointExtension>
        </gpxtpx:TrackPointExtension>
        </extensions>
    </trkpt>
    <trkpt lat="55.753525" lon="48.739538">
        <ele>186.3</ele>
        <extensions>
        <gpxtpx:TrackPointExtension>
        </gpxtpx:TrackPointExtension>
        </extensions>
    </trkpt>
    <trkpt lat="55.753788" lon="48.739640">
        <ele>186.7</ele>
        <extensions>
        <gpxtpx:TrackPointExtension>
        </gpxtpx:TrackPointExtension>
        </extensions>
    </trkpt>
    <trkpt lat="55.754043" lon="48.739764">
        <ele>187.1</ele>
        <extensions>
        <gpxtpx:TrackPointExtension>
        </gpxtpx:TrackPointExtension>
        </extensions>
    </trkpt>
    <trkpt lat="55.754278" lon="48.739874">
        <ele>187.4</ele>
        <extensions>
        <gpxtpx:TrackPointExtension>
        </gpxtpx:TrackPointExtension>
        </extensions>
    </trkpt>
    <trkpt lat="55.754511" lon="48.739986">
        <ele>187.8</ele>
        <extensions>
        <gpxtpx:TrackPointExtension>
        </gpxtpx:TrackPointExtension>
        </extensions>
    </trkpt>
    <trkpt lat="55.754437" lon="48.740496">
        <ele>188.3</ele>
        <extensions>
        <gpxtpx:TrackPointExtension>
        </gpxtpx:TrackPointExtension>
        </extensions>
    </trkpt>
    <trkpt lat="55.754408" lon="48.740560">
        <ele>188.3</ele>
        <extensions>
        <gpxtpx:TrackPointExtension>
        </gpxtpx:TrackPointExtension>
        </extensions>
    </trkpt>
    <trkpt lat="55.754037" lon="48.740381">
        <ele>187.7</ele>
        <extensions>
        <gpxtpx:TrackPointExtension>
        </gpxtpx:TrackPointExtension>
        </extensions>
    </trkpt>
    <trkpt lat="55.753855" lon="48.740322">
        <ele>187.5</ele>
        <extensions>
        <gpxtpx:TrackPointExtension>
        </gpxtpx:TrackPointExtension>
        </extensions>
    </trkpt>
    <trkpt lat="55.753425" lon="48.740110">
        <ele>186.8</ele>
        <extensions>
        <gpxtpx:TrackPointExtension>
        </gpxtpx:TrackPointExtension>
        </extensions>
    </trkpt>
    <trkpt lat="55.753270" lon="48.740053">
        <ele>186.9</ele>
        <extensions>
        <gpxtpx:TrackPointExtension>
        </gpxtpx:TrackPointExtension>
        </extensions>
    </trkpt>
    <trkpt lat="55.753187" lon="48.740389">
        <ele>187.3</ele>
        <extensions>
        <gpxtpx:TrackPointExtension>
        </gpxtpx:TrackPointExtension>
        </extensions>
    </trkpt>
    <trkpt lat="55.753161" lon="48.740625">
        <ele>187.7</ele>
        <extensions>
        <gpxtpx:TrackPointExtension>
        </gpxtpx:TrackPointExtension>
        </extensions>
    </trkpt>
    <trkpt lat="55.753433" lon="48.740791">
        <ele>187.6</ele>
        <extensions>
        <gpxtpx:TrackPointExtension>
        </gpxtpx:TrackPointExtension>
        </extensions>
    </trkpt>
    <trkpt lat="55.753658" lon="48.740858">
        <ele>187.9</ele>
        <extensions>
        <gpxtpx:TrackPointExtension>
        </gpxtpx:TrackPointExtension>
        </extensions>
    </trkpt>
    <trkpt lat="55.753949" lon="48.740984">
        <ele>188.5</ele>
        <extensions>
        <gpxtpx:TrackPointExtension>
        </gpxtpx:TrackPointExtension>
        </extensions>
    </trkpt>
    <trkpt lat="55.754120" lon="48.741083">
        <ele>188.9</ele>
        <extensions>
        <gpxtpx:TrackPointExtension>
        </gpxtpx:TrackPointExtension>
        </extensions>
    </trkpt>
    <trkpt lat="55.754307" lon="48.741191">
        <ele>189.4</ele>
        <extensions>
        <gpxtpx:TrackPointExtension>
        </gpxtpx:TrackPointExtension>
        </extensions>
    </trkpt>
    <trkpt lat="55.754240" lon="48.741716">
        <ele>190.6</ele>
        <extensions>
        <gpxtpx:TrackPointExtension>
        </gpxtpx:TrackPointExtension>
        </extensions>
    </trkpt>
    <trkpt lat="55.753621" lon="48.741472">
        <ele>189.5</ele>
        <extensions>
        <gpxtpx:TrackPointExtension>
        </gpxtpx:TrackPointExtension>
        </extensions>
    </trkpt>
    </trkseg>
    </trk>
</gpx>